%!PS-Adobe-3.0 EPSF-3.0
%%Title: output/make_one_particle_far_away.eps
%%Creator: matplotlib version 1.4.3, http://matplotlib.org/
%%CreationDate: Sun Nov  6 14:14:33 2016
%%Orientation: portrait
%%BoundingBox: 18 180 594 612
%%EndComments
%%BeginProlog
/mpldict 7 dict def
mpldict begin
/m { moveto } bind def
/l { lineto } bind def
/r { rlineto } bind def
/c { curveto } bind def
/cl { closepath } bind def
/box {
m
1 index 0 r
0 exch r
neg 0 r
cl
} bind def
/clipbox {
box
clip
newpath
} bind def
end
%%EndProlog
mpldict begin
18 180 translate
576 432 0 0 clipbox
gsave
0 0 m
576 0 l
576 432 l
0 432 l
cl
1.000 setgray
fill
grestore
gsave
0 0 m
576 0 l
576 432 l
0 432 l
cl
1.000 setgray
fill
grestore
1.000 setlinewidth
1 setlinejoin
0 setlinecap
[] 0 setdash
0.900 setgray
gsave
81.7308 94.1379 m
246.336 200.237 l
243.847 402.746 l
stroke
grestore
gsave
118.836 85.0305 m
281.7 192.396 l
280.987 395.725 l
stroke
grestore
gsave
156.402 75.8099 m
317.472 184.464 l
318.577 388.619 l
stroke
grestore
gsave
194.437 66.4742 m
353.658 176.44 l
356.625 381.427 l
stroke
grestore
gsave
232.95 57.021 m
390.266 168.323 l
395.138 374.147 l
stroke
grestore
gsave
271.951 47.4482 m
427.302 160.11 l
434.127 366.777 l
stroke
grestore
gsave
311.448 37.7535 m
464.776 151.801 l
473.599 359.316 l
stroke
grestore
gsave
351.452 27.9346 m
502.693 143.394 l
513.563 351.761 l
stroke
grestore
gsave
68.1802 310.654 m
79.9044 97.7355 l
360.587 28.9889 l
stroke
grestore
gsave
93.6286 324.569 m
103.933 113.173 l
382.645 45.8938 l
stroke
grestore
gsave
118.521 338.179 m
127.462 128.291 l
404.226 62.4319 l
stroke
grestore
gsave
142.875 351.495 m
150.509 143.098 l
425.343 78.615 l
stroke
grestore
gsave
166.708 364.527 m
173.087 157.604 l
446.011 94.4543 l
stroke
grestore
gsave
190.037 377.282 m
195.21 171.818 l
466.245 109.961 l
stroke
grestore
gsave
212.877 389.771 m
216.893 185.749 l
486.058 125.145 l
stroke
grestore
gsave
235.244 402 m
238.147 199.404 l
505.464 140.016 l
stroke
grestore
gsave
508.473 146.125 m
241.16 205.231 l
76.1311 99.5039 l
stroke
grestore
gsave
509.941 173.532 m
240.798 231.884 l
74.5642 127.482 l
stroke
grestore
gsave
511.431 201.32 m
240.432 258.892 l
72.9749 155.862 l
stroke
grestore
gsave
512.941 229.497 m
240.061 286.262 l
71.3625 184.654 l
stroke
grestore
gsave
514.472 258.072 m
239.685 314.002 l
69.7267 213.864 l
stroke
grestore
gsave
516.025 287.053 m
239.303 342.119 l
68.0668 243.504 l
stroke
grestore
gsave
517.6 316.448 m
238.917 370.621 l
66.3823 273.582 l
stroke
grestore
gsave
519.198 346.267 m
238.525 399.516 l
64.6728 304.109 l
stroke
grestore
/p0_0 {
newpath
translate
-2.23607 -2.23607 m
2.23607 2.23607 l
-2.23607 2.23607 m
2.23607 -2.23607 l
} bind def
0.000 0.000 1.000 setrgbcolor
gsave
576 432 0 0 clipbox
146.98 135.648 p0_0
gsave
fill
grestore
stroke
grestore
gsave
576 432 0 0 clipbox
143.705 136.461 p0_0
gsave
fill
grestore
stroke
grestore
gsave
576 432 0 0 clipbox
145.916 136.808 p0_0
gsave
fill
grestore
stroke
grestore
gsave
576 432 0 0 clipbox
143.95 135.46 p0_0
gsave
fill
grestore
stroke
grestore
gsave
576 432 0 0 clipbox
147.486 135.658 p0_0
gsave
fill
grestore
stroke
grestore
gsave
576 432 0 0 clipbox
146.744 138.761 p0_0
gsave
fill
grestore
stroke
grestore
gsave
576 432 0 0 clipbox
145.56 133.556 p0_0
gsave
fill
grestore
stroke
grestore
gsave
576 432 0 0 clipbox
143.801 135.567 p0_0
gsave
fill
grestore
stroke
grestore
gsave
576 432 0 0 clipbox
145.291 133.861 p0_0
gsave
fill
grestore
stroke
grestore
gsave
576 432 0 0 clipbox
146.159 134.737 p0_0
gsave
fill
grestore
stroke
grestore
gsave
576 432 0 0 clipbox
142.172 134.583 p0_0
gsave
fill
grestore
stroke
grestore
gsave
576 432 0 0 clipbox
144.791 136.126 p0_0
gsave
fill
grestore
stroke
grestore
gsave
576 432 0 0 clipbox
145.835 136.374 p0_0
gsave
fill
grestore
stroke
grestore
gsave
576 432 0 0 clipbox
144.162 135.448 p0_0
gsave
fill
grestore
stroke
grestore
gsave
576 432 0 0 clipbox
142.783 133.839 p0_0
gsave
fill
grestore
stroke
grestore
gsave
576 432 0 0 clipbox
143.798 136.703 p0_0
gsave
fill
grestore
stroke
grestore
gsave
576 432 0 0 clipbox
142.767 135.702 p0_0
gsave
fill
grestore
stroke
grestore
gsave
576 432 0 0 clipbox
139.532 135.878 p0_0
gsave
fill
grestore
stroke
grestore
gsave
576 432 0 0 clipbox
146.535 135.908 p0_0
gsave
fill
grestore
stroke
grestore
gsave
576 432 0 0 clipbox
140.559 134.259 p0_0
gsave
fill
grestore
stroke
grestore
gsave
576 432 0 0 clipbox
147.516 132.954 p0_0
gsave
fill
grestore
stroke
grestore
gsave
576 432 0 0 clipbox
140.297 134.033 p0_0
gsave
fill
grestore
stroke
grestore
gsave
576 432 0 0 clipbox
141.472 134.7 p0_0
gsave
fill
grestore
stroke
grestore
gsave
576 432 0 0 clipbox
148.914 135.222 p0_0
gsave
fill
grestore
stroke
grestore
gsave
576 432 0 0 clipbox
144.615 135.468 p0_0
gsave
fill
grestore
stroke
grestore
gsave
576 432 0 0 clipbox
142.847 137.201 p0_0
gsave
fill
grestore
stroke
grestore
gsave
576 432 0 0 clipbox
148.326 134.59 p0_0
gsave
fill
grestore
stroke
grestore
gsave
576 432 0 0 clipbox
149.28 133.386 p0_0
gsave
fill
grestore
stroke
grestore
gsave
576 432 0 0 clipbox
145.628 137.402 p0_0
gsave
fill
grestore
stroke
grestore
gsave
576 432 0 0 clipbox
144.076 134.345 p0_0
gsave
fill
grestore
stroke
grestore
gsave
576 432 0 0 clipbox
145.947 132.098 p0_0
gsave
fill
grestore
stroke
grestore
gsave
576 432 0 0 clipbox
147.843 135.545 p0_0
gsave
fill
grestore
stroke
grestore
gsave
576 432 0 0 clipbox
143.497 133.631 p0_0
gsave
fill
grestore
stroke
grestore
gsave
576 432 0 0 clipbox
149.579 137.649 p0_0
gsave
fill
grestore
stroke
grestore
gsave
576 432 0 0 clipbox
145.893 133.588 p0_0
gsave
fill
grestore
stroke
grestore
gsave
576 432 0 0 clipbox
152.684 134.858 p0_0
gsave
fill
grestore
stroke
grestore
gsave
576 432 0 0 clipbox
144.075 135.818 p0_0
gsave
fill
grestore
stroke
grestore
gsave
576 432 0 0 clipbox
143.554 132.881 p0_0
gsave
fill
grestore
stroke
grestore
gsave
576 432 0 0 clipbox
142.219 131.931 p0_0
gsave
fill
grestore
stroke
grestore
gsave
576 432 0 0 clipbox
143.557 133.474 p0_0
gsave
fill
grestore
stroke
grestore
gsave
576 432 0 0 clipbox
145.108 133.955 p0_0
gsave
fill
grestore
stroke
grestore
gsave
576 432 0 0 clipbox
144.036 138.481 p0_0
gsave
fill
grestore
stroke
grestore
gsave
576 432 0 0 clipbox
145.815 134.052 p0_0
gsave
fill
grestore
stroke
grestore
gsave
576 432 0 0 clipbox
143.917 136.401 p0_0
gsave
fill
grestore
stroke
grestore
gsave
576 432 0 0 clipbox
146.001 134.811 p0_0
gsave
fill
grestore
stroke
grestore
gsave
576 432 0 0 clipbox
143.739 136.692 p0_0
gsave
fill
grestore
stroke
grestore
gsave
576 432 0 0 clipbox
141.439 132.795 p0_0
gsave
fill
grestore
stroke
grestore
gsave
576 432 0 0 clipbox
144.47 134.365 p0_0
gsave
fill
grestore
stroke
grestore
gsave
576 432 0 0 clipbox
145.028 137.822 p0_0
gsave
fill
grestore
stroke
grestore
gsave
576 432 0 0 clipbox
145.938 133.973 p0_0
gsave
fill
grestore
stroke
grestore
gsave
576 432 0 0 clipbox
147.563 136.702 p0_0
gsave
fill
grestore
stroke
grestore
gsave
576 432 0 0 clipbox
150.651 132.279 p0_0
gsave
fill
grestore
stroke
grestore
gsave
576 432 0 0 clipbox
147.57 135.639 p0_0
gsave
fill
grestore
stroke
grestore
gsave
576 432 0 0 clipbox
146.546 136.251 p0_0
gsave
fill
grestore
stroke
grestore
gsave
576 432 0 0 clipbox
143.165 133.864 p0_0
gsave
fill
grestore
stroke
grestore
gsave
576 432 0 0 clipbox
142.379 138.087 p0_0
gsave
fill
grestore
stroke
grestore
gsave
576 432 0 0 clipbox
146.74 133.259 p0_0
gsave
fill
grestore
stroke
grestore
gsave
576 432 0 0 clipbox
140.815 134.292 p0_0
gsave
fill
grestore
stroke
grestore
gsave
576 432 0 0 clipbox
148.953 135.461 p0_0
gsave
fill
grestore
stroke
grestore
gsave
576 432 0 0 clipbox
143.461 135.62 p0_0
gsave
fill
grestore
stroke
grestore
gsave
576 432 0 0 clipbox
144.054 133.555 p0_0
gsave
fill
grestore
stroke
grestore
gsave
576 432 0 0 clipbox
146.97 137.538 p0_0
gsave
fill
grestore
stroke
grestore
gsave
576 432 0 0 clipbox
145.047 136.684 p0_0
gsave
fill
grestore
stroke
grestore
gsave
576 432 0 0 clipbox
148.657 138.211 p0_0
gsave
fill
grestore
stroke
grestore
gsave
576 432 0 0 clipbox
143.494 132.955 p0_0
gsave
fill
grestore
stroke
grestore
gsave
576 432 0 0 clipbox
146.191 132.359 p0_0
gsave
fill
grestore
stroke
grestore
gsave
576 432 0 0 clipbox
149.608 134.96 p0_0
gsave
fill
grestore
stroke
grestore
gsave
576 432 0 0 clipbox
144.635 134.678 p0_0
gsave
fill
grestore
stroke
grestore
gsave
576 432 0 0 clipbox
139.655 134.63 p0_0
gsave
fill
grestore
stroke
grestore
gsave
576 432 0 0 clipbox
145.37 135.263 p0_0
gsave
fill
grestore
stroke
grestore
gsave
576 432 0 0 clipbox
141.793 134.402 p0_0
gsave
fill
grestore
stroke
grestore
gsave
576 432 0 0 clipbox
146.717 135.74 p0_0
gsave
fill
grestore
stroke
grestore
gsave
576 432 0 0 clipbox
144.934 134.371 p0_0
gsave
fill
grestore
stroke
grestore
gsave
576 432 0 0 clipbox
141.775 136.798 p0_0
gsave
fill
grestore
stroke
grestore
gsave
576 432 0 0 clipbox
145.555 137.346 p0_0
gsave
fill
grestore
stroke
grestore
gsave
576 432 0 0 clipbox
144.931 135.318 p0_0
gsave
fill
grestore
stroke
grestore
gsave
576 432 0 0 clipbox
146.734 137.465 p0_0
gsave
fill
grestore
stroke
grestore
gsave
576 432 0 0 clipbox
148.067 133.693 p0_0
gsave
fill
grestore
stroke
grestore
gsave
576 432 0 0 clipbox
142.543 133.316 p0_0
gsave
fill
grestore
stroke
grestore
gsave
576 432 0 0 clipbox
146.464 137.569 p0_0
gsave
fill
grestore
stroke
grestore
gsave
576 432 0 0 clipbox
144.441 133.278 p0_0
gsave
fill
grestore
stroke
grestore
gsave
576 432 0 0 clipbox
144.562 134.794 p0_0
gsave
fill
grestore
stroke
grestore
gsave
576 432 0 0 clipbox
145.473 132.604 p0_0
gsave
fill
grestore
stroke
grestore
gsave
576 432 0 0 clipbox
143.71 135.284 p0_0
gsave
fill
grestore
stroke
grestore
gsave
576 432 0 0 clipbox
146.143 131.846 p0_0
gsave
fill
grestore
stroke
grestore
gsave
576 432 0 0 clipbox
146.742 137.411 p0_0
gsave
fill
grestore
stroke
grestore
gsave
576 432 0 0 clipbox
143.273 134.02 p0_0
gsave
fill
grestore
stroke
grestore
gsave
576 432 0 0 clipbox
147.498 138.308 p0_0
gsave
fill
grestore
stroke
grestore
gsave
576 432 0 0 clipbox
144.856 136.398 p0_0
gsave
fill
grestore
stroke
grestore
gsave
576 432 0 0 clipbox
145.016 133.933 p0_0
gsave
fill
grestore
stroke
grestore
gsave
576 432 0 0 clipbox
146.66 135.177 p0_0
gsave
fill
grestore
stroke
grestore
gsave
576 432 0 0 clipbox
145.362 133.234 p0_0
gsave
fill
grestore
stroke
grestore
gsave
576 432 0 0 clipbox
148.5 133.612 p0_0
gsave
fill
grestore
stroke
grestore
gsave
576 432 0 0 clipbox
145.948 132.964 p0_0
gsave
fill
grestore
stroke
grestore
gsave
576 432 0 0 clipbox
140.191 138.629 p0_0
gsave
fill
grestore
stroke
grestore
gsave
576 432 0 0 clipbox
141.5 135.372 p0_0
gsave
fill
grestore
stroke
grestore
gsave
576 432 0 0 clipbox
144.648 135.144 p0_0
gsave
fill
grestore
stroke
grestore
gsave
576 432 0 0 clipbox
145.9 133.454 p0_0
gsave
fill
grestore
stroke
grestore
gsave
576 432 0 0 clipbox
148.107 134.938 p0_0
gsave
fill
grestore
stroke
grestore
gsave
576 432 0 0 clipbox
144.694 136.101 p0_0
gsave
fill
grestore
stroke
grestore
gsave
576 432 0 0 clipbox
145.025 134.161 p0_0
gsave
fill
grestore
stroke
grestore
gsave
576 432 0 0 clipbox
140.517 135.444 p0_0
gsave
fill
grestore
stroke
grestore
gsave
576 432 0 0 clipbox
142.362 136.527 p0_0
gsave
fill
grestore
stroke
grestore
gsave
576 432 0 0 clipbox
143.956 136.989 p0_0
gsave
fill
grestore
stroke
grestore
gsave
576 432 0 0 clipbox
143.832 133.558 p0_0
gsave
fill
grestore
stroke
grestore
gsave
576 432 0 0 clipbox
145.132 135.116 p0_0
gsave
fill
grestore
stroke
grestore
gsave
576 432 0 0 clipbox
144.796 135.224 p0_0
gsave
fill
grestore
stroke
grestore
gsave
576 432 0 0 clipbox
146.182 136.319 p0_0
gsave
fill
grestore
stroke
grestore
gsave
576 432 0 0 clipbox
148.536 130.968 p0_0
gsave
fill
grestore
stroke
grestore
gsave
576 432 0 0 clipbox
142.864 134.745 p0_0
gsave
fill
grestore
stroke
grestore
gsave
576 432 0 0 clipbox
140.982 135.5 p0_0
gsave
fill
grestore
stroke
grestore
gsave
576 432 0 0 clipbox
146.609 132.249 p0_0
gsave
fill
grestore
stroke
grestore
gsave
576 432 0 0 clipbox
147.156 135.878 p0_0
gsave
fill
grestore
stroke
grestore
gsave
576 432 0 0 clipbox
144.339 135.713 p0_0
gsave
fill
grestore
stroke
grestore
gsave
576 432 0 0 clipbox
144.85 135.036 p0_0
gsave
fill
grestore
stroke
grestore
gsave
576 432 0 0 clipbox
143.177 137.104 p0_0
gsave
fill
grestore
stroke
grestore
gsave
576 432 0 0 clipbox
143.639 132.292 p0_0
gsave
fill
grestore
stroke
grestore
gsave
576 432 0 0 clipbox
146.065 136.253 p0_0
gsave
fill
grestore
stroke
grestore
gsave
576 432 0 0 clipbox
145.793 135.195 p0_0
gsave
fill
grestore
stroke
grestore
gsave
576 432 0 0 clipbox
145.375 132.857 p0_0
gsave
fill
grestore
stroke
grestore
gsave
576 432 0 0 clipbox
144.504 135.683 p0_0
gsave
fill
grestore
stroke
grestore
gsave
576 432 0 0 clipbox
141.114 136.892 p0_0
gsave
fill
grestore
stroke
grestore
gsave
576 432 0 0 clipbox
143.132 137.526 p0_0
gsave
fill
grestore
stroke
grestore
gsave
576 432 0 0 clipbox
147.426 137.172 p0_0
gsave
fill
grestore
stroke
grestore
gsave
576 432 0 0 clipbox
144.698 131.363 p0_0
gsave
fill
grestore
stroke
grestore
gsave
576 432 0 0 clipbox
148.269 134.278 p0_0
gsave
fill
grestore
stroke
grestore
gsave
576 432 0 0 clipbox
144.745 133.139 p0_0
gsave
fill
grestore
stroke
grestore
gsave
576 432 0 0 clipbox
146.496 133.504 p0_0
gsave
fill
grestore
stroke
grestore
gsave
576 432 0 0 clipbox
149.948 138.653 p0_0
gsave
fill
grestore
stroke
grestore
gsave
576 432 0 0 clipbox
144.236 133.815 p0_0
gsave
fill
grestore
stroke
grestore
gsave
576 432 0 0 clipbox
142.355 134.455 p0_0
gsave
fill
grestore
stroke
grestore
gsave
576 432 0 0 clipbox
145.689 136.38 p0_0
gsave
fill
grestore
stroke
grestore
gsave
576 432 0 0 clipbox
143.895 137.292 p0_0
gsave
fill
grestore
stroke
grestore
gsave
576 432 0 0 clipbox
143.216 134.053 p0_0
gsave
fill
grestore
stroke
grestore
gsave
576 432 0 0 clipbox
141.433 134.488 p0_0
gsave
fill
grestore
stroke
grestore
gsave
576 432 0 0 clipbox
146.917 133.702 p0_0
gsave
fill
grestore
stroke
grestore
gsave
576 432 0 0 clipbox
144.02 133.616 p0_0
gsave
fill
grestore
stroke
grestore
gsave
576 432 0 0 clipbox
141.187 133.1 p0_0
gsave
fill
grestore
stroke
grestore
gsave
576 432 0 0 clipbox
141.942 132.86 p0_0
gsave
fill
grestore
stroke
grestore
gsave
576 432 0 0 clipbox
144.939 132.055 p0_0
gsave
fill
grestore
stroke
grestore
gsave
576 432 0 0 clipbox
144.477 132.443 p0_0
gsave
fill
grestore
stroke
grestore
gsave
576 432 0 0 clipbox
143.656 133.46 p0_0
gsave
fill
grestore
stroke
grestore
gsave
576 432 0 0 clipbox
144.133 132.116 p0_0
gsave
fill
grestore
stroke
grestore
gsave
576 432 0 0 clipbox
143.411 133.729 p0_0
gsave
fill
grestore
stroke
grestore
gsave
576 432 0 0 clipbox
144.994 134.846 p0_0
gsave
fill
grestore
stroke
grestore
gsave
576 432 0 0 clipbox
146.271 136.701 p0_0
gsave
fill
grestore
stroke
grestore
gsave
576 432 0 0 clipbox
143.729 135.704 p0_0
gsave
fill
grestore
stroke
grestore
gsave
576 432 0 0 clipbox
143.102 134.107 p0_0
gsave
fill
grestore
stroke
grestore
gsave
576 432 0 0 clipbox
147.214 137.121 p0_0
gsave
fill
grestore
stroke
grestore
gsave
576 432 0 0 clipbox
145.43 132.919 p0_0
gsave
fill
grestore
stroke
grestore
gsave
576 432 0 0 clipbox
147.653 134.478 p0_0
gsave
fill
grestore
stroke
grestore
gsave
576 432 0 0 clipbox
146.15 132.954 p0_0
gsave
fill
grestore
stroke
grestore
gsave
576 432 0 0 clipbox
144.069 138.015 p0_0
gsave
fill
grestore
stroke
grestore
gsave
576 432 0 0 clipbox
144.771 133.381 p0_0
gsave
fill
grestore
stroke
grestore
gsave
576 432 0 0 clipbox
145.176 134.627 p0_0
gsave
fill
grestore
stroke
grestore
gsave
576 432 0 0 clipbox
147.754 133.723 p0_0
gsave
fill
grestore
stroke
grestore
gsave
576 432 0 0 clipbox
143.989 134.226 p0_0
gsave
fill
grestore
stroke
grestore
gsave
576 432 0 0 clipbox
144.559 133.97 p0_0
gsave
fill
grestore
stroke
grestore
gsave
576 432 0 0 clipbox
142.259 132.568 p0_0
gsave
fill
grestore
stroke
grestore
gsave
576 432 0 0 clipbox
144.428 132.378 p0_0
gsave
fill
grestore
stroke
grestore
gsave
576 432 0 0 clipbox
146.517 135.648 p0_0
gsave
fill
grestore
stroke
grestore
gsave
576 432 0 0 clipbox
146.223 134.965 p0_0
gsave
fill
grestore
stroke
grestore
gsave
576 432 0 0 clipbox
140.484 133.9 p0_0
gsave
fill
grestore
stroke
grestore
gsave
576 432 0 0 clipbox
146.793 132.209 p0_0
gsave
fill
grestore
stroke
grestore
gsave
576 432 0 0 clipbox
145.604 135.278 p0_0
gsave
fill
grestore
stroke
grestore
gsave
576 432 0 0 clipbox
145.195 135.157 p0_0
gsave
fill
grestore
stroke
grestore
gsave
576 432 0 0 clipbox
146.108 136.62 p0_0
gsave
fill
grestore
stroke
grestore
gsave
576 432 0 0 clipbox
147.953 133.154 p0_0
gsave
fill
grestore
stroke
grestore
gsave
576 432 0 0 clipbox
144.495 137.389 p0_0
gsave
fill
grestore
stroke
grestore
gsave
576 432 0 0 clipbox
146.249 135.514 p0_0
gsave
fill
grestore
stroke
grestore
gsave
576 432 0 0 clipbox
143.521 137.25 p0_0
gsave
fill
grestore
stroke
grestore
gsave
576 432 0 0 clipbox
145.737 132.766 p0_0
gsave
fill
grestore
stroke
grestore
gsave
576 432 0 0 clipbox
144.021 138.307 p0_0
gsave
fill
grestore
stroke
grestore
gsave
576 432 0 0 clipbox
146.633 133.457 p0_0
gsave
fill
grestore
stroke
grestore
gsave
576 432 0 0 clipbox
142.882 136.305 p0_0
gsave
fill
grestore
stroke
grestore
gsave
576 432 0 0 clipbox
142.854 136.657 p0_0
gsave
fill
grestore
stroke
grestore
gsave
576 432 0 0 clipbox
141.248 134.767 p0_0
gsave
fill
grestore
stroke
grestore
gsave
576 432 0 0 clipbox
142.444 134.958 p0_0
gsave
fill
grestore
stroke
grestore
gsave
576 432 0 0 clipbox
145.869 135.195 p0_0
gsave
fill
grestore
stroke
grestore
gsave
576 432 0 0 clipbox
146.137 138.105 p0_0
gsave
fill
grestore
stroke
grestore
gsave
576 432 0 0 clipbox
142.124 135.641 p0_0
gsave
fill
grestore
stroke
grestore
gsave
576 432 0 0 clipbox
143.964 133.597 p0_0
gsave
fill
grestore
stroke
grestore
gsave
576 432 0 0 clipbox
146.772 134.649 p0_0
gsave
fill
grestore
stroke
grestore
gsave
576 432 0 0 clipbox
142.982 136.761 p0_0
gsave
fill
grestore
stroke
grestore
gsave
576 432 0 0 clipbox
146.438 136.695 p0_0
gsave
fill
grestore
stroke
grestore
gsave
576 432 0 0 clipbox
143.445 136.632 p0_0
gsave
fill
grestore
stroke
grestore
gsave
576 432 0 0 clipbox
147.036 136.672 p0_0
gsave
fill
grestore
stroke
grestore
gsave
576 432 0 0 clipbox
147.329 136.594 p0_0
gsave
fill
grestore
stroke
grestore
gsave
576 432 0 0 clipbox
145.65 133.219 p0_0
gsave
fill
grestore
stroke
grestore
gsave
576 432 0 0 clipbox
144.343 135.36 p0_0
gsave
fill
grestore
stroke
grestore
gsave
576 432 0 0 clipbox
146.507 132.573 p0_0
gsave
fill
grestore
stroke
grestore
gsave
576 432 0 0 clipbox
142.298 133.495 p0_0
gsave
fill
grestore
stroke
grestore
gsave
576 432 0 0 clipbox
143.635 134.831 p0_0
gsave
fill
grestore
stroke
grestore
gsave
576 432 0 0 clipbox
141.935 135.46 p0_0
gsave
fill
grestore
stroke
grestore
gsave
576 432 0 0 clipbox
143.914 132.929 p0_0
gsave
fill
grestore
stroke
grestore
gsave
576 432 0 0 clipbox
145.04 135.16 p0_0
gsave
fill
grestore
stroke
grestore
gsave
576 432 0 0 clipbox
144.833 135.404 p0_0
gsave
fill
grestore
stroke
grestore
gsave
576 432 0 0 clipbox
149.435 136.044 p0_0
gsave
fill
grestore
stroke
grestore
gsave
576 432 0 0 clipbox
146.984 135.002 p0_0
gsave
fill
grestore
stroke
grestore
gsave
576 432 0 0 clipbox
144.958 137.935 p0_0
gsave
fill
grestore
stroke
grestore
gsave
576 432 0 0 clipbox
144.756 135.648 p0_0
gsave
fill
grestore
stroke
grestore
gsave
576 432 0 0 clipbox
146.23 137.419 p0_0
gsave
fill
grestore
stroke
grestore
gsave
576 432 0 0 clipbox
149.645 133.806 p0_0
gsave
fill
grestore
stroke
grestore
gsave
576 432 0 0 clipbox
142.585 133.361 p0_0
gsave
fill
grestore
stroke
grestore
gsave
576 432 0 0 clipbox
141.551 137.688 p0_0
gsave
fill
grestore
stroke
grestore
gsave
576 432 0 0 clipbox
142.521 134.964 p0_0
gsave
fill
grestore
stroke
grestore
gsave
576 432 0 0 clipbox
145.47 135.517 p0_0
gsave
fill
grestore
stroke
grestore
gsave
576 432 0 0 clipbox
146.181 137.42 p0_0
gsave
fill
grestore
stroke
grestore
gsave
576 432 0 0 clipbox
140.986 137.996 p0_0
gsave
fill
grestore
stroke
grestore
gsave
576 432 0 0 clipbox
148.679 133.697 p0_0
gsave
fill
grestore
stroke
grestore
gsave
576 432 0 0 clipbox
146.75 134.552 p0_0
gsave
fill
grestore
stroke
grestore
gsave
576 432 0 0 clipbox
144.265 136.249 p0_0
gsave
fill
grestore
stroke
grestore
gsave
576 432 0 0 clipbox
145.383 135.063 p0_0
gsave
fill
grestore
stroke
grestore
gsave
576 432 0 0 clipbox
142.771 134.84 p0_0
gsave
fill
grestore
stroke
grestore
gsave
576 432 0 0 clipbox
143.206 138.828 p0_0
gsave
fill
grestore
stroke
grestore
gsave
576 432 0 0 clipbox
143.18 135.059 p0_0
gsave
fill
grestore
stroke
grestore
gsave
576 432 0 0 clipbox
147.117 134.827 p0_0
gsave
fill
grestore
stroke
grestore
gsave
576 432 0 0 clipbox
144.478 132.865 p0_0
gsave
fill
grestore
stroke
grestore
gsave
576 432 0 0 clipbox
144.784 133.826 p0_0
gsave
fill
grestore
stroke
grestore
gsave
576 432 0 0 clipbox
142.682 131.726 p0_0
gsave
fill
grestore
stroke
grestore
gsave
576 432 0 0 clipbox
144.466 133.069 p0_0
gsave
fill
grestore
stroke
grestore
gsave
576 432 0 0 clipbox
144.63 136.579 p0_0
gsave
fill
grestore
stroke
grestore
gsave
576 432 0 0 clipbox
142.904 134.518 p0_0
gsave
fill
grestore
stroke
grestore
gsave
576 432 0 0 clipbox
143.857 135.778 p0_0
gsave
fill
grestore
stroke
grestore
gsave
576 432 0 0 clipbox
145.391 134.443 p0_0
gsave
fill
grestore
stroke
grestore
gsave
576 432 0 0 clipbox
142.916 138.086 p0_0
gsave
fill
grestore
stroke
grestore
gsave
576 432 0 0 clipbox
143.441 132.873 p0_0
gsave
fill
grestore
stroke
grestore
gsave
576 432 0 0 clipbox
147.13 136.517 p0_0
gsave
fill
grestore
stroke
grestore
gsave
576 432 0 0 clipbox
144.195 133.414 p0_0
gsave
fill
grestore
stroke
grestore
gsave
576 432 0 0 clipbox
144.618 132.488 p0_0
gsave
fill
grestore
stroke
grestore
gsave
576 432 0 0 clipbox
148.02 133.149 p0_0
gsave
fill
grestore
stroke
grestore
gsave
576 432 0 0 clipbox
146.951 131.499 p0_0
gsave
fill
grestore
stroke
grestore
gsave
576 432 0 0 clipbox
144.451 133.515 p0_0
gsave
fill
grestore
stroke
grestore
gsave
576 432 0 0 clipbox
149.616 133.764 p0_0
gsave
fill
grestore
stroke
grestore
gsave
576 432 0 0 clipbox
142.058 137.159 p0_0
gsave
fill
grestore
stroke
grestore
gsave
576 432 0 0 clipbox
141.341 134.732 p0_0
gsave
fill
grestore
stroke
grestore
gsave
576 432 0 0 clipbox
142.928 135.532 p0_0
gsave
fill
grestore
stroke
grestore
gsave
576 432 0 0 clipbox
146.059 134.797 p0_0
gsave
fill
grestore
stroke
grestore
gsave
576 432 0 0 clipbox
146.701 134.323 p0_0
gsave
fill
grestore
stroke
grestore
gsave
576 432 0 0 clipbox
143.995 135.07 p0_0
gsave
fill
grestore
stroke
grestore
gsave
576 432 0 0 clipbox
139.101 135.597 p0_0
gsave
fill
grestore
stroke
grestore
gsave
576 432 0 0 clipbox
145.138 131.754 p0_0
gsave
fill
grestore
stroke
grestore
gsave
576 432 0 0 clipbox
146.47 133.769 p0_0
gsave
fill
grestore
stroke
grestore
gsave
576 432 0 0 clipbox
142.424 136.674 p0_0
gsave
fill
grestore
stroke
grestore
gsave
576 432 0 0 clipbox
144.703 133.028 p0_0
gsave
fill
grestore
stroke
grestore
gsave
576 432 0 0 clipbox
145.253 133.963 p0_0
gsave
fill
grestore
stroke
grestore
gsave
576 432 0 0 clipbox
144.38 137.657 p0_0
gsave
fill
grestore
stroke
grestore
gsave
576 432 0 0 clipbox
147.807 136.175 p0_0
gsave
fill
grestore
stroke
grestore
gsave
576 432 0 0 clipbox
145.741 132.94 p0_0
gsave
fill
grestore
stroke
grestore
gsave
576 432 0 0 clipbox
141.952 133.341 p0_0
gsave
fill
grestore
stroke
grestore
gsave
576 432 0 0 clipbox
144.737 135.27 p0_0
gsave
fill
grestore
stroke
grestore
gsave
576 432 0 0 clipbox
147.995 133.734 p0_0
gsave
fill
grestore
stroke
grestore
gsave
576 432 0 0 clipbox
144.437 132.958 p0_0
gsave
fill
grestore
stroke
grestore
gsave
576 432 0 0 clipbox
147.71 135.391 p0_0
gsave
fill
grestore
stroke
grestore
gsave
576 432 0 0 clipbox
143.846 132.938 p0_0
gsave
fill
grestore
stroke
grestore
gsave
576 432 0 0 clipbox
146.181 132.69 p0_0
gsave
fill
grestore
stroke
grestore
gsave
576 432 0 0 clipbox
145.973 138.035 p0_0
gsave
fill
grestore
stroke
grestore
gsave
576 432 0 0 clipbox
143.533 135.237 p0_0
gsave
fill
grestore
stroke
grestore
gsave
576 432 0 0 clipbox
144.968 133.382 p0_0
gsave
fill
grestore
stroke
grestore
gsave
576 432 0 0 clipbox
146.058 133.372 p0_0
gsave
fill
grestore
stroke
grestore
gsave
576 432 0 0 clipbox
141.511 134.863 p0_0
gsave
fill
grestore
stroke
grestore
gsave
576 432 0 0 clipbox
144.32 132.215 p0_0
gsave
fill
grestore
stroke
grestore
gsave
576 432 0 0 clipbox
144.352 133.762 p0_0
gsave
fill
grestore
stroke
grestore
gsave
576 432 0 0 clipbox
145.965 137.44 p0_0
gsave
fill
grestore
stroke
grestore
gsave
576 432 0 0 clipbox
142.806 135.663 p0_0
gsave
fill
grestore
stroke
grestore
gsave
576 432 0 0 clipbox
148.523 137.567 p0_0
gsave
fill
grestore
stroke
grestore
gsave
576 432 0 0 clipbox
146.359 132.444 p0_0
gsave
fill
grestore
stroke
grestore
gsave
576 432 0 0 clipbox
144.21 135.598 p0_0
gsave
fill
grestore
stroke
grestore
gsave
576 432 0 0 clipbox
145.664 134.364 p0_0
gsave
fill
grestore
stroke
grestore
gsave
576 432 0 0 clipbox
148.059 133.947 p0_0
gsave
fill
grestore
stroke
grestore
gsave
576 432 0 0 clipbox
142.523 135.124 p0_0
gsave
fill
grestore
stroke
grestore
gsave
576 432 0 0 clipbox
145.686 135.9 p0_0
gsave
fill
grestore
stroke
grestore
gsave
576 432 0 0 clipbox
147.876 137.472 p0_0
gsave
fill
grestore
stroke
grestore
gsave
576 432 0 0 clipbox
145.646 135.297 p0_0
gsave
fill
grestore
stroke
grestore
gsave
576 432 0 0 clipbox
145.052 135.004 p0_0
gsave
fill
grestore
stroke
grestore
gsave
576 432 0 0 clipbox
145.498 133.625 p0_0
gsave
fill
grestore
stroke
grestore
gsave
576 432 0 0 clipbox
146.586 134.701 p0_0
gsave
fill
grestore
stroke
grestore
gsave
576 432 0 0 clipbox
146.179 136.896 p0_0
gsave
fill
grestore
stroke
grestore
gsave
576 432 0 0 clipbox
146.864 134.984 p0_0
gsave
fill
grestore
stroke
grestore
gsave
576 432 0 0 clipbox
143.56 133.666 p0_0
gsave
fill
grestore
stroke
grestore
gsave
576 432 0 0 clipbox
145.287 136.54 p0_0
gsave
fill
grestore
stroke
grestore
gsave
576 432 0 0 clipbox
146.64 134.562 p0_0
gsave
fill
grestore
stroke
grestore
gsave
576 432 0 0 clipbox
143.813 136.024 p0_0
gsave
fill
grestore
stroke
grestore
gsave
576 432 0 0 clipbox
142.527 134.462 p0_0
gsave
fill
grestore
stroke
grestore
gsave
576 432 0 0 clipbox
145.8 136.716 p0_0
gsave
fill
grestore
stroke
grestore
gsave
576 432 0 0 clipbox
147.837 135.835 p0_0
gsave
fill
grestore
stroke
grestore
gsave
576 432 0 0 clipbox
146.297 132.842 p0_0
gsave
fill
grestore
stroke
grestore
gsave
576 432 0 0 clipbox
142.642 134.823 p0_0
gsave
fill
grestore
stroke
grestore
gsave
576 432 0 0 clipbox
146.644 136.934 p0_0
gsave
fill
grestore
stroke
grestore
gsave
576 432 0 0 clipbox
144.793 134.19 p0_0
gsave
fill
grestore
stroke
grestore
gsave
576 432 0 0 clipbox
146.391 134.718 p0_0
gsave
fill
grestore
stroke
grestore
gsave
576 432 0 0 clipbox
146.664 135.665 p0_0
gsave
fill
grestore
stroke
grestore
gsave
576 432 0 0 clipbox
146.727 135.414 p0_0
gsave
fill
grestore
stroke
grestore
gsave
576 432 0 0 clipbox
143.656 135.113 p0_0
gsave
fill
grestore
stroke
grestore
gsave
576 432 0 0 clipbox
143.488 135.573 p0_0
gsave
fill
grestore
stroke
grestore
gsave
576 432 0 0 clipbox
144.087 133.053 p0_0
gsave
fill
grestore
stroke
grestore
gsave
576 432 0 0 clipbox
143.625 136.217 p0_0
gsave
fill
grestore
stroke
grestore
gsave
576 432 0 0 clipbox
143.922 135.484 p0_0
gsave
fill
grestore
stroke
grestore
gsave
576 432 0 0 clipbox
146.255 134.635 p0_0
gsave
fill
grestore
stroke
grestore
gsave
576 432 0 0 clipbox
144.744 134.535 p0_0
gsave
fill
grestore
stroke
grestore
gsave
576 432 0 0 clipbox
139.802 136.933 p0_0
gsave
fill
grestore
stroke
grestore
gsave
576 432 0 0 clipbox
141.806 134.848 p0_0
gsave
fill
grestore
stroke
grestore
gsave
576 432 0 0 clipbox
144.72 134.103 p0_0
gsave
fill
grestore
stroke
grestore
gsave
576 432 0 0 clipbox
143.904 136.028 p0_0
gsave
fill
grestore
stroke
grestore
gsave
576 432 0 0 clipbox
145.803 137.277 p0_0
gsave
fill
grestore
stroke
grestore
gsave
576 432 0 0 clipbox
144.447 136.184 p0_0
gsave
fill
grestore
stroke
grestore
gsave
576 432 0 0 clipbox
145.377 134.431 p0_0
gsave
fill
grestore
stroke
grestore
gsave
576 432 0 0 clipbox
144.231 135.942 p0_0
gsave
fill
grestore
stroke
grestore
gsave
576 432 0 0 clipbox
144.421 139.416 p0_0
gsave
fill
grestore
stroke
grestore
gsave
576 432 0 0 clipbox
146.125 133.905 p0_0
gsave
fill
grestore
stroke
grestore
gsave
576 432 0 0 clipbox
144.737 134.616 p0_0
gsave
fill
grestore
stroke
grestore
gsave
576 432 0 0 clipbox
143.795 135.649 p0_0
gsave
fill
grestore
stroke
grestore
gsave
576 432 0 0 clipbox
145.278 134.319 p0_0
gsave
fill
grestore
stroke
grestore
gsave
576 432 0 0 clipbox
143.383 135.757 p0_0
gsave
fill
grestore
stroke
grestore
gsave
576 432 0 0 clipbox
143.401 138.983 p0_0
gsave
fill
grestore
stroke
grestore
gsave
576 432 0 0 clipbox
144.536 135.144 p0_0
gsave
fill
grestore
stroke
grestore
gsave
576 432 0 0 clipbox
144.512 137.931 p0_0
gsave
fill
grestore
stroke
grestore
gsave
576 432 0 0 clipbox
143.721 135.65 p0_0
gsave
fill
grestore
stroke
grestore
gsave
576 432 0 0 clipbox
141.502 136.494 p0_0
gsave
fill
grestore
stroke
grestore
gsave
576 432 0 0 clipbox
144.712 134.968 p0_0
gsave
fill
grestore
stroke
grestore
gsave
576 432 0 0 clipbox
145.058 135.499 p0_0
gsave
fill
grestore
stroke
grestore
gsave
576 432 0 0 clipbox
143.663 138.6 p0_0
gsave
fill
grestore
stroke
grestore
gsave
576 432 0 0 clipbox
143.661 135.109 p0_0
gsave
fill
grestore
stroke
grestore
gsave
576 432 0 0 clipbox
141.901 133.086 p0_0
gsave
fill
grestore
stroke
grestore
gsave
576 432 0 0 clipbox
144.853 136.537 p0_0
gsave
fill
grestore
stroke
grestore
gsave
576 432 0 0 clipbox
144.476 137.461 p0_0
gsave
fill
grestore
stroke
grestore
gsave
576 432 0 0 clipbox
145.279 136.019 p0_0
gsave
fill
grestore
stroke
grestore
gsave
576 432 0 0 clipbox
142.433 135.735 p0_0
gsave
fill
grestore
stroke
grestore
gsave
576 432 0 0 clipbox
144.232 135.148 p0_0
gsave
fill
grestore
stroke
grestore
gsave
576 432 0 0 clipbox
142.695 133.507 p0_0
gsave
fill
grestore
stroke
grestore
gsave
576 432 0 0 clipbox
146.288 137.423 p0_0
gsave
fill
grestore
stroke
grestore
gsave
576 432 0 0 clipbox
141.924 136.427 p0_0
gsave
fill
grestore
stroke
grestore
gsave
576 432 0 0 clipbox
139.726 135.215 p0_0
gsave
fill
grestore
stroke
grestore
gsave
576 432 0 0 clipbox
146.545 133.261 p0_0
gsave
fill
grestore
stroke
grestore
gsave
576 432 0 0 clipbox
142.114 136.365 p0_0
gsave
fill
grestore
stroke
grestore
gsave
576 432 0 0 clipbox
146.507 133.976 p0_0
gsave
fill
grestore
stroke
grestore
gsave
576 432 0 0 clipbox
148.719 135.464 p0_0
gsave
fill
grestore
stroke
grestore
gsave
576 432 0 0 clipbox
144.418 133.827 p0_0
gsave
fill
grestore
stroke
grestore
gsave
576 432 0 0 clipbox
144.313 135.96 p0_0
gsave
fill
grestore
stroke
grestore
gsave
576 432 0 0 clipbox
142.846 134.367 p0_0
gsave
fill
grestore
stroke
grestore
gsave
576 432 0 0 clipbox
144.655 134.259 p0_0
gsave
fill
grestore
stroke
grestore
gsave
576 432 0 0 clipbox
145.55 134.876 p0_0
gsave
fill
grestore
stroke
grestore
gsave
576 432 0 0 clipbox
142.727 136.575 p0_0
gsave
fill
grestore
stroke
grestore
gsave
576 432 0 0 clipbox
146.658 133.981 p0_0
gsave
fill
grestore
stroke
grestore
gsave
576 432 0 0 clipbox
143.458 132.281 p0_0
gsave
fill
grestore
stroke
grestore
gsave
576 432 0 0 clipbox
141.866 134.939 p0_0
gsave
fill
grestore
stroke
grestore
gsave
576 432 0 0 clipbox
144.599 134.271 p0_0
gsave
fill
grestore
stroke
grestore
gsave
576 432 0 0 clipbox
144.022 135.054 p0_0
gsave
fill
grestore
stroke
grestore
gsave
576 432 0 0 clipbox
149.695 137.795 p0_0
gsave
fill
grestore
stroke
grestore
gsave
576 432 0 0 clipbox
146.16 135.542 p0_0
gsave
fill
grestore
stroke
grestore
gsave
576 432 0 0 clipbox
148.638 132.574 p0_0
gsave
fill
grestore
stroke
grestore
gsave
576 432 0 0 clipbox
145.93 135.368 p0_0
gsave
fill
grestore
stroke
grestore
gsave
576 432 0 0 clipbox
145.41 136.082 p0_0
gsave
fill
grestore
stroke
grestore
gsave
576 432 0 0 clipbox
142.349 131.893 p0_0
gsave
fill
grestore
stroke
grestore
gsave
576 432 0 0 clipbox
147.151 135.361 p0_0
gsave
fill
grestore
stroke
grestore
gsave
576 432 0 0 clipbox
145.426 132.866 p0_0
gsave
fill
grestore
stroke
grestore
gsave
576 432 0 0 clipbox
145.973 135.079 p0_0
gsave
fill
grestore
stroke
grestore
gsave
576 432 0 0 clipbox
145.579 134.85 p0_0
gsave
fill
grestore
stroke
grestore
gsave
576 432 0 0 clipbox
144.139 135.271 p0_0
gsave
fill
grestore
stroke
grestore
gsave
576 432 0 0 clipbox
142.687 136.495 p0_0
gsave
fill
grestore
stroke
grestore
gsave
576 432 0 0 clipbox
146.245 135.265 p0_0
gsave
fill
grestore
stroke
grestore
gsave
576 432 0 0 clipbox
149.318 134.935 p0_0
gsave
fill
grestore
stroke
grestore
gsave
576 432 0 0 clipbox
140.098 134.742 p0_0
gsave
fill
grestore
stroke
grestore
gsave
576 432 0 0 clipbox
148.655 135.387 p0_0
gsave
fill
grestore
stroke
grestore
gsave
576 432 0 0 clipbox
144.856 131.032 p0_0
gsave
fill
grestore
stroke
grestore
gsave
576 432 0 0 clipbox
145.84 136.823 p0_0
gsave
fill
grestore
stroke
grestore
gsave
576 432 0 0 clipbox
144.519 133.892 p0_0
gsave
fill
grestore
stroke
grestore
gsave
576 432 0 0 clipbox
140.163 136.801 p0_0
gsave
fill
grestore
stroke
grestore
gsave
576 432 0 0 clipbox
143.538 134.508 p0_0
gsave
fill
grestore
stroke
grestore
gsave
576 432 0 0 clipbox
141.876 135.067 p0_0
gsave
fill
grestore
stroke
grestore
gsave
576 432 0 0 clipbox
144.882 132.541 p0_0
gsave
fill
grestore
stroke
grestore
gsave
576 432 0 0 clipbox
148.01 135.186 p0_0
gsave
fill
grestore
stroke
grestore
gsave
576 432 0 0 clipbox
147.055 132.778 p0_0
gsave
fill
grestore
stroke
grestore
gsave
576 432 0 0 clipbox
145.624 135.086 p0_0
gsave
fill
grestore
stroke
grestore
gsave
576 432 0 0 clipbox
142.882 130.446 p0_0
gsave
fill
grestore
stroke
grestore
gsave
576 432 0 0 clipbox
144.983 135.766 p0_0
gsave
fill
grestore
stroke
grestore
gsave
576 432 0 0 clipbox
143.038 136.638 p0_0
gsave
fill
grestore
stroke
grestore
gsave
576 432 0 0 clipbox
142.36 135.143 p0_0
gsave
fill
grestore
stroke
grestore
gsave
576 432 0 0 clipbox
142.753 135.408 p0_0
gsave
fill
grestore
stroke
grestore
gsave
576 432 0 0 clipbox
146.066 134.698 p0_0
gsave
fill
grestore
stroke
grestore
gsave
576 432 0 0 clipbox
145.915 135.12 p0_0
gsave
fill
grestore
stroke
grestore
gsave
576 432 0 0 clipbox
138.038 133.985 p0_0
gsave
fill
grestore
stroke
grestore
gsave
576 432 0 0 clipbox
141.951 133.626 p0_0
gsave
fill
grestore
stroke
grestore
gsave
576 432 0 0 clipbox
143.457 134.41 p0_0
gsave
fill
grestore
stroke
grestore
gsave
576 432 0 0 clipbox
144.937 133.328 p0_0
gsave
fill
grestore
stroke
grestore
gsave
576 432 0 0 clipbox
142.147 135.301 p0_0
gsave
fill
grestore
stroke
grestore
gsave
576 432 0 0 clipbox
145.539 134.658 p0_0
gsave
fill
grestore
stroke
grestore
gsave
576 432 0 0 clipbox
146.137 135.831 p0_0
gsave
fill
grestore
stroke
grestore
gsave
576 432 0 0 clipbox
143.297 137.51 p0_0
gsave
fill
grestore
stroke
grestore
gsave
576 432 0 0 clipbox
146.335 135.317 p0_0
gsave
fill
grestore
stroke
grestore
gsave
576 432 0 0 clipbox
143.853 133.919 p0_0
gsave
fill
grestore
stroke
grestore
gsave
576 432 0 0 clipbox
146.341 133.77 p0_0
gsave
fill
grestore
stroke
grestore
gsave
576 432 0 0 clipbox
147.405 134.015 p0_0
gsave
fill
grestore
stroke
grestore
gsave
576 432 0 0 clipbox
142.087 136.207 p0_0
gsave
fill
grestore
stroke
grestore
gsave
576 432 0 0 clipbox
144.59 133.834 p0_0
gsave
fill
grestore
stroke
grestore
gsave
576 432 0 0 clipbox
146.792 136.159 p0_0
gsave
fill
grestore
stroke
grestore
gsave
576 432 0 0 clipbox
144.231 131.969 p0_0
gsave
fill
grestore
stroke
grestore
gsave
576 432 0 0 clipbox
147.362 135.925 p0_0
gsave
fill
grestore
stroke
grestore
gsave
576 432 0 0 clipbox
144.328 133.017 p0_0
gsave
fill
grestore
stroke
grestore
gsave
576 432 0 0 clipbox
144.334 134.709 p0_0
gsave
fill
grestore
stroke
grestore
gsave
576 432 0 0 clipbox
144.073 134.932 p0_0
gsave
fill
grestore
stroke
grestore
gsave
576 432 0 0 clipbox
144.804 134.135 p0_0
gsave
fill
grestore
stroke
grestore
gsave
576 432 0 0 clipbox
144.481 136.011 p0_0
gsave
fill
grestore
stroke
grestore
gsave
576 432 0 0 clipbox
143.193 133.682 p0_0
gsave
fill
grestore
stroke
grestore
gsave
576 432 0 0 clipbox
142.687 134.087 p0_0
gsave
fill
grestore
stroke
grestore
gsave
576 432 0 0 clipbox
145.074 134.675 p0_0
gsave
fill
grestore
stroke
grestore
gsave
576 432 0 0 clipbox
144.117 131.731 p0_0
gsave
fill
grestore
stroke
grestore
gsave
576 432 0 0 clipbox
145.448 134.878 p0_0
gsave
fill
grestore
stroke
grestore
gsave
576 432 0 0 clipbox
145.22 134.668 p0_0
gsave
fill
grestore
stroke
grestore
gsave
576 432 0 0 clipbox
140.642 134.893 p0_0
gsave
fill
grestore
stroke
grestore
gsave
576 432 0 0 clipbox
144.955 132.823 p0_0
gsave
fill
grestore
stroke
grestore
gsave
576 432 0 0 clipbox
146.81 133.169 p0_0
gsave
fill
grestore
stroke
grestore
gsave
576 432 0 0 clipbox
149.917 133.675 p0_0
gsave
fill
grestore
stroke
grestore
gsave
576 432 0 0 clipbox
141.724 135.148 p0_0
gsave
fill
grestore
stroke
grestore
gsave
576 432 0 0 clipbox
147.954 135.435 p0_0
gsave
fill
grestore
stroke
grestore
gsave
576 432 0 0 clipbox
146.494 132.591 p0_0
gsave
fill
grestore
stroke
grestore
gsave
576 432 0 0 clipbox
146.267 134.485 p0_0
gsave
fill
grestore
stroke
grestore
gsave
576 432 0 0 clipbox
148.09 135.589 p0_0
gsave
fill
grestore
stroke
grestore
gsave
576 432 0 0 clipbox
142.173 135.456 p0_0
gsave
fill
grestore
stroke
grestore
gsave
576 432 0 0 clipbox
149.095 134.901 p0_0
gsave
fill
grestore
stroke
grestore
gsave
576 432 0 0 clipbox
145.919 135.364 p0_0
gsave
fill
grestore
stroke
grestore
gsave
576 432 0 0 clipbox
145.787 135.546 p0_0
gsave
fill
grestore
stroke
grestore
gsave
576 432 0 0 clipbox
144.933 133.631 p0_0
gsave
fill
grestore
stroke
grestore
gsave
576 432 0 0 clipbox
144.227 133.837 p0_0
gsave
fill
grestore
stroke
grestore
gsave
576 432 0 0 clipbox
142.108 132.498 p0_0
gsave
fill
grestore
stroke
grestore
gsave
576 432 0 0 clipbox
147.654 138.279 p0_0
gsave
fill
grestore
stroke
grestore
gsave
576 432 0 0 clipbox
145.756 135.796 p0_0
gsave
fill
grestore
stroke
grestore
gsave
576 432 0 0 clipbox
142.345 134.538 p0_0
gsave
fill
grestore
stroke
grestore
gsave
576 432 0 0 clipbox
148.002 135.52 p0_0
gsave
fill
grestore
stroke
grestore
gsave
576 432 0 0 clipbox
142.395 134.639 p0_0
gsave
fill
grestore
stroke
grestore
gsave
576 432 0 0 clipbox
145.837 136.772 p0_0
gsave
fill
grestore
stroke
grestore
gsave
576 432 0 0 clipbox
141.021 134.167 p0_0
gsave
fill
grestore
stroke
grestore
gsave
576 432 0 0 clipbox
146.999 135.891 p0_0
gsave
fill
grestore
stroke
grestore
gsave
576 432 0 0 clipbox
142.165 132.188 p0_0
gsave
fill
grestore
stroke
grestore
gsave
576 432 0 0 clipbox
144.572 135.369 p0_0
gsave
fill
grestore
stroke
grestore
gsave
576 432 0 0 clipbox
144.189 134.461 p0_0
gsave
fill
grestore
stroke
grestore
gsave
576 432 0 0 clipbox
146.55 133.559 p0_0
gsave
fill
grestore
stroke
grestore
gsave
576 432 0 0 clipbox
146.137 136.435 p0_0
gsave
fill
grestore
stroke
grestore
gsave
576 432 0 0 clipbox
140.619 136.827 p0_0
gsave
fill
grestore
stroke
grestore
gsave
576 432 0 0 clipbox
145.793 134.937 p0_0
gsave
fill
grestore
stroke
grestore
gsave
576 432 0 0 clipbox
144.341 133.738 p0_0
gsave
fill
grestore
stroke
grestore
gsave
576 432 0 0 clipbox
145.316 137.018 p0_0
gsave
fill
grestore
stroke
grestore
gsave
576 432 0 0 clipbox
148.698 135.263 p0_0
gsave
fill
grestore
stroke
grestore
gsave
576 432 0 0 clipbox
142.27 138.732 p0_0
gsave
fill
grestore
stroke
grestore
gsave
576 432 0 0 clipbox
145.981 137.95 p0_0
gsave
fill
grestore
stroke
grestore
gsave
576 432 0 0 clipbox
145.541 132.292 p0_0
gsave
fill
grestore
stroke
grestore
gsave
576 432 0 0 clipbox
144.294 133.803 p0_0
gsave
fill
grestore
stroke
grestore
gsave
576 432 0 0 clipbox
145.811 132.982 p0_0
gsave
fill
grestore
stroke
grestore
gsave
576 432 0 0 clipbox
144.06 134.728 p0_0
gsave
fill
grestore
stroke
grestore
gsave
576 432 0 0 clipbox
145.024 134.047 p0_0
gsave
fill
grestore
stroke
grestore
gsave
576 432 0 0 clipbox
144.071 134.49 p0_0
gsave
fill
grestore
stroke
grestore
gsave
576 432 0 0 clipbox
146.11 135.941 p0_0
gsave
fill
grestore
stroke
grestore
gsave
576 432 0 0 clipbox
143.504 137.106 p0_0
gsave
fill
grestore
stroke
grestore
gsave
576 432 0 0 clipbox
145.712 136.743 p0_0
gsave
fill
grestore
stroke
grestore
gsave
576 432 0 0 clipbox
146.572 137.13 p0_0
gsave
fill
grestore
stroke
grestore
gsave
576 432 0 0 clipbox
146.733 135.127 p0_0
gsave
fill
grestore
stroke
grestore
gsave
576 432 0 0 clipbox
147.65 134.036 p0_0
gsave
fill
grestore
stroke
grestore
gsave
576 432 0 0 clipbox
143.723 135.025 p0_0
gsave
fill
grestore
stroke
grestore
gsave
576 432 0 0 clipbox
142.464 136.483 p0_0
gsave
fill
grestore
stroke
grestore
gsave
576 432 0 0 clipbox
144.414 135.107 p0_0
gsave
fill
grestore
stroke
grestore
gsave
576 432 0 0 clipbox
145.237 134.143 p0_0
gsave
fill
grestore
stroke
grestore
gsave
576 432 0 0 clipbox
142.064 136.177 p0_0
gsave
fill
grestore
stroke
grestore
gsave
576 432 0 0 clipbox
142.953 132.472 p0_0
gsave
fill
grestore
stroke
grestore
gsave
576 432 0 0 clipbox
144.483 136.558 p0_0
gsave
fill
grestore
stroke
grestore
gsave
576 432 0 0 clipbox
144.295 135.757 p0_0
gsave
fill
grestore
stroke
grestore
gsave
576 432 0 0 clipbox
142.861 136.707 p0_0
gsave
fill
grestore
stroke
grestore
gsave
576 432 0 0 clipbox
145.151 135.086 p0_0
gsave
fill
grestore
stroke
grestore
gsave
576 432 0 0 clipbox
148.984 134.3 p0_0
gsave
fill
grestore
stroke
grestore
gsave
576 432 0 0 clipbox
144.984 131.238 p0_0
gsave
fill
grestore
stroke
grestore
gsave
576 432 0 0 clipbox
145.666 139.395 p0_0
gsave
fill
grestore
stroke
grestore
gsave
576 432 0 0 clipbox
140.416 134.885 p0_0
gsave
fill
grestore
stroke
grestore
gsave
576 432 0 0 clipbox
146.461 136.584 p0_0
gsave
fill
grestore
stroke
grestore
gsave
576 432 0 0 clipbox
147.096 138.106 p0_0
gsave
fill
grestore
stroke
grestore
gsave
576 432 0 0 clipbox
143.003 136.177 p0_0
gsave
fill
grestore
stroke
grestore
gsave
576 432 0 0 clipbox
143.509 132.036 p0_0
gsave
fill
grestore
stroke
grestore
gsave
576 432 0 0 clipbox
140.737 131.752 p0_0
gsave
fill
grestore
stroke
grestore
gsave
576 432 0 0 clipbox
145.833 134.817 p0_0
gsave
fill
grestore
stroke
grestore
gsave
576 432 0 0 clipbox
146.84 133.187 p0_0
gsave
fill
grestore
stroke
grestore
gsave
576 432 0 0 clipbox
146.239 137.224 p0_0
gsave
fill
grestore
stroke
grestore
gsave
576 432 0 0 clipbox
147.389 133.17 p0_0
gsave
fill
grestore
stroke
grestore
gsave
576 432 0 0 clipbox
146.906 132.51 p0_0
gsave
fill
grestore
stroke
grestore
gsave
576 432 0 0 clipbox
143.561 134.69 p0_0
gsave
fill
grestore
stroke
grestore
gsave
576 432 0 0 clipbox
145.626 135.343 p0_0
gsave
fill
grestore
stroke
grestore
gsave
576 432 0 0 clipbox
142.976 135.283 p0_0
gsave
fill
grestore
stroke
grestore
gsave
576 432 0 0 clipbox
147.06 136.466 p0_0
gsave
fill
grestore
stroke
grestore
gsave
576 432 0 0 clipbox
144.296 134.271 p0_0
gsave
fill
grestore
stroke
grestore
gsave
576 432 0 0 clipbox
143.201 134.264 p0_0
gsave
fill
grestore
stroke
grestore
gsave
576 432 0 0 clipbox
144.393 133.645 p0_0
gsave
fill
grestore
stroke
grestore
gsave
576 432 0 0 clipbox
146.463 134.405 p0_0
gsave
fill
grestore
stroke
grestore
gsave
576 432 0 0 clipbox
142.92 134.146 p0_0
gsave
fill
grestore
stroke
grestore
gsave
576 432 0 0 clipbox
146.273 132.175 p0_0
gsave
fill
grestore
stroke
grestore
gsave
576 432 0 0 clipbox
146.779 134.67 p0_0
gsave
fill
grestore
stroke
grestore
gsave
576 432 0 0 clipbox
142.887 135.842 p0_0
gsave
fill
grestore
stroke
grestore
gsave
576 432 0 0 clipbox
146.76 133.104 p0_0
gsave
fill
grestore
stroke
grestore
gsave
576 432 0 0 clipbox
145.353 135.479 p0_0
gsave
fill
grestore
stroke
grestore
gsave
576 432 0 0 clipbox
143.925 133.284 p0_0
gsave
fill
grestore
stroke
grestore
gsave
576 432 0 0 clipbox
142.676 132.309 p0_0
gsave
fill
grestore
stroke
grestore
gsave
576 432 0 0 clipbox
142.799 134.113 p0_0
gsave
fill
grestore
stroke
grestore
gsave
576 432 0 0 clipbox
144.571 135.932 p0_0
gsave
fill
grestore
stroke
grestore
gsave
576 432 0 0 clipbox
145.792 134.303 p0_0
gsave
fill
grestore
stroke
grestore
gsave
576 432 0 0 clipbox
145.864 133.481 p0_0
gsave
fill
grestore
stroke
grestore
gsave
576 432 0 0 clipbox
140.039 131.433 p0_0
gsave
fill
grestore
stroke
grestore
gsave
576 432 0 0 clipbox
145.334 136.752 p0_0
gsave
fill
grestore
stroke
grestore
gsave
576 432 0 0 clipbox
148.136 135.09 p0_0
gsave
fill
grestore
stroke
grestore
gsave
576 432 0 0 clipbox
142.334 135.904 p0_0
gsave
fill
grestore
stroke
grestore
gsave
576 432 0 0 clipbox
141.451 136.82 p0_0
gsave
fill
grestore
stroke
grestore
gsave
576 432 0 0 clipbox
140.218 134.006 p0_0
gsave
fill
grestore
stroke
grestore
gsave
576 432 0 0 clipbox
145.354 135.324 p0_0
gsave
fill
grestore
stroke
grestore
gsave
576 432 0 0 clipbox
141.317 135.451 p0_0
gsave
fill
grestore
stroke
grestore
gsave
576 432 0 0 clipbox
143.373 134.211 p0_0
gsave
fill
grestore
stroke
grestore
gsave
576 432 0 0 clipbox
144.512 131.618 p0_0
gsave
fill
grestore
stroke
grestore
gsave
576 432 0 0 clipbox
149.762 132.496 p0_0
gsave
fill
grestore
stroke
grestore
gsave
576 432 0 0 clipbox
149.115 135.25 p0_0
gsave
fill
grestore
stroke
grestore
gsave
576 432 0 0 clipbox
141.533 135.711 p0_0
gsave
fill
grestore
stroke
grestore
gsave
576 432 0 0 clipbox
145.545 134.264 p0_0
gsave
fill
grestore
stroke
grestore
gsave
576 432 0 0 clipbox
146.128 136.45 p0_0
gsave
fill
grestore
stroke
grestore
gsave
576 432 0 0 clipbox
143.629 137.432 p0_0
gsave
fill
grestore
stroke
grestore
gsave
576 432 0 0 clipbox
145.948 136.277 p0_0
gsave
fill
grestore
stroke
grestore
gsave
576 432 0 0 clipbox
145.991 136.177 p0_0
gsave
fill
grestore
stroke
grestore
gsave
576 432 0 0 clipbox
144.434 133.148 p0_0
gsave
fill
grestore
stroke
grestore
gsave
576 432 0 0 clipbox
146.343 131.922 p0_0
gsave
fill
grestore
stroke
grestore
gsave
576 432 0 0 clipbox
146.208 133.854 p0_0
gsave
fill
grestore
stroke
grestore
gsave
576 432 0 0 clipbox
146.198 139.745 p0_0
gsave
fill
grestore
stroke
grestore
gsave
576 432 0 0 clipbox
149.109 135.527 p0_0
gsave
fill
grestore
stroke
grestore
gsave
576 432 0 0 clipbox
147.948 135.786 p0_0
gsave
fill
grestore
stroke
grestore
gsave
576 432 0 0 clipbox
145.602 137.625 p0_0
gsave
fill
grestore
stroke
grestore
gsave
576 432 0 0 clipbox
136.273 134.992 p0_0
gsave
fill
grestore
stroke
grestore
gsave
576 432 0 0 clipbox
142.216 134.885 p0_0
gsave
fill
grestore
stroke
grestore
gsave
576 432 0 0 clipbox
141.897 136.696 p0_0
gsave
fill
grestore
stroke
grestore
gsave
576 432 0 0 clipbox
145.969 134.775 p0_0
gsave
fill
grestore
stroke
grestore
gsave
576 432 0 0 clipbox
144.813 132.476 p0_0
gsave
fill
grestore
stroke
grestore
gsave
576 432 0 0 clipbox
143.558 137.108 p0_0
gsave
fill
grestore
stroke
grestore
gsave
576 432 0 0 clipbox
142.764 133.418 p0_0
gsave
fill
grestore
stroke
grestore
gsave
576 432 0 0 clipbox
146.38 131.417 p0_0
gsave
fill
grestore
stroke
grestore
gsave
576 432 0 0 clipbox
144.754 133.758 p0_0
gsave
fill
grestore
stroke
grestore
gsave
576 432 0 0 clipbox
142.388 137.988 p0_0
gsave
fill
grestore
stroke
grestore
gsave
576 432 0 0 clipbox
145.745 135.75 p0_0
gsave
fill
grestore
stroke
grestore
gsave
576 432 0 0 clipbox
143.083 132.166 p0_0
gsave
fill
grestore
stroke
grestore
gsave
576 432 0 0 clipbox
145.937 136.296 p0_0
gsave
fill
grestore
stroke
grestore
gsave
576 432 0 0 clipbox
144.087 136.274 p0_0
gsave
fill
grestore
stroke
grestore
gsave
576 432 0 0 clipbox
145.901 134.069 p0_0
gsave
fill
grestore
stroke
grestore
gsave
576 432 0 0 clipbox
142.038 135.872 p0_0
gsave
fill
grestore
stroke
grestore
gsave
576 432 0 0 clipbox
147.742 134.445 p0_0
gsave
fill
grestore
stroke
grestore
gsave
576 432 0 0 clipbox
147.822 137.549 p0_0
gsave
fill
grestore
stroke
grestore
gsave
576 432 0 0 clipbox
141.279 136.782 p0_0
gsave
fill
grestore
stroke
grestore
gsave
576 432 0 0 clipbox
143.818 134.774 p0_0
gsave
fill
grestore
stroke
grestore
gsave
576 432 0 0 clipbox
143.33 137.663 p0_0
gsave
fill
grestore
stroke
grestore
gsave
576 432 0 0 clipbox
145.283 134.311 p0_0
gsave
fill
grestore
stroke
grestore
gsave
576 432 0 0 clipbox
142.014 134.479 p0_0
gsave
fill
grestore
stroke
grestore
gsave
576 432 0 0 clipbox
142.622 135.662 p0_0
gsave
fill
grestore
stroke
grestore
gsave
576 432 0 0 clipbox
146.382 135.235 p0_0
gsave
fill
grestore
stroke
grestore
gsave
576 432 0 0 clipbox
146.004 136.291 p0_0
gsave
fill
grestore
stroke
grestore
gsave
576 432 0 0 clipbox
143.112 132.637 p0_0
gsave
fill
grestore
stroke
grestore
gsave
576 432 0 0 clipbox
142.199 133.124 p0_0
gsave
fill
grestore
stroke
grestore
gsave
576 432 0 0 clipbox
146.339 137.577 p0_0
gsave
fill
grestore
stroke
grestore
gsave
576 432 0 0 clipbox
146.148 135.587 p0_0
gsave
fill
grestore
stroke
grestore
gsave
576 432 0 0 clipbox
142.526 135.226 p0_0
gsave
fill
grestore
stroke
grestore
gsave
576 432 0 0 clipbox
145.418 135.255 p0_0
gsave
fill
grestore
stroke
grestore
gsave
576 432 0 0 clipbox
144.86 134.41 p0_0
gsave
fill
grestore
stroke
grestore
gsave
576 432 0 0 clipbox
144.284 135.372 p0_0
gsave
fill
grestore
stroke
grestore
gsave
576 432 0 0 clipbox
146.188 136.581 p0_0
gsave
fill
grestore
stroke
grestore
gsave
576 432 0 0 clipbox
146.026 131.774 p0_0
gsave
fill
grestore
stroke
grestore
gsave
576 432 0 0 clipbox
151.045 137.292 p0_0
gsave
fill
grestore
stroke
grestore
gsave
576 432 0 0 clipbox
146.445 134.496 p0_0
gsave
fill
grestore
stroke
grestore
gsave
576 432 0 0 clipbox
148.104 133.379 p0_0
gsave
fill
grestore
stroke
grestore
gsave
576 432 0 0 clipbox
142.468 136.733 p0_0
gsave
fill
grestore
stroke
grestore
gsave
576 432 0 0 clipbox
139.57 137.88 p0_0
gsave
fill
grestore
stroke
grestore
gsave
576 432 0 0 clipbox
144.524 137.212 p0_0
gsave
fill
grestore
stroke
grestore
gsave
576 432 0 0 clipbox
147.78 135.068 p0_0
gsave
fill
grestore
stroke
grestore
gsave
576 432 0 0 clipbox
146.131 135.892 p0_0
gsave
fill
grestore
stroke
grestore
gsave
576 432 0 0 clipbox
147.252 134.781 p0_0
gsave
fill
grestore
stroke
grestore
gsave
576 432 0 0 clipbox
144.944 132.476 p0_0
gsave
fill
grestore
stroke
grestore
gsave
576 432 0 0 clipbox
144.556 132.404 p0_0
gsave
fill
grestore
stroke
grestore
gsave
576 432 0 0 clipbox
145.936 131.851 p0_0
gsave
fill
grestore
stroke
grestore
gsave
576 432 0 0 clipbox
143.536 135.03 p0_0
gsave
fill
grestore
stroke
grestore
gsave
576 432 0 0 clipbox
141.547 135.16 p0_0
gsave
fill
grestore
stroke
grestore
gsave
576 432 0 0 clipbox
142.574 134.547 p0_0
gsave
fill
grestore
stroke
grestore
gsave
576 432 0 0 clipbox
145.237 137.798 p0_0
gsave
fill
grestore
stroke
grestore
gsave
576 432 0 0 clipbox
141.269 134.288 p0_0
gsave
fill
grestore
stroke
grestore
gsave
576 432 0 0 clipbox
147.378 136.753 p0_0
gsave
fill
grestore
stroke
grestore
gsave
576 432 0 0 clipbox
145.901 133.558 p0_0
gsave
fill
grestore
stroke
grestore
gsave
576 432 0 0 clipbox
142.373 134.88 p0_0
gsave
fill
grestore
stroke
grestore
gsave
576 432 0 0 clipbox
148.592 135.809 p0_0
gsave
fill
grestore
stroke
grestore
gsave
576 432 0 0 clipbox
143.743 135.801 p0_0
gsave
fill
grestore
stroke
grestore
gsave
576 432 0 0 clipbox
146.916 137.094 p0_0
gsave
fill
grestore
stroke
grestore
gsave
576 432 0 0 clipbox
147.789 135.925 p0_0
gsave
fill
grestore
stroke
grestore
gsave
576 432 0 0 clipbox
145.415 133.415 p0_0
gsave
fill
grestore
stroke
grestore
gsave
576 432 0 0 clipbox
147.682 132.977 p0_0
gsave
fill
grestore
stroke
grestore
gsave
576 432 0 0 clipbox
140.197 138.666 p0_0
gsave
fill
grestore
stroke
grestore
gsave
576 432 0 0 clipbox
145.119 132.506 p0_0
gsave
fill
grestore
stroke
grestore
gsave
576 432 0 0 clipbox
146.309 135.72 p0_0
gsave
fill
grestore
stroke
grestore
gsave
576 432 0 0 clipbox
146.974 135.346 p0_0
gsave
fill
grestore
stroke
grestore
gsave
576 432 0 0 clipbox
141.882 133.85 p0_0
gsave
fill
grestore
stroke
grestore
gsave
576 432 0 0 clipbox
140.548 136.054 p0_0
gsave
fill
grestore
stroke
grestore
gsave
576 432 0 0 clipbox
146.487 134.674 p0_0
gsave
fill
grestore
stroke
grestore
gsave
576 432 0 0 clipbox
150.179 134.397 p0_0
gsave
fill
grestore
stroke
grestore
gsave
576 432 0 0 clipbox
141.575 136.803 p0_0
gsave
fill
grestore
stroke
grestore
gsave
576 432 0 0 clipbox
143.259 134.471 p0_0
gsave
fill
grestore
stroke
grestore
gsave
576 432 0 0 clipbox
145.417 137.514 p0_0
gsave
fill
grestore
stroke
grestore
gsave
576 432 0 0 clipbox
144.723 135.578 p0_0
gsave
fill
grestore
stroke
grestore
gsave
576 432 0 0 clipbox
146.285 131.309 p0_0
gsave
fill
grestore
stroke
grestore
gsave
576 432 0 0 clipbox
140.455 135.197 p0_0
gsave
fill
grestore
stroke
grestore
gsave
576 432 0 0 clipbox
145.322 134.476 p0_0
gsave
fill
grestore
stroke
grestore
gsave
576 432 0 0 clipbox
145.456 135.218 p0_0
gsave
fill
grestore
stroke
grestore
gsave
576 432 0 0 clipbox
143.794 136.246 p0_0
gsave
fill
grestore
stroke
grestore
gsave
576 432 0 0 clipbox
143.609 133.004 p0_0
gsave
fill
grestore
stroke
grestore
gsave
576 432 0 0 clipbox
144.631 133.013 p0_0
gsave
fill
grestore
stroke
grestore
gsave
576 432 0 0 clipbox
146.898 134.584 p0_0
gsave
fill
grestore
stroke
grestore
gsave
576 432 0 0 clipbox
146.415 133.688 p0_0
gsave
fill
grestore
stroke
grestore
gsave
576 432 0 0 clipbox
145.919 134.473 p0_0
gsave
fill
grestore
stroke
grestore
gsave
576 432 0 0 clipbox
142.29 135.372 p0_0
gsave
fill
grestore
stroke
grestore
gsave
576 432 0 0 clipbox
143.221 137.622 p0_0
gsave
fill
grestore
stroke
grestore
gsave
576 432 0 0 clipbox
143.987 136.327 p0_0
gsave
fill
grestore
stroke
grestore
gsave
576 432 0 0 clipbox
143.696 134.502 p0_0
gsave
fill
grestore
stroke
grestore
gsave
576 432 0 0 clipbox
144.026 134.195 p0_0
gsave
fill
grestore
stroke
grestore
gsave
576 432 0 0 clipbox
147.91 135.543 p0_0
gsave
fill
grestore
stroke
grestore
gsave
576 432 0 0 clipbox
147.998 133.328 p0_0
gsave
fill
grestore
stroke
grestore
gsave
576 432 0 0 clipbox
146.28 134.068 p0_0
gsave
fill
grestore
stroke
grestore
gsave
576 432 0 0 clipbox
143.977 132.785 p0_0
gsave
fill
grestore
stroke
grestore
gsave
576 432 0 0 clipbox
143.817 136.04 p0_0
gsave
fill
grestore
stroke
grestore
gsave
576 432 0 0 clipbox
142.569 136.63 p0_0
gsave
fill
grestore
stroke
grestore
gsave
576 432 0 0 clipbox
151.4 135.763 p0_0
gsave
fill
grestore
stroke
grestore
gsave
576 432 0 0 clipbox
144.923 131.244 p0_0
gsave
fill
grestore
stroke
grestore
gsave
576 432 0 0 clipbox
146.193 137.657 p0_0
gsave
fill
grestore
stroke
grestore
gsave
576 432 0 0 clipbox
147.951 132.572 p0_0
gsave
fill
grestore
stroke
grestore
gsave
576 432 0 0 clipbox
144.338 134.545 p0_0
gsave
fill
grestore
stroke
grestore
gsave
576 432 0 0 clipbox
144.242 133.832 p0_0
gsave
fill
grestore
stroke
grestore
gsave
576 432 0 0 clipbox
146.862 133.882 p0_0
gsave
fill
grestore
stroke
grestore
gsave
576 432 0 0 clipbox
138.186 135.972 p0_0
gsave
fill
grestore
stroke
grestore
gsave
576 432 0 0 clipbox
144.416 135.953 p0_0
gsave
fill
grestore
stroke
grestore
gsave
576 432 0 0 clipbox
145.389 135.536 p0_0
gsave
fill
grestore
stroke
grestore
gsave
576 432 0 0 clipbox
146.492 135.025 p0_0
gsave
fill
grestore
stroke
grestore
gsave
576 432 0 0 clipbox
146.033 133.968 p0_0
gsave
fill
grestore
stroke
grestore
gsave
576 432 0 0 clipbox
144.742 133.163 p0_0
gsave
fill
grestore
stroke
grestore
gsave
576 432 0 0 clipbox
144.224 132.529 p0_0
gsave
fill
grestore
stroke
grestore
gsave
576 432 0 0 clipbox
140.037 134.392 p0_0
gsave
fill
grestore
stroke
grestore
gsave
576 432 0 0 clipbox
146.769 133.687 p0_0
gsave
fill
grestore
stroke
grestore
gsave
576 432 0 0 clipbox
143.062 135.523 p0_0
gsave
fill
grestore
stroke
grestore
gsave
576 432 0 0 clipbox
140.275 135.258 p0_0
gsave
fill
grestore
stroke
grestore
gsave
576 432 0 0 clipbox
146.534 134.889 p0_0
gsave
fill
grestore
stroke
grestore
gsave
576 432 0 0 clipbox
148.978 133.417 p0_0
gsave
fill
grestore
stroke
grestore
gsave
576 432 0 0 clipbox
145.044 135.772 p0_0
gsave
fill
grestore
stroke
grestore
gsave
576 432 0 0 clipbox
147.15 135.5 p0_0
gsave
fill
grestore
stroke
grestore
gsave
576 432 0 0 clipbox
143.169 137.106 p0_0
gsave
fill
grestore
stroke
grestore
gsave
576 432 0 0 clipbox
145.793 134.051 p0_0
gsave
fill
grestore
stroke
grestore
gsave
576 432 0 0 clipbox
144.328 133.37 p0_0
gsave
fill
grestore
stroke
grestore
gsave
576 432 0 0 clipbox
142.782 134.707 p0_0
gsave
fill
grestore
stroke
grestore
gsave
576 432 0 0 clipbox
143.958 135.351 p0_0
gsave
fill
grestore
stroke
grestore
gsave
576 432 0 0 clipbox
148.876 133.612 p0_0
gsave
fill
grestore
stroke
grestore
gsave
576 432 0 0 clipbox
149.452 137.622 p0_0
gsave
fill
grestore
stroke
grestore
gsave
576 432 0 0 clipbox
143.699 136.285 p0_0
gsave
fill
grestore
stroke
grestore
gsave
576 432 0 0 clipbox
143.584 131.033 p0_0
gsave
fill
grestore
stroke
grestore
gsave
576 432 0 0 clipbox
145.254 136.976 p0_0
gsave
fill
grestore
stroke
grestore
gsave
576 432 0 0 clipbox
146.002 136.174 p0_0
gsave
fill
grestore
stroke
grestore
gsave
576 432 0 0 clipbox
145.538 135.623 p0_0
gsave
fill
grestore
stroke
grestore
gsave
576 432 0 0 clipbox
145.562 134.034 p0_0
gsave
fill
grestore
stroke
grestore
gsave
576 432 0 0 clipbox
147.345 133.816 p0_0
gsave
fill
grestore
stroke
grestore
gsave
576 432 0 0 clipbox
144.873 134.018 p0_0
gsave
fill
grestore
stroke
grestore
gsave
576 432 0 0 clipbox
145.877 131.017 p0_0
gsave
fill
grestore
stroke
grestore
gsave
576 432 0 0 clipbox
143.679 136.55 p0_0
gsave
fill
grestore
stroke
grestore
gsave
576 432 0 0 clipbox
144.081 136.754 p0_0
gsave
fill
grestore
stroke
grestore
gsave
576 432 0 0 clipbox
146.291 136.824 p0_0
gsave
fill
grestore
stroke
grestore
gsave
576 432 0 0 clipbox
141.916 133.544 p0_0
gsave
fill
grestore
stroke
grestore
gsave
576 432 0 0 clipbox
144.873 133.92 p0_0
gsave
fill
grestore
stroke
grestore
gsave
576 432 0 0 clipbox
146.003 137.477 p0_0
gsave
fill
grestore
stroke
grestore
gsave
576 432 0 0 clipbox
142.576 134.008 p0_0
gsave
fill
grestore
stroke
grestore
gsave
576 432 0 0 clipbox
144.059 134.175 p0_0
gsave
fill
grestore
stroke
grestore
gsave
576 432 0 0 clipbox
141.319 136.186 p0_0
gsave
fill
grestore
stroke
grestore
gsave
576 432 0 0 clipbox
142.895 135.797 p0_0
gsave
fill
grestore
stroke
grestore
gsave
576 432 0 0 clipbox
145.706 133.812 p0_0
gsave
fill
grestore
stroke
grestore
gsave
576 432 0 0 clipbox
141.449 134.354 p0_0
gsave
fill
grestore
stroke
grestore
gsave
576 432 0 0 clipbox
148.247 135.579 p0_0
gsave
fill
grestore
stroke
grestore
gsave
576 432 0 0 clipbox
145.848 135.758 p0_0
gsave
fill
grestore
stroke
grestore
gsave
576 432 0 0 clipbox
144.636 134.831 p0_0
gsave
fill
grestore
stroke
grestore
gsave
576 432 0 0 clipbox
142.587 132.143 p0_0
gsave
fill
grestore
stroke
grestore
gsave
576 432 0 0 clipbox
146.706 135.326 p0_0
gsave
fill
grestore
stroke
grestore
gsave
576 432 0 0 clipbox
147.626 138.013 p0_0
gsave
fill
grestore
stroke
grestore
gsave
576 432 0 0 clipbox
144.705 133.188 p0_0
gsave
fill
grestore
stroke
grestore
gsave
576 432 0 0 clipbox
140.296 135.601 p0_0
gsave
fill
grestore
stroke
grestore
gsave
576 432 0 0 clipbox
143.003 134.405 p0_0
gsave
fill
grestore
stroke
grestore
gsave
576 432 0 0 clipbox
145.236 135.346 p0_0
gsave
fill
grestore
stroke
grestore
gsave
576 432 0 0 clipbox
143.88 135.229 p0_0
gsave
fill
grestore
stroke
grestore
gsave
576 432 0 0 clipbox
148.472 135.411 p0_0
gsave
fill
grestore
stroke
grestore
gsave
576 432 0 0 clipbox
143.043 136.701 p0_0
gsave
fill
grestore
stroke
grestore
gsave
576 432 0 0 clipbox
141.939 135.262 p0_0
gsave
fill
grestore
stroke
grestore
gsave
576 432 0 0 clipbox
147.25 135.823 p0_0
gsave
fill
grestore
stroke
grestore
gsave
576 432 0 0 clipbox
147.883 133.984 p0_0
gsave
fill
grestore
stroke
grestore
gsave
576 432 0 0 clipbox
143.346 134.475 p0_0
gsave
fill
grestore
stroke
grestore
gsave
576 432 0 0 clipbox
145.068 133.643 p0_0
gsave
fill
grestore
stroke
grestore
gsave
576 432 0 0 clipbox
146.877 137.529 p0_0
gsave
fill
grestore
stroke
grestore
gsave
576 432 0 0 clipbox
146.745 133.478 p0_0
gsave
fill
grestore
stroke
grestore
gsave
576 432 0 0 clipbox
144.681 133.533 p0_0
gsave
fill
grestore
stroke
grestore
gsave
576 432 0 0 clipbox
147.23 134.207 p0_0
gsave
fill
grestore
stroke
grestore
gsave
576 432 0 0 clipbox
142.978 138.484 p0_0
gsave
fill
grestore
stroke
grestore
gsave
576 432 0 0 clipbox
147.096 135.338 p0_0
gsave
fill
grestore
stroke
grestore
gsave
576 432 0 0 clipbox
144.207 135.594 p0_0
gsave
fill
grestore
stroke
grestore
gsave
576 432 0 0 clipbox
145.356 136.533 p0_0
gsave
fill
grestore
stroke
grestore
gsave
576 432 0 0 clipbox
144.677 136.322 p0_0
gsave
fill
grestore
stroke
grestore
gsave
576 432 0 0 clipbox
143.01 134.716 p0_0
gsave
fill
grestore
stroke
grestore
gsave
576 432 0 0 clipbox
145.845 133.762 p0_0
gsave
fill
grestore
stroke
grestore
gsave
576 432 0 0 clipbox
144.961 137.93 p0_0
gsave
fill
grestore
stroke
grestore
gsave
576 432 0 0 clipbox
143.099 133.211 p0_0
gsave
fill
grestore
stroke
grestore
gsave
576 432 0 0 clipbox
144.952 134.346 p0_0
gsave
fill
grestore
stroke
grestore
gsave
576 432 0 0 clipbox
142.599 135.005 p0_0
gsave
fill
grestore
stroke
grestore
gsave
576 432 0 0 clipbox
147.488 136.996 p0_0
gsave
fill
grestore
stroke
grestore
gsave
576 432 0 0 clipbox
146.306 137.236 p0_0
gsave
fill
grestore
stroke
grestore
gsave
576 432 0 0 clipbox
141.181 136.746 p0_0
gsave
fill
grestore
stroke
grestore
gsave
576 432 0 0 clipbox
144.394 137.482 p0_0
gsave
fill
grestore
stroke
grestore
gsave
576 432 0 0 clipbox
149.103 135.794 p0_0
gsave
fill
grestore
stroke
grestore
gsave
576 432 0 0 clipbox
144.955 137.986 p0_0
gsave
fill
grestore
stroke
grestore
gsave
576 432 0 0 clipbox
143.288 136.032 p0_0
gsave
fill
grestore
stroke
grestore
gsave
576 432 0 0 clipbox
146.235 132.232 p0_0
gsave
fill
grestore
stroke
grestore
gsave
576 432 0 0 clipbox
145.871 133.45 p0_0
gsave
fill
grestore
stroke
grestore
gsave
576 432 0 0 clipbox
142.537 131.377 p0_0
gsave
fill
grestore
stroke
grestore
gsave
576 432 0 0 clipbox
144.326 133.714 p0_0
gsave
fill
grestore
stroke
grestore
gsave
576 432 0 0 clipbox
146.042 135.534 p0_0
gsave
fill
grestore
stroke
grestore
gsave
576 432 0 0 clipbox
148.429 133.834 p0_0
gsave
fill
grestore
stroke
grestore
gsave
576 432 0 0 clipbox
144.779 136.489 p0_0
gsave
fill
grestore
stroke
grestore
gsave
576 432 0 0 clipbox
142.943 133.84 p0_0
gsave
fill
grestore
stroke
grestore
gsave
576 432 0 0 clipbox
144.421 135.538 p0_0
gsave
fill
grestore
stroke
grestore
gsave
576 432 0 0 clipbox
144.018 134.712 p0_0
gsave
fill
grestore
stroke
grestore
gsave
576 432 0 0 clipbox
142.323 133.842 p0_0
gsave
fill
grestore
stroke
grestore
gsave
576 432 0 0 clipbox
140.079 134.863 p0_0
gsave
fill
grestore
stroke
grestore
gsave
576 432 0 0 clipbox
146.697 134.749 p0_0
gsave
fill
grestore
stroke
grestore
gsave
576 432 0 0 clipbox
143.993 134.48 p0_0
gsave
fill
grestore
stroke
grestore
gsave
576 432 0 0 clipbox
142.854 134.196 p0_0
gsave
fill
grestore
stroke
grestore
gsave
576 432 0 0 clipbox
138.987 133.802 p0_0
gsave
fill
grestore
stroke
grestore
gsave
576 432 0 0 clipbox
142.91 133.926 p0_0
gsave
fill
grestore
stroke
grestore
gsave
576 432 0 0 clipbox
148.077 133.764 p0_0
gsave
fill
grestore
stroke
grestore
gsave
576 432 0 0 clipbox
140.132 135.769 p0_0
gsave
fill
grestore
stroke
grestore
gsave
576 432 0 0 clipbox
145.731 137.537 p0_0
gsave
fill
grestore
stroke
grestore
gsave
576 432 0 0 clipbox
144.546 136.018 p0_0
gsave
fill
grestore
stroke
grestore
gsave
576 432 0 0 clipbox
144.711 134.481 p0_0
gsave
fill
grestore
stroke
grestore
gsave
576 432 0 0 clipbox
143.523 136.923 p0_0
gsave
fill
grestore
stroke
grestore
gsave
576 432 0 0 clipbox
146.164 134.558 p0_0
gsave
fill
grestore
stroke
grestore
gsave
576 432 0 0 clipbox
143.202 134.932 p0_0
gsave
fill
grestore
stroke
grestore
gsave
576 432 0 0 clipbox
145.748 134.829 p0_0
gsave
fill
grestore
stroke
grestore
gsave
576 432 0 0 clipbox
144.656 134.445 p0_0
gsave
fill
grestore
stroke
grestore
gsave
576 432 0 0 clipbox
147.303 136.278 p0_0
gsave
fill
grestore
stroke
grestore
gsave
576 432 0 0 clipbox
143.446 136.638 p0_0
gsave
fill
grestore
stroke
grestore
gsave
576 432 0 0 clipbox
142.015 135.296 p0_0
gsave
fill
grestore
stroke
grestore
gsave
576 432 0 0 clipbox
145.756 133.572 p0_0
gsave
fill
grestore
stroke
grestore
gsave
576 432 0 0 clipbox
143.65 133.671 p0_0
gsave
fill
grestore
stroke
grestore
gsave
576 432 0 0 clipbox
146.594 133.765 p0_0
gsave
fill
grestore
stroke
grestore
gsave
576 432 0 0 clipbox
143.49 133.198 p0_0
gsave
fill
grestore
stroke
grestore
gsave
576 432 0 0 clipbox
143.715 134.098 p0_0
gsave
fill
grestore
stroke
grestore
gsave
576 432 0 0 clipbox
145.901 133.062 p0_0
gsave
fill
grestore
stroke
grestore
gsave
576 432 0 0 clipbox
145.501 135.061 p0_0
gsave
fill
grestore
stroke
grestore
gsave
576 432 0 0 clipbox
143.686 136.193 p0_0
gsave
fill
grestore
stroke
grestore
gsave
576 432 0 0 clipbox
146.843 135.201 p0_0
gsave
fill
grestore
stroke
grestore
gsave
576 432 0 0 clipbox
144.963 133.747 p0_0
gsave
fill
grestore
stroke
grestore
gsave
576 432 0 0 clipbox
144.328 133.796 p0_0
gsave
fill
grestore
stroke
grestore
gsave
576 432 0 0 clipbox
145.281 136.407 p0_0
gsave
fill
grestore
stroke
grestore
gsave
576 432 0 0 clipbox
144.204 133.764 p0_0
gsave
fill
grestore
stroke
grestore
gsave
576 432 0 0 clipbox
148.934 135.122 p0_0
gsave
fill
grestore
stroke
grestore
gsave
576 432 0 0 clipbox
144.289 134.457 p0_0
gsave
fill
grestore
stroke
grestore
gsave
576 432 0 0 clipbox
145.957 133.17 p0_0
gsave
fill
grestore
stroke
grestore
gsave
576 432 0 0 clipbox
141.456 133.582 p0_0
gsave
fill
grestore
stroke
grestore
gsave
576 432 0 0 clipbox
146.099 131.276 p0_0
gsave
fill
grestore
stroke
grestore
gsave
576 432 0 0 clipbox
146.913 135.991 p0_0
gsave
fill
grestore
stroke
grestore
gsave
576 432 0 0 clipbox
145.818 134.39 p0_0
gsave
fill
grestore
stroke
grestore
gsave
576 432 0 0 clipbox
144.479 136.155 p0_0
gsave
fill
grestore
stroke
grestore
gsave
576 432 0 0 clipbox
146.173 134.714 p0_0
gsave
fill
grestore
stroke
grestore
gsave
576 432 0 0 clipbox
144.775 134.735 p0_0
gsave
fill
grestore
stroke
grestore
gsave
576 432 0 0 clipbox
146.454 135.134 p0_0
gsave
fill
grestore
stroke
grestore
gsave
576 432 0 0 clipbox
144.552 132.452 p0_0
gsave
fill
grestore
stroke
grestore
gsave
576 432 0 0 clipbox
145.192 131.982 p0_0
gsave
fill
grestore
stroke
grestore
gsave
576 432 0 0 clipbox
144.155 131.806 p0_0
gsave
fill
grestore
stroke
grestore
gsave
576 432 0 0 clipbox
147.7 135.194 p0_0
gsave
fill
grestore
stroke
grestore
gsave
576 432 0 0 clipbox
146.341 136.565 p0_0
gsave
fill
grestore
stroke
grestore
gsave
576 432 0 0 clipbox
143.819 132.416 p0_0
gsave
fill
grestore
stroke
grestore
gsave
576 432 0 0 clipbox
146.83 131.588 p0_0
gsave
fill
grestore
stroke
grestore
gsave
576 432 0 0 clipbox
143.815 132.805 p0_0
gsave
fill
grestore
stroke
grestore
gsave
576 432 0 0 clipbox
144.201 136.037 p0_0
gsave
fill
grestore
stroke
grestore
gsave
576 432 0 0 clipbox
145.366 136.118 p0_0
gsave
fill
grestore
stroke
grestore
gsave
576 432 0 0 clipbox
149.312 136.82 p0_0
gsave
fill
grestore
stroke
grestore
gsave
576 432 0 0 clipbox
143.842 133.711 p0_0
gsave
fill
grestore
stroke
grestore
gsave
576 432 0 0 clipbox
143.341 133.386 p0_0
gsave
fill
grestore
stroke
grestore
gsave
576 432 0 0 clipbox
144.485 134.584 p0_0
gsave
fill
grestore
stroke
grestore
gsave
576 432 0 0 clipbox
147.556 139.16 p0_0
gsave
fill
grestore
stroke
grestore
gsave
576 432 0 0 clipbox
145.45 130.469 p0_0
gsave
fill
grestore
stroke
grestore
gsave
576 432 0 0 clipbox
145.86 137.234 p0_0
gsave
fill
grestore
stroke
grestore
gsave
576 432 0 0 clipbox
145.133 135.632 p0_0
gsave
fill
grestore
stroke
grestore
gsave
576 432 0 0 clipbox
143.234 134.468 p0_0
gsave
fill
grestore
stroke
grestore
gsave
576 432 0 0 clipbox
141.218 132.817 p0_0
gsave
fill
grestore
stroke
grestore
gsave
576 432 0 0 clipbox
143.769 133.723 p0_0
gsave
fill
grestore
stroke
grestore
gsave
576 432 0 0 clipbox
145.22 134.986 p0_0
gsave
fill
grestore
stroke
grestore
gsave
576 432 0 0 clipbox
143.462 134.485 p0_0
gsave
fill
grestore
stroke
grestore
gsave
576 432 0 0 clipbox
146.401 135.579 p0_0
gsave
fill
grestore
stroke
grestore
gsave
576 432 0 0 clipbox
145.918 138.971 p0_0
gsave
fill
grestore
stroke
grestore
gsave
576 432 0 0 clipbox
143.051 132.545 p0_0
gsave
fill
grestore
stroke
grestore
gsave
576 432 0 0 clipbox
143.513 136.258 p0_0
gsave
fill
grestore
stroke
grestore
gsave
576 432 0 0 clipbox
144.298 133.394 p0_0
gsave
fill
grestore
stroke
grestore
gsave
576 432 0 0 clipbox
144.692 133.93 p0_0
gsave
fill
grestore
stroke
grestore
gsave
576 432 0 0 clipbox
144.059 134.682 p0_0
gsave
fill
grestore
stroke
grestore
gsave
576 432 0 0 clipbox
141.788 133.158 p0_0
gsave
fill
grestore
stroke
grestore
gsave
576 432 0 0 clipbox
149.989 135.39 p0_0
gsave
fill
grestore
stroke
grestore
gsave
576 432 0 0 clipbox
146.035 136.042 p0_0
gsave
fill
grestore
stroke
grestore
gsave
576 432 0 0 clipbox
147.308 134.029 p0_0
gsave
fill
grestore
stroke
grestore
gsave
576 432 0 0 clipbox
143.659 138.909 p0_0
gsave
fill
grestore
stroke
grestore
gsave
576 432 0 0 clipbox
146.487 133.745 p0_0
gsave
fill
grestore
stroke
grestore
gsave
576 432 0 0 clipbox
142.817 134.153 p0_0
gsave
fill
grestore
stroke
grestore
gsave
576 432 0 0 clipbox
146.974 131.795 p0_0
gsave
fill
grestore
stroke
grestore
gsave
576 432 0 0 clipbox
146.457 135.595 p0_0
gsave
fill
grestore
stroke
grestore
gsave
576 432 0 0 clipbox
148.034 135.007 p0_0
gsave
fill
grestore
stroke
grestore
gsave
576 432 0 0 clipbox
145.724 136.509 p0_0
gsave
fill
grestore
stroke
grestore
gsave
576 432 0 0 clipbox
146.856 132.317 p0_0
gsave
fill
grestore
stroke
grestore
gsave
576 432 0 0 clipbox
144.772 133.624 p0_0
gsave
fill
grestore
stroke
grestore
gsave
576 432 0 0 clipbox
144.596 135.197 p0_0
gsave
fill
grestore
stroke
grestore
gsave
576 432 0 0 clipbox
147.777 134.09 p0_0
gsave
fill
grestore
stroke
grestore
gsave
576 432 0 0 clipbox
145.566 135.903 p0_0
gsave
fill
grestore
stroke
grestore
gsave
576 432 0 0 clipbox
144.175 135.432 p0_0
gsave
fill
grestore
stroke
grestore
gsave
576 432 0 0 clipbox
142.853 131.661 p0_0
gsave
fill
grestore
stroke
grestore
gsave
576 432 0 0 clipbox
145.443 135.857 p0_0
gsave
fill
grestore
stroke
grestore
gsave
576 432 0 0 clipbox
144.708 133.621 p0_0
gsave
fill
grestore
stroke
grestore
gsave
576 432 0 0 clipbox
147.16 133.116 p0_0
gsave
fill
grestore
stroke
grestore
gsave
576 432 0 0 clipbox
144.537 134.271 p0_0
gsave
fill
grestore
stroke
grestore
gsave
576 432 0 0 clipbox
145.004 135.041 p0_0
gsave
fill
grestore
stroke
grestore
gsave
576 432 0 0 clipbox
142.76 131.258 p0_0
gsave
fill
grestore
stroke
grestore
gsave
576 432 0 0 clipbox
142.942 129.113 p0_0
gsave
fill
grestore
stroke
grestore
gsave
576 432 0 0 clipbox
144.471 136.088 p0_0
gsave
fill
grestore
stroke
grestore
gsave
576 432 0 0 clipbox
146.697 133.47 p0_0
gsave
fill
grestore
stroke
grestore
gsave
576 432 0 0 clipbox
143.058 136.138 p0_0
gsave
fill
grestore
stroke
grestore
gsave
576 432 0 0 clipbox
147.889 134.177 p0_0
gsave
fill
grestore
stroke
grestore
gsave
576 432 0 0 clipbox
143.44 135.072 p0_0
gsave
fill
grestore
stroke
grestore
gsave
576 432 0 0 clipbox
147.1 133.117 p0_0
gsave
fill
grestore
stroke
grestore
gsave
576 432 0 0 clipbox
143.268 135.029 p0_0
gsave
fill
grestore
stroke
grestore
gsave
576 432 0 0 clipbox
142.804 134.751 p0_0
gsave
fill
grestore
stroke
grestore
gsave
576 432 0 0 clipbox
142.265 134.081 p0_0
gsave
fill
grestore
stroke
grestore
gsave
576 432 0 0 clipbox
144.159 134.927 p0_0
gsave
fill
grestore
stroke
grestore
gsave
576 432 0 0 clipbox
146.455 132.829 p0_0
gsave
fill
grestore
stroke
grestore
gsave
576 432 0 0 clipbox
148.511 132.98 p0_0
gsave
fill
grestore
stroke
grestore
gsave
576 432 0 0 clipbox
147.244 136.659 p0_0
gsave
fill
grestore
stroke
grestore
gsave
576 432 0 0 clipbox
148.577 135.026 p0_0
gsave
fill
grestore
stroke
grestore
gsave
576 432 0 0 clipbox
147.553 133.627 p0_0
gsave
fill
grestore
stroke
grestore
gsave
576 432 0 0 clipbox
149.578 135.259 p0_0
gsave
fill
grestore
stroke
grestore
gsave
576 432 0 0 clipbox
142.552 132.67 p0_0
gsave
fill
grestore
stroke
grestore
gsave
576 432 0 0 clipbox
141.433 132.261 p0_0
gsave
fill
grestore
stroke
grestore
gsave
576 432 0 0 clipbox
145.211 136.459 p0_0
gsave
fill
grestore
stroke
grestore
gsave
576 432 0 0 clipbox
145.103 135.436 p0_0
gsave
fill
grestore
stroke
grestore
gsave
576 432 0 0 clipbox
146.809 138.318 p0_0
gsave
fill
grestore
stroke
grestore
gsave
576 432 0 0 clipbox
141.428 134.266 p0_0
gsave
fill
grestore
stroke
grestore
gsave
576 432 0 0 clipbox
142.774 136.161 p0_0
gsave
fill
grestore
stroke
grestore
gsave
576 432 0 0 clipbox
153.558 135.398 p0_0
gsave
fill
grestore
stroke
grestore
gsave
576 432 0 0 clipbox
143.442 134.458 p0_0
gsave
fill
grestore
stroke
grestore
gsave
576 432 0 0 clipbox
145.579 134.158 p0_0
gsave
fill
grestore
stroke
grestore
gsave
576 432 0 0 clipbox
150.478 134.1 p0_0
gsave
fill
grestore
stroke
grestore
gsave
576 432 0 0 clipbox
144.034 135.061 p0_0
gsave
fill
grestore
stroke
grestore
gsave
576 432 0 0 clipbox
138.179 135.007 p0_0
gsave
fill
grestore
stroke
grestore
gsave
576 432 0 0 clipbox
143.242 134.832 p0_0
gsave
fill
grestore
stroke
grestore
gsave
576 432 0 0 clipbox
143.498 134.278 p0_0
gsave
fill
grestore
stroke
grestore
gsave
576 432 0 0 clipbox
150.149 135.202 p0_0
gsave
fill
grestore
stroke
grestore
gsave
576 432 0 0 clipbox
146.624 135.036 p0_0
gsave
fill
grestore
stroke
grestore
gsave
576 432 0 0 clipbox
141.07 136.395 p0_0
gsave
fill
grestore
stroke
grestore
gsave
576 432 0 0 clipbox
144.267 135.138 p0_0
gsave
fill
grestore
stroke
grestore
gsave
576 432 0 0 clipbox
146.098 133.943 p0_0
gsave
fill
grestore
stroke
grestore
gsave
576 432 0 0 clipbox
146.522 135.783 p0_0
gsave
fill
grestore
stroke
grestore
gsave
576 432 0 0 clipbox
146.285 135.041 p0_0
gsave
fill
grestore
stroke
grestore
gsave
576 432 0 0 clipbox
144.517 136.322 p0_0
gsave
fill
grestore
stroke
grestore
gsave
576 432 0 0 clipbox
144.768 134.797 p0_0
gsave
fill
grestore
stroke
grestore
gsave
576 432 0 0 clipbox
143.398 137.164 p0_0
gsave
fill
grestore
stroke
grestore
gsave
576 432 0 0 clipbox
142.253 134.201 p0_0
gsave
fill
grestore
stroke
grestore
gsave
576 432 0 0 clipbox
143.441 135.192 p0_0
gsave
fill
grestore
stroke
grestore
gsave
576 432 0 0 clipbox
145.838 134.175 p0_0
gsave
fill
grestore
stroke
grestore
gsave
576 432 0 0 clipbox
144.737 132.798 p0_0
gsave
fill
grestore
stroke
grestore
gsave
576 432 0 0 clipbox
143.17 132.406 p0_0
gsave
fill
grestore
stroke
grestore
gsave
576 432 0 0 clipbox
145.531 136.833 p0_0
gsave
fill
grestore
stroke
grestore
gsave
576 432 0 0 clipbox
140.101 135.3 p0_0
gsave
fill
grestore
stroke
grestore
gsave
576 432 0 0 clipbox
147.032 135.927 p0_0
gsave
fill
grestore
stroke
grestore
gsave
576 432 0 0 clipbox
145.818 135.544 p0_0
gsave
fill
grestore
stroke
grestore
gsave
576 432 0 0 clipbox
147.682 135.129 p0_0
gsave
fill
grestore
stroke
grestore
gsave
576 432 0 0 clipbox
141.1 137.004 p0_0
gsave
fill
grestore
stroke
grestore
gsave
576 432 0 0 clipbox
146.439 135.641 p0_0
gsave
fill
grestore
stroke
grestore
gsave
576 432 0 0 clipbox
145.695 136.082 p0_0
gsave
fill
grestore
stroke
grestore
gsave
576 432 0 0 clipbox
144.113 135.77 p0_0
gsave
fill
grestore
stroke
grestore
gsave
576 432 0 0 clipbox
147.462 138.277 p0_0
gsave
fill
grestore
stroke
grestore
gsave
576 432 0 0 clipbox
147.262 137.714 p0_0
gsave
fill
grestore
stroke
grestore
gsave
576 432 0 0 clipbox
140.941 134.372 p0_0
gsave
fill
grestore
stroke
grestore
gsave
576 432 0 0 clipbox
146.597 134.696 p0_0
gsave
fill
grestore
stroke
grestore
gsave
576 432 0 0 clipbox
147.484 135.636 p0_0
gsave
fill
grestore
stroke
grestore
gsave
576 432 0 0 clipbox
145.028 136.493 p0_0
gsave
fill
grestore
stroke
grestore
gsave
576 432 0 0 clipbox
145.979 137.814 p0_0
gsave
fill
grestore
stroke
grestore
gsave
576 432 0 0 clipbox
142.209 137.587 p0_0
gsave
fill
grestore
stroke
grestore
gsave
576 432 0 0 clipbox
143.908 137.762 p0_0
gsave
fill
grestore
stroke
grestore
gsave
576 432 0 0 clipbox
143.862 133.671 p0_0
gsave
fill
grestore
stroke
grestore
gsave
576 432 0 0 clipbox
145.803 134.198 p0_0
gsave
fill
grestore
stroke
grestore
gsave
576 432 0 0 clipbox
145.863 136.589 p0_0
gsave
fill
grestore
stroke
grestore
gsave
576 432 0 0 clipbox
145.581 134.112 p0_0
gsave
fill
grestore
stroke
grestore
gsave
576 432 0 0 clipbox
142.7 135.706 p0_0
gsave
fill
grestore
stroke
grestore
gsave
576 432 0 0 clipbox
145.705 136.829 p0_0
gsave
fill
grestore
stroke
grestore
gsave
576 432 0 0 clipbox
143.768 134.771 p0_0
gsave
fill
grestore
stroke
grestore
gsave
576 432 0 0 clipbox
141.953 135.815 p0_0
gsave
fill
grestore
stroke
grestore
gsave
576 432 0 0 clipbox
144.672 135.444 p0_0
gsave
fill
grestore
stroke
grestore
gsave
576 432 0 0 clipbox
146.528 131.532 p0_0
gsave
fill
grestore
stroke
grestore
gsave
576 432 0 0 clipbox
144.636 134.704 p0_0
gsave
fill
grestore
stroke
grestore
gsave
576 432 0 0 clipbox
144.227 136.978 p0_0
gsave
fill
grestore
stroke
grestore
gsave
576 432 0 0 clipbox
144.101 137.048 p0_0
gsave
fill
grestore
stroke
grestore
gsave
576 432 0 0 clipbox
147.197 137.223 p0_0
gsave
fill
grestore
stroke
grestore
gsave
576 432 0 0 clipbox
145.94 136.231 p0_0
gsave
fill
grestore
stroke
grestore
gsave
576 432 0 0 clipbox
145.691 135.713 p0_0
gsave
fill
grestore
stroke
grestore
gsave
576 432 0 0 clipbox
146.011 135.473 p0_0
gsave
fill
grestore
stroke
grestore
gsave
576 432 0 0 clipbox
143.909 133.879 p0_0
gsave
fill
grestore
stroke
grestore
gsave
576 432 0 0 clipbox
145.271 133.266 p0_0
gsave
fill
grestore
stroke
grestore
gsave
576 432 0 0 clipbox
143.549 134.366 p0_0
gsave
fill
grestore
stroke
grestore
gsave
576 432 0 0 clipbox
146.085 136.595 p0_0
gsave
fill
grestore
stroke
grestore
gsave
576 432 0 0 clipbox
147.626 133.552 p0_0
gsave
fill
grestore
stroke
grestore
gsave
576 432 0 0 clipbox
146.177 134.163 p0_0
gsave
fill
grestore
stroke
grestore
gsave
576 432 0 0 clipbox
143.326 135.216 p0_0
gsave
fill
grestore
stroke
grestore
gsave
576 432 0 0 clipbox
142.603 133.154 p0_0
gsave
fill
grestore
stroke
grestore
gsave
576 432 0 0 clipbox
147.611 136.736 p0_0
gsave
fill
grestore
stroke
grestore
gsave
576 432 0 0 clipbox
143.579 137.169 p0_0
gsave
fill
grestore
stroke
grestore
gsave
576 432 0 0 clipbox
145.792 134.277 p0_0
gsave
fill
grestore
stroke
grestore
gsave
576 432 0 0 clipbox
144.861 132.55 p0_0
gsave
fill
grestore
stroke
grestore
gsave
576 432 0 0 clipbox
144.05 135.103 p0_0
gsave
fill
grestore
stroke
grestore
gsave
576 432 0 0 clipbox
142.9 136.32 p0_0
gsave
fill
grestore
stroke
grestore
gsave
576 432 0 0 clipbox
144.816 135.344 p0_0
gsave
fill
grestore
stroke
grestore
gsave
576 432 0 0 clipbox
143.407 136.321 p0_0
gsave
fill
grestore
stroke
grestore
gsave
576 432 0 0 clipbox
139.873 133.865 p0_0
gsave
fill
grestore
stroke
grestore
gsave
576 432 0 0 clipbox
145.426 135.789 p0_0
gsave
fill
grestore
stroke
grestore
gsave
576 432 0 0 clipbox
144.162 133.938 p0_0
gsave
fill
grestore
stroke
grestore
gsave
576 432 0 0 clipbox
147.123 136.449 p0_0
gsave
fill
grestore
stroke
grestore
gsave
576 432 0 0 clipbox
145.483 135.205 p0_0
gsave
fill
grestore
stroke
grestore
gsave
576 432 0 0 clipbox
144.96 134.724 p0_0
gsave
fill
grestore
stroke
grestore
gsave
576 432 0 0 clipbox
147.053 137.786 p0_0
gsave
fill
grestore
stroke
grestore
gsave
576 432 0 0 clipbox
142.994 137.054 p0_0
gsave
fill
grestore
stroke
grestore
gsave
576 432 0 0 clipbox
142.277 135.911 p0_0
gsave
fill
grestore
stroke
grestore
gsave
576 432 0 0 clipbox
145.811 134.515 p0_0
gsave
fill
grestore
stroke
grestore
gsave
576 432 0 0 clipbox
147.605 134.89 p0_0
gsave
fill
grestore
stroke
grestore
gsave
576 432 0 0 clipbox
143.685 134.345 p0_0
gsave
fill
grestore
stroke
grestore
gsave
576 432 0 0 clipbox
147.744 136.361 p0_0
gsave
fill
grestore
stroke
grestore
gsave
576 432 0 0 clipbox
143.267 133.305 p0_0
gsave
fill
grestore
stroke
grestore
gsave
576 432 0 0 clipbox
145.774 134.397 p0_0
gsave
fill
grestore
stroke
grestore
gsave
576 432 0 0 clipbox
141.114 137.071 p0_0
gsave
fill
grestore
stroke
grestore
gsave
576 432 0 0 clipbox
147.323 134.958 p0_0
gsave
fill
grestore
stroke
grestore
gsave
576 432 0 0 clipbox
147.117 134.463 p0_0
gsave
fill
grestore
stroke
grestore
gsave
576 432 0 0 clipbox
144.857 135.884 p0_0
gsave
fill
grestore
stroke
grestore
gsave
576 432 0 0 clipbox
142.451 134.474 p0_0
gsave
fill
grestore
stroke
grestore
gsave
576 432 0 0 clipbox
144.704 134.45 p0_0
gsave
fill
grestore
stroke
grestore
gsave
576 432 0 0 clipbox
146.621 133.323 p0_0
gsave
fill
grestore
stroke
grestore
gsave
576 432 0 0 clipbox
142.407 135.944 p0_0
gsave
fill
grestore
stroke
grestore
gsave
576 432 0 0 clipbox
146.462 134.232 p0_0
gsave
fill
grestore
stroke
grestore
gsave
576 432 0 0 clipbox
142.138 132.281 p0_0
gsave
fill
grestore
stroke
grestore
gsave
576 432 0 0 clipbox
144.937 136.47 p0_0
gsave
fill
grestore
stroke
grestore
gsave
576 432 0 0 clipbox
143.776 134.76 p0_0
gsave
fill
grestore
stroke
grestore
gsave
576 432 0 0 clipbox
144.883 132.354 p0_0
gsave
fill
grestore
stroke
grestore
gsave
576 432 0 0 clipbox
139.906 136.089 p0_0
gsave
fill
grestore
stroke
grestore
gsave
576 432 0 0 clipbox
145.438 135.276 p0_0
gsave
fill
grestore
stroke
grestore
gsave
576 432 0 0 clipbox
144.678 132.202 p0_0
gsave
fill
grestore
stroke
grestore
gsave
576 432 0 0 clipbox
142.838 136.448 p0_0
gsave
fill
grestore
stroke
grestore
gsave
576 432 0 0 clipbox
144.291 134.556 p0_0
gsave
fill
grestore
stroke
grestore
gsave
576 432 0 0 clipbox
144.919 133.293 p0_0
gsave
fill
grestore
stroke
grestore
gsave
576 432 0 0 clipbox
144.001 131.73 p0_0
gsave
fill
grestore
stroke
grestore
gsave
576 432 0 0 clipbox
144.407 135.445 p0_0
gsave
fill
grestore
stroke
grestore
gsave
576 432 0 0 clipbox
142.905 135.774 p0_0
gsave
fill
grestore
stroke
grestore
gsave
576 432 0 0 clipbox
145.791 135.747 p0_0
gsave
fill
grestore
stroke
grestore
gsave
576 432 0 0 clipbox
148.463 138.421 p0_0
gsave
fill
grestore
stroke
grestore
gsave
576 432 0 0 clipbox
145.478 132.577 p0_0
gsave
fill
grestore
stroke
grestore
gsave
576 432 0 0 clipbox
143.069 134.739 p0_0
gsave
fill
grestore
stroke
grestore
gsave
576 432 0 0 clipbox
145.976 135.053 p0_0
gsave
fill
grestore
stroke
grestore
gsave
576 432 0 0 clipbox
142.632 132.983 p0_0
gsave
fill
grestore
stroke
grestore
gsave
576 432 0 0 clipbox
147.673 134.535 p0_0
gsave
fill
grestore
stroke
grestore
gsave
576 432 0 0 clipbox
146.373 135.999 p0_0
gsave
fill
grestore
stroke
grestore
gsave
576 432 0 0 clipbox
144.275 134.367 p0_0
gsave
fill
grestore
stroke
grestore
gsave
576 432 0 0 clipbox
143.664 134.634 p0_0
gsave
fill
grestore
stroke
grestore
gsave
576 432 0 0 clipbox
143.315 134.824 p0_0
gsave
fill
grestore
stroke
grestore
gsave
576 432 0 0 clipbox
143.395 134.143 p0_0
gsave
fill
grestore
stroke
grestore
gsave
576 432 0 0 clipbox
147.621 135.125 p0_0
gsave
fill
grestore
stroke
grestore
gsave
576 432 0 0 clipbox
142.252 136.09 p0_0
gsave
fill
grestore
stroke
grestore
gsave
576 432 0 0 clipbox
145.877 136.816 p0_0
gsave
fill
grestore
stroke
grestore
gsave
576 432 0 0 clipbox
143.723 135.634 p0_0
gsave
fill
grestore
stroke
grestore
gsave
576 432 0 0 clipbox
144.871 135.489 p0_0
gsave
fill
grestore
stroke
grestore
gsave
576 432 0 0 clipbox
145.258 133.419 p0_0
gsave
fill
grestore
stroke
grestore
gsave
576 432 0 0 clipbox
144.792 137.976 p0_0
gsave
fill
grestore
stroke
grestore
gsave
576 432 0 0 clipbox
142.953 134.249 p0_0
gsave
fill
grestore
stroke
grestore
gsave
576 432 0 0 clipbox
149.207 134.913 p0_0
gsave
fill
grestore
stroke
grestore
gsave
576 432 0 0 clipbox
143.991 134.55 p0_0
gsave
fill
grestore
stroke
grestore
gsave
576 432 0 0 clipbox
143.977 134.896 p0_0
gsave
fill
grestore
stroke
grestore
gsave
576 432 0 0 clipbox
144.535 134.966 p0_0
gsave
fill
grestore
stroke
grestore
gsave
576 432 0 0 clipbox
143.843 135.977 p0_0
gsave
fill
grestore
stroke
grestore
gsave
576 432 0 0 clipbox
145.215 134.518 p0_0
gsave
fill
grestore
stroke
grestore
gsave
576 432 0 0 clipbox
142.791 137.209 p0_0
gsave
fill
grestore
stroke
grestore
gsave
576 432 0 0 clipbox
150.205 134.788 p0_0
gsave
fill
grestore
stroke
grestore
gsave
576 432 0 0 clipbox
148.261 137.45 p0_0
gsave
fill
grestore
stroke
grestore
gsave
576 432 0 0 clipbox
145.389 136.198 p0_0
gsave
fill
grestore
stroke
grestore
gsave
576 432 0 0 clipbox
143.479 136.47 p0_0
gsave
fill
grestore
stroke
grestore
gsave
576 432 0 0 clipbox
143.176 133.338 p0_0
gsave
fill
grestore
stroke
grestore
gsave
576 432 0 0 clipbox
143.458 131.026 p0_0
gsave
fill
grestore
stroke
grestore
gsave
576 432 0 0 clipbox
147.292 136.774 p0_0
gsave
fill
grestore
stroke
grestore
gsave
576 432 0 0 clipbox
142.298 133.644 p0_0
gsave
fill
grestore
stroke
grestore
gsave
576 432 0 0 clipbox
145.849 135.177 p0_0
gsave
fill
grestore
stroke
grestore
gsave
576 432 0 0 clipbox
148.736 135.033 p0_0
gsave
fill
grestore
stroke
grestore
gsave
576 432 0 0 clipbox
139.35 133.072 p0_0
gsave
fill
grestore
stroke
grestore
gsave
576 432 0 0 clipbox
141.909 134.719 p0_0
gsave
fill
grestore
stroke
grestore
gsave
576 432 0 0 clipbox
143.052 132.783 p0_0
gsave
fill
grestore
stroke
grestore
gsave
576 432 0 0 clipbox
146.806 135.203 p0_0
gsave
fill
grestore
stroke
grestore
gsave
576 432 0 0 clipbox
143.877 134.984 p0_0
gsave
fill
grestore
stroke
grestore
gsave
576 432 0 0 clipbox
146.902 135.173 p0_0
gsave
fill
grestore
stroke
grestore
gsave
576 432 0 0 clipbox
144.411 132.909 p0_0
gsave
fill
grestore
stroke
grestore
gsave
576 432 0 0 clipbox
144.843 135.063 p0_0
gsave
fill
grestore
stroke
grestore
gsave
576 432 0 0 clipbox
147.369 136.481 p0_0
gsave
fill
grestore
stroke
grestore
gsave
576 432 0 0 clipbox
448.681 309.901 p0_0
gsave
fill
grestore
stroke
grestore

end
showpage
