%!PS-Adobe-3.0 EPSF-3.0
%%Title: stratified_grids.eps
%%Creator: matplotlib version 1.4.3, http://matplotlib.org/
%%CreationDate: Tue Nov 29 22:43:01 2016
%%Orientation: portrait
%%BoundingBox: 18 180 594 612
%%EndComments
%%BeginProlog
/mpldict 7 dict def
mpldict begin
/m { moveto } bind def
/l { lineto } bind def
/r { rlineto } bind def
/c { curveto } bind def
/cl { closepath } bind def
/box {
m
1 index 0 r
0 exch r
neg 0 r
cl
} bind def
/clipbox {
box
clip
newpath
} bind def
end
%%EndProlog
mpldict begin
18 180 translate
576 432 0 0 clipbox
gsave
0 0 m
576 0 l
576 432 l
0 432 l
cl
1.000 setgray
fill
grestore
gsave
0 0 m
576 0 l
576 432 l
0 432 l
cl
1.000 setgray
fill
grestore
1.000 setlinewidth
1 setlinejoin
0 setlinecap
[] 0 setdash
0.900 setgray
gsave
426.757 60.9621 m
467.852 134.865 l
472.366 361.21 l
stroke
grestore
gsave
362.346 63.7138 m
409.344 137.124 l
412.313 362.792 l
stroke
grestore
gsave
298.385 66.4464 m
351.205 139.37 l
352.65 364.365 l
stroke
grestore
gsave
234.868 69.16 m
293.433 141.601 l
293.372 365.926 l
stroke
grestore
gsave
171.79 71.8548 m
236.024 143.818 l
234.476 367.478 l
stroke
grestore
gsave
109.148 74.531 m
178.974 146.022 l
175.959 369.02 l
stroke
grestore
gsave
168.565 368.271 m
171.771 144.951 l
473.233 133.286 l
stroke
grestore
gsave
155.639 359.365 m
159.235 132.23 l
466.036 120.135 l
stroke
grestore
gsave
142.224 350.122 m
146.237 119.04 l
458.568 106.491 l
stroke
grestore
gsave
128.291 340.521 m
132.75 105.354 l
450.815 92.3248 l
stroke
grestore
gsave
113.809 330.543 m
118.746 91.1444 l
442.76 77.6067 l
stroke
grestore
gsave
98.746 320.165 m
104.196 76.3799 l
434.384 62.3035 l
stroke
grestore
gsave
474.059 139.043 m
172.99 150.599 l
102.541 79.5609 l
stroke
grestore
gsave
474.792 174.525 m
172.493 185.546 l
101.68 117.77 l
stroke
grestore
gsave
475.531 210.299 m
171.993 220.777 l
100.811 156.32 l
stroke
grestore
gsave
476.276 246.37 m
171.488 256.296 l
99.9338 195.218 l
stroke
grestore
gsave
477.027 282.742 m
170.98 292.104 l
99.049 234.467 l
stroke
grestore
gsave
477.785 319.417 m
170.467 328.208 l
98.1562 274.072 l
stroke
grestore
gsave
478.548 356.4 m
169.95 364.609 l
97.2553 314.038 l
stroke
grestore
2 setlinecap
0.000 setgray
gsave
576 432 0 0 clipbox
467.194 137.944 m
427.737 67.4106 l
stroke
grestore
gsave
576 432 0 0 clipbox
467.194 137.944 m
177.645 149.079 l
stroke
grestore
gsave
576 432 0 0 clipbox
437.824 139.074 m
395.522 68.7755 l
stroke
grestore
gsave
576 432 0 0 clipbox
463.572 131.47 m
171.48 142.807 l
stroke
grestore
gsave
576 432 0 0 clipbox
408.548 140.199 m
363.419 70.1357 l
stroke
grestore
gsave
576 432 0 0 clipbox
459.884 124.877 m
165.204 136.422 l
stroke
grestore
gsave
576 432 0 0 clipbox
379.364 141.322 m
331.429 71.4911 l
stroke
grestore
gsave
576 432 0 0 clipbox
456.127 118.161 m
158.813 129.92 l
stroke
grestore
gsave
576 432 0 0 clipbox
350.273 142.44 m
299.55 72.8418 l
stroke
grestore
gsave
576 432 0 0 clipbox
452.299 111.319 m
152.305 123.298 l
stroke
grestore
gsave
576 432 0 0 clipbox
321.274 143.556 m
267.782 74.1878 l
stroke
grestore
gsave
576 432 0 0 clipbox
448.399 104.347 m
145.675 116.552 l
stroke
grestore
gsave
576 432 0 0 clipbox
292.367 144.667 m
236.123 75.5291 l
stroke
grestore
gsave
576 432 0 0 clipbox
444.425 97.2423 m
138.92 109.68 l
stroke
grestore
gsave
576 432 0 0 clipbox
263.551 145.775 m
204.575 76.8658 l
stroke
grestore
gsave
576 432 0 0 clipbox
440.374 90.0003 m
132.037 102.677 l
stroke
grestore
gsave
576 432 0 0 clipbox
234.825 146.88 m
173.135 78.1979 l
stroke
grestore
gsave
576 432 0 0 clipbox
436.243 82.6172 m
125.022 95.5404 l
stroke
grestore
gsave
576 432 0 0 clipbox
206.19 147.981 m
141.805 79.5254 l
stroke
grestore
gsave
576 432 0 0 clipbox
432.032 75.0887 m
117.872 88.2654 l
stroke
grestore
gsave
576 432 0 0 clipbox
177.645 149.079 m
110.582 80.8483 l
stroke
grestore
gsave
576 432 0 0 clipbox
427.737 67.4106 m
110.582 80.8483 l
stroke
grestore
gsave
576 432 0 0 clipbox
468.611 209.303 m
428.937 145.285 l
stroke
grestore
gsave
576 432 0 0 clipbox
468.611 209.303 m
176.683 219.399 l
stroke
grestore
gsave
576 432 0 0 clipbox
419.306 211.008 m
374.818 147.349 l
stroke
grestore
gsave
576 432 0 0 clipbox
462.509 199.456 m
166.248 209.864 l
stroke
grestore
gsave
576 432 0 0 clipbox
370.265 212.704 m
321.016 149.401 l
stroke
grestore
gsave
576 432 0 0 clipbox
456.215 189.301 m
155.49 200.035 l
stroke
grestore
gsave
576 432 0 0 clipbox
321.483 214.391 m
267.529 151.441 l
stroke
grestore
gsave
576 432 0 0 clipbox
449.721 178.822 m
144.396 189.898 l
stroke
grestore
gsave
576 432 0 0 clipbox
272.961 216.069 m
214.353 153.469 l
stroke
grestore
gsave
576 432 0 0 clipbox
443.017 168.005 m
132.949 179.439 l
stroke
grestore
gsave
576 432 0 0 clipbox
224.695 217.739 m
161.487 155.485 l
stroke
grestore
gsave
576 432 0 0 clipbox
436.093 156.832 m
121.131 168.641 l
stroke
grestore
gsave
576 432 0 0 clipbox
176.683 219.399 m
108.926 157.489 l
stroke
grestore
gsave
576 432 0 0 clipbox
428.937 145.285 m
108.926 157.489 l
stroke
grestore
gsave
576 432 0 0 clipbox
470.052 281.851 m
430.159 224.589 l
stroke
grestore
gsave
576 432 0 0 clipbox
470.052 281.851 m
175.706 290.873 l
stroke
grestore
gsave
576 432 0 0 clipbox
410.422 283.679 m
364.657 226.805 l
stroke
grestore
gsave
576 432 0 0 clipbox
462.671 271.256 m
163.022 280.617 l
stroke
grestore
gsave
576 432 0 0 clipbox
351.176 285.495 m
299.618 229.005 l
stroke
grestore
gsave
576 432 0 0 clipbox
455.009 260.258 m
149.862 269.976 l
stroke
grestore
gsave
576 432 0 0 clipbox
292.311 287.299 m
235.04 231.19 l
stroke
grestore
gsave
576 432 0 0 clipbox
447.048 248.831 m
136.199 258.928 l
stroke
grestore
gsave
576 432 0 0 clipbox
233.822 289.092 m
170.915 233.359 l
stroke
grestore
gsave
576 432 0 0 clipbox
438.771 236.951 m
122.002 247.449 l
stroke
grestore
gsave
576 432 0 0 clipbox
175.706 290.873 m
107.241 235.513 l
stroke
grestore
gsave
576 432 0 0 clipbox
430.159 224.589 m
107.241 235.513 l
stroke
grestore
gsave
576 432 0 0 clipbox
471.517 355.619 m
431.405 305.363 l
stroke
grestore
gsave
576 432 0 0 clipbox
471.517 355.619 m
174.713 363.53 l
stroke
grestore
gsave
576 432 0 0 clipbox
396.41 357.621 m
348.839 307.794 l
stroke
grestore
gsave
576 432 0 0 clipbox
462.202 343.949 m
158.627 352.236 l
stroke
grestore
gsave
576 432 0 0 clipbox
321.912 359.606 m
267.01 310.203 l
stroke
grestore
gsave
576 432 0 0 clipbox
452.435 331.712 m
141.772 340.404 l
stroke
grestore
gsave
576 432 0 0 clipbox
248.015 361.576 m
185.909 312.59 l
stroke
grestore
gsave
576 432 0 0 clipbox
442.182 318.866 m
124.092 327.992 l
stroke
grestore
gsave
576 432 0 0 clipbox
174.713 363.53 m
105.525 314.957 l
stroke
grestore
gsave
576 432 0 0 clipbox
431.405 305.363 m
105.525 314.957 l
stroke
grestore

end
showpage
