%!PS-Adobe-3.0 EPSF-3.0
%%Title: output/make_gradient_radius.eps
%%Creator: matplotlib version 1.4.3, http://matplotlib.org/
%%CreationDate: Wed Nov 16 18:08:25 2016
%%Orientation: portrait
%%BoundingBox: 18 180 594 612
%%EndComments
%%BeginProlog
/mpldict 7 dict def
mpldict begin
/m { moveto } bind def
/l { lineto } bind def
/r { rlineto } bind def
/c { curveto } bind def
/cl { closepath } bind def
/box {
m
1 index 0 r
0 exch r
neg 0 r
cl
} bind def
/clipbox {
box
clip
newpath
} bind def
end
%%EndProlog
mpldict begin
18 180 translate
576 432 0 0 clipbox
gsave
0 0 m
576 0 l
576 432 l
0 432 l
cl
1.000 setgray
fill
grestore
gsave
0 0 m
576 0 l
576 432 l
0 432 l
cl
1.000 setgray
fill
grestore
1.000 setlinewidth
1 setlinejoin
0 setlinecap
[] 0 setdash
0.900 setgray
gsave
81.7308 94.1379 m
246.336 200.237 l
243.847 402.746 l
stroke
grestore
gsave
125.065 83.5016 m
287.634 191.08 l
287.221 394.547 l
stroke
grestore
gsave
169.027 72.7109 m
329.488 181.799 l
331.208 386.232 l
stroke
grestore
gsave
213.633 61.7624 m
371.909 172.393 l
375.823 377.798 l
stroke
grestore
gsave
258.896 50.6526 m
414.909 162.859 l
421.077 369.244 l
stroke
grestore
gsave
304.83 39.3779 m
458.499 153.193 l
466.986 360.566 l
stroke
grestore
gsave
351.452 27.9346 m
502.693 143.394 l
513.563 351.761 l
stroke
grestore
gsave
68.1802 310.654 m
79.9044 97.7355 l
360.587 28.9889 l
stroke
grestore
gsave
90.4783 322.846 m
100.957 111.261 l
379.915 43.801 l
stroke
grestore
gsave
112.349 334.804 m
121.626 124.541 l
398.875 58.3312 l
stroke
grestore
gsave
133.804 346.535 m
141.922 137.581 l
417.477 72.5872 l
stroke
grestore
gsave
154.856 358.046 m
161.855 150.388 l
435.732 86.5769 l
stroke
grestore
gsave
175.515 369.342 m
181.435 162.968 l
453.649 100.308 l
stroke
grestore
gsave
195.792 380.429 m
200.671 175.327 l
471.237 113.787 l
stroke
grestore
gsave
215.699 391.313 m
219.572 187.47 l
488.506 127.02 l
stroke
grestore
gsave
235.244 402 m
238.147 199.404 l
505.464 140.016 l
stroke
grestore
gsave
508.473 146.125 m
241.16 205.231 l
76.1311 99.5039 l
stroke
grestore
gsave
510.188 178.136 m
240.737 236.361 l
74.3009 132.184 l
stroke
grestore
gsave
511.932 210.669 m
240.309 267.975 l
72.44 165.413 l
stroke
grestore
gsave
513.704 243.735 m
239.873 300.086 l
70.5476 199.206 l
stroke
grestore
gsave
515.505 277.347 m
239.431 332.705 l
68.6228 233.576 l
stroke
grestore
gsave
517.336 311.52 m
238.981 365.844 l
66.6648 268.538 l
stroke
grestore
gsave
519.198 346.267 m
238.525 399.516 l
64.6728 304.109 l
stroke
grestore
/p0_0 {
newpath
translate
-2.23607 -2.23607 m
2.23607 2.23607 l
-2.23607 2.23607 m
2.23607 -2.23607 l
} bind def
0.000 0.000 1.000 setrgbcolor
gsave
576 432 0 0 clipbox
180.75 152.427 p0_0
gsave
fill
grestore
stroke
grestore
gsave
576 432 0 0 clipbox
180.533 159.932 p0_0
gsave
fill
grestore
stroke
grestore
gsave
576 432 0 0 clipbox
180.315 167.465 p0_0
gsave
fill
grestore
stroke
grestore
gsave
576 432 0 0 clipbox
180.096 175.027 p0_0
gsave
fill
grestore
stroke
grestore
gsave
576 432 0 0 clipbox
179.877 182.618 p0_0
gsave
fill
grestore
stroke
grestore
gsave
576 432 0 0 clipbox
179.656 190.237 p0_0
gsave
fill
grestore
stroke
grestore
gsave
576 432 0 0 clipbox
179.435 197.885 p0_0
gsave
fill
grestore
stroke
grestore
gsave
576 432 0 0 clipbox
179.213 205.563 p0_0
gsave
fill
grestore
stroke
grestore
gsave
576 432 0 0 clipbox
178.99 213.27 p0_0
gsave
fill
grestore
stroke
grestore
gsave
576 432 0 0 clipbox
178.766 221.007 p0_0
gsave
fill
grestore
stroke
grestore
gsave
576 432 0 0 clipbox
190.741 150.11 p0_0
gsave
fill
grestore
stroke
grestore
gsave
576 432 0 0 clipbox
190.542 157.623 p0_0
gsave
fill
grestore
stroke
grestore
gsave
576 432 0 0 clipbox
190.343 165.164 p0_0
gsave
fill
grestore
stroke
grestore
gsave
576 432 0 0 clipbox
190.143 172.734 p0_0
gsave
fill
grestore
stroke
grestore
gsave
576 432 0 0 clipbox
189.942 180.332 p0_0
gsave
fill
grestore
stroke
grestore
gsave
576 432 0 0 clipbox
189.74 187.96 p0_0
gsave
fill
grestore
stroke
grestore
gsave
576 432 0 0 clipbox
189.538 195.617 p0_0
gsave
fill
grestore
stroke
grestore
gsave
576 432 0 0 clipbox
189.334 203.303 p0_0
gsave
fill
grestore
stroke
grestore
gsave
576 432 0 0 clipbox
189.13 211.018 p0_0
gsave
fill
grestore
stroke
grestore
gsave
576 432 0 0 clipbox
188.926 218.763 p0_0
gsave
fill
grestore
stroke
grestore
gsave
576 432 0 0 clipbox
200.764 147.785 p0_0
gsave
fill
grestore
stroke
grestore
gsave
576 432 0 0 clipbox
200.584 155.306 p0_0
gsave
fill
grestore
stroke
grestore
gsave
576 432 0 0 clipbox
200.404 162.855 p0_0
gsave
fill
grestore
stroke
grestore
gsave
576 432 0 0 clipbox
200.222 170.433 p0_0
gsave
fill
grestore
stroke
grestore
gsave
576 432 0 0 clipbox
200.04 178.04 p0_0
gsave
fill
grestore
stroke
grestore
gsave
576 432 0 0 clipbox
199.857 185.676 p0_0
gsave
fill
grestore
stroke
grestore
gsave
576 432 0 0 clipbox
199.674 193.341 p0_0
gsave
fill
grestore
stroke
grestore
gsave
576 432 0 0 clipbox
199.49 201.035 p0_0
gsave
fill
grestore
stroke
grestore
gsave
576 432 0 0 clipbox
199.305 208.759 p0_0
gsave
fill
grestore
stroke
grestore
gsave
576 432 0 0 clipbox
199.119 216.513 p0_0
gsave
fill
grestore
stroke
grestore
gsave
576 432 0 0 clipbox
210.82 145.453 p0_0
gsave
fill
grestore
stroke
grestore
gsave
576 432 0 0 clipbox
210.659 152.981 p0_0
gsave
fill
grestore
stroke
grestore
gsave
576 432 0 0 clipbox
210.497 160.539 p0_0
gsave
fill
grestore
stroke
grestore
gsave
576 432 0 0 clipbox
210.335 168.125 p0_0
gsave
fill
grestore
stroke
grestore
gsave
576 432 0 0 clipbox
210.172 175.74 p0_0
gsave
fill
grestore
stroke
grestore
gsave
576 432 0 0 clipbox
210.008 183.384 p0_0
gsave
fill
grestore
stroke
grestore
gsave
576 432 0 0 clipbox
209.844 191.057 p0_0
gsave
fill
grestore
stroke
grestore
gsave
576 432 0 0 clipbox
209.679 198.76 p0_0
gsave
fill
grestore
stroke
grestore
gsave
576 432 0 0 clipbox
209.513 206.492 p0_0
gsave
fill
grestore
stroke
grestore
gsave
576 432 0 0 clipbox
209.347 214.255 p0_0
gsave
fill
grestore
stroke
grestore
gsave
576 432 0 0 clipbox
220.91 143.113 p0_0
gsave
fill
grestore
stroke
grestore
gsave
576 432 0 0 clipbox
220.767 150.649 p0_0
gsave
fill
grestore
stroke
grestore
gsave
576 432 0 0 clipbox
220.624 158.214 p0_0
gsave
fill
grestore
stroke
grestore
gsave
576 432 0 0 clipbox
220.481 165.809 p0_0
gsave
fill
grestore
stroke
grestore
gsave
576 432 0 0 clipbox
220.337 173.432 p0_0
gsave
fill
grestore
stroke
grestore
gsave
576 432 0 0 clipbox
220.193 181.084 p0_0
gsave
fill
grestore
stroke
grestore
gsave
576 432 0 0 clipbox
220.048 188.766 p0_0
gsave
fill
grestore
stroke
grestore
gsave
576 432 0 0 clipbox
219.902 196.477 p0_0
gsave
fill
grestore
stroke
grestore
gsave
576 432 0 0 clipbox
219.756 204.218 p0_0
gsave
fill
grestore
stroke
grestore
gsave
576 432 0 0 clipbox
219.609 211.989 p0_0
gsave
fill
grestore
stroke
grestore
gsave
576 432 0 0 clipbox
231.032 140.765 p0_0
gsave
fill
grestore
stroke
grestore
gsave
576 432 0 0 clipbox
230.909 148.309 p0_0
gsave
fill
grestore
stroke
grestore
gsave
576 432 0 0 clipbox
230.785 155.883 p0_0
gsave
fill
grestore
stroke
grestore
gsave
576 432 0 0 clipbox
230.661 163.485 p0_0
gsave
fill
grestore
stroke
grestore
gsave
576 432 0 0 clipbox
230.536 171.116 p0_0
gsave
fill
grestore
stroke
grestore
gsave
576 432 0 0 clipbox
230.411 178.777 p0_0
gsave
fill
grestore
stroke
grestore
gsave
576 432 0 0 clipbox
230.285 186.467 p0_0
gsave
fill
grestore
stroke
grestore
gsave
576 432 0 0 clipbox
230.159 194.187 p0_0
gsave
fill
grestore
stroke
grestore
gsave
576 432 0 0 clipbox
230.033 201.936 p0_0
gsave
fill
grestore
stroke
grestore
gsave
576 432 0 0 clipbox
229.906 209.716 p0_0
gsave
fill
grestore
stroke
grestore
gsave
576 432 0 0 clipbox
241.188 138.409 p0_0
gsave
fill
grestore
stroke
grestore
gsave
576 432 0 0 clipbox
241.084 145.962 p0_0
gsave
fill
grestore
stroke
grestore
gsave
576 432 0 0 clipbox
240.979 153.543 p0_0
gsave
fill
grestore
stroke
grestore
gsave
576 432 0 0 clipbox
240.874 161.154 p0_0
gsave
fill
grestore
stroke
grestore
gsave
576 432 0 0 clipbox
240.769 168.793 p0_0
gsave
fill
grestore
stroke
grestore
gsave
576 432 0 0 clipbox
240.663 176.462 p0_0
gsave
fill
grestore
stroke
grestore
gsave
576 432 0 0 clipbox
240.557 184.16 p0_0
gsave
fill
grestore
stroke
grestore
gsave
576 432 0 0 clipbox
240.451 191.889 p0_0
gsave
fill
grestore
stroke
grestore
gsave
576 432 0 0 clipbox
240.344 199.647 p0_0
gsave
fill
grestore
stroke
grestore
gsave
576 432 0 0 clipbox
240.236 207.435 p0_0
gsave
fill
grestore
stroke
grestore
gsave
576 432 0 0 clipbox
251.377 136.046 p0_0
gsave
fill
grestore
stroke
grestore
gsave
576 432 0 0 clipbox
251.292 143.607 p0_0
gsave
fill
grestore
stroke
grestore
gsave
576 432 0 0 clipbox
251.207 151.196 p0_0
gsave
fill
grestore
stroke
grestore
gsave
576 432 0 0 clipbox
251.122 158.814 p0_0
gsave
fill
grestore
stroke
grestore
gsave
576 432 0 0 clipbox
251.036 166.462 p0_0
gsave
fill
grestore
stroke
grestore
gsave
576 432 0 0 clipbox
250.95 174.139 p0_0
gsave
fill
grestore
stroke
grestore
gsave
576 432 0 0 clipbox
250.863 181.846 p0_0
gsave
fill
grestore
stroke
grestore
gsave
576 432 0 0 clipbox
250.777 189.583 p0_0
gsave
fill
grestore
stroke
grestore
gsave
576 432 0 0 clipbox
250.689 197.349 p0_0
gsave
fill
grestore
stroke
grestore
gsave
576 432 0 0 clipbox
250.602 205.146 p0_0
gsave
fill
grestore
stroke
grestore
gsave
576 432 0 0 clipbox
261.6 133.675 p0_0
gsave
fill
grestore
stroke
grestore
gsave
576 432 0 0 clipbox
261.535 141.243 p0_0
gsave
fill
grestore
stroke
grestore
gsave
576 432 0 0 clipbox
261.469 148.841 p0_0
gsave
fill
grestore
stroke
grestore
gsave
576 432 0 0 clipbox
261.403 156.468 p0_0
gsave
fill
grestore
stroke
grestore
gsave
576 432 0 0 clipbox
261.337 164.124 p0_0
gsave
fill
grestore
stroke
grestore
gsave
576 432 0 0 clipbox
261.271 171.809 p0_0
gsave
fill
grestore
stroke
grestore
gsave
576 432 0 0 clipbox
261.204 179.524 p0_0
gsave
fill
grestore
stroke
grestore
gsave
576 432 0 0 clipbox
261.137 187.269 p0_0
gsave
fill
grestore
stroke
grestore
gsave
576 432 0 0 clipbox
261.07 195.044 p0_0
gsave
fill
grestore
stroke
grestore
gsave
576 432 0 0 clipbox
261.002 202.85 p0_0
gsave
fill
grestore
stroke
grestore
gsave
576 432 0 0 clipbox
271.857 131.296 p0_0
gsave
fill
grestore
stroke
grestore
gsave
576 432 0 0 clipbox
271.811 138.872 p0_0
gsave
fill
grestore
stroke
grestore
gsave
576 432 0 0 clipbox
271.765 146.478 p0_0
gsave
fill
grestore
stroke
grestore
gsave
576 432 0 0 clipbox
271.719 154.113 p0_0
gsave
fill
grestore
stroke
grestore
gsave
576 432 0 0 clipbox
271.673 161.777 p0_0
gsave
fill
grestore
stroke
grestore
gsave
576 432 0 0 clipbox
271.626 169.471 p0_0
gsave
fill
grestore
stroke
grestore
gsave
576 432 0 0 clipbox
271.579 177.194 p0_0
gsave
fill
grestore
stroke
grestore
gsave
576 432 0 0 clipbox
271.532 184.948 p0_0
gsave
fill
grestore
stroke
grestore
gsave
576 432 0 0 clipbox
271.485 192.732 p0_0
gsave
fill
grestore
stroke
grestore
gsave
576 432 0 0 clipbox
271.438 200.546 p0_0
gsave
fill
grestore
stroke
grestore
gsave
576 432 0 0 clipbox
187.435 157.317 p0_0
gsave
fill
grestore
stroke
grestore
gsave
576 432 0 0 clipbox
187.209 165.609 p0_0
gsave
fill
grestore
stroke
grestore
gsave
576 432 0 0 clipbox
186.982 173.936 p0_0
gsave
fill
grestore
stroke
grestore
gsave
576 432 0 0 clipbox
186.755 182.297 p0_0
gsave
fill
grestore
stroke
grestore
gsave
576 432 0 0 clipbox
186.526 190.694 p0_0
gsave
fill
grestore
stroke
grestore
gsave
576 432 0 0 clipbox
186.296 199.126 p0_0
gsave
fill
grestore
stroke
grestore
gsave
576 432 0 0 clipbox
186.066 207.593 p0_0
gsave
fill
grestore
stroke
grestore
gsave
576 432 0 0 clipbox
185.835 216.096 p0_0
gsave
fill
grestore
stroke
grestore
gsave
576 432 0 0 clipbox
185.602 224.635 p0_0
gsave
fill
grestore
stroke
grestore
gsave
576 432 0 0 clipbox
185.369 233.211 p0_0
gsave
fill
grestore
stroke
grestore
gsave
576 432 0 0 clipbox
198.471 154.769 p0_0
gsave
fill
grestore
stroke
grestore
gsave
576 432 0 0 clipbox
198.268 163.07 p0_0
gsave
fill
grestore
stroke
grestore
gsave
576 432 0 0 clipbox
198.064 171.407 p0_0
gsave
fill
grestore
stroke
grestore
gsave
576 432 0 0 clipbox
197.86 179.778 p0_0
gsave
fill
grestore
stroke
grestore
gsave
576 432 0 0 clipbox
197.654 188.185 p0_0
gsave
fill
grestore
stroke
grestore
gsave
576 432 0 0 clipbox
197.447 196.627 p0_0
gsave
fill
grestore
stroke
grestore
gsave
576 432 0 0 clipbox
197.24 205.105 p0_0
gsave
fill
grestore
stroke
grestore
gsave
576 432 0 0 clipbox
197.032 213.618 p0_0
gsave
fill
grestore
stroke
grestore
gsave
576 432 0 0 clipbox
196.822 222.168 p0_0
gsave
fill
grestore
stroke
grestore
gsave
576 432 0 0 clipbox
196.612 230.753 p0_0
gsave
fill
grestore
stroke
grestore
gsave
576 432 0 0 clipbox
209.548 152.211 p0_0
gsave
fill
grestore
stroke
grestore
gsave
576 432 0 0 clipbox
209.368 160.523 p0_0
gsave
fill
grestore
stroke
grestore
gsave
576 432 0 0 clipbox
209.187 168.869 p0_0
gsave
fill
grestore
stroke
grestore
gsave
576 432 0 0 clipbox
209.005 177.25 p0_0
gsave
fill
grestore
stroke
grestore
gsave
576 432 0 0 clipbox
208.822 185.667 p0_0
gsave
fill
grestore
stroke
grestore
gsave
576 432 0 0 clipbox
208.639 194.119 p0_0
gsave
fill
grestore
stroke
grestore
gsave
576 432 0 0 clipbox
208.455 202.607 p0_0
gsave
fill
grestore
stroke
grestore
gsave
576 432 0 0 clipbox
208.27 211.131 p0_0
gsave
fill
grestore
stroke
grestore
gsave
576 432 0 0 clipbox
208.084 219.691 p0_0
gsave
fill
grestore
stroke
grestore
gsave
576 432 0 0 clipbox
207.898 228.287 p0_0
gsave
fill
grestore
stroke
grestore
gsave
576 432 0 0 clipbox
220.665 149.645 p0_0
gsave
fill
grestore
stroke
grestore
gsave
576 432 0 0 clipbox
220.508 157.966 p0_0
gsave
fill
grestore
stroke
grestore
gsave
576 432 0 0 clipbox
220.35 166.322 p0_0
gsave
fill
grestore
stroke
grestore
gsave
576 432 0 0 clipbox
220.191 174.713 p0_0
gsave
fill
grestore
stroke
grestore
gsave
576 432 0 0 clipbox
220.031 183.14 p0_0
gsave
fill
grestore
stroke
grestore
gsave
576 432 0 0 clipbox
219.871 191.602 p0_0
gsave
fill
grestore
stroke
grestore
gsave
576 432 0 0 clipbox
219.711 200.1 p0_0
gsave
fill
grestore
stroke
grestore
gsave
576 432 0 0 clipbox
219.549 208.634 p0_0
gsave
fill
grestore
stroke
grestore
gsave
576 432 0 0 clipbox
219.387 217.204 p0_0
gsave
fill
grestore
stroke
grestore
gsave
576 432 0 0 clipbox
219.225 225.811 p0_0
gsave
fill
grestore
stroke
grestore
gsave
576 432 0 0 clipbox
231.822 147.069 p0_0
gsave
fill
grestore
stroke
grestore
gsave
576 432 0 0 clipbox
231.688 155.399 p0_0
gsave
fill
grestore
stroke
grestore
gsave
576 432 0 0 clipbox
231.553 163.765 p0_0
gsave
fill
grestore
stroke
grestore
gsave
576 432 0 0 clipbox
231.418 172.167 p0_0
gsave
fill
grestore
stroke
grestore
gsave
576 432 0 0 clipbox
231.282 180.603 p0_0
gsave
fill
grestore
stroke
grestore
gsave
576 432 0 0 clipbox
231.145 189.076 p0_0
gsave
fill
grestore
stroke
grestore
gsave
576 432 0 0 clipbox
231.008 197.584 p0_0
gsave
fill
grestore
stroke
grestore
gsave
576 432 0 0 clipbox
230.87 206.128 p0_0
gsave
fill
grestore
stroke
grestore
gsave
576 432 0 0 clipbox
230.732 214.709 p0_0
gsave
fill
grestore
stroke
grestore
gsave
576 432 0 0 clipbox
230.593 223.327 p0_0
gsave
fill
grestore
stroke
grestore
gsave
576 432 0 0 clipbox
243.02 144.483 p0_0
gsave
fill
grestore
stroke
grestore
gsave
576 432 0 0 clipbox
242.909 152.824 p0_0
gsave
fill
grestore
stroke
grestore
gsave
576 432 0 0 clipbox
242.797 161.2 p0_0
gsave
fill
grestore
stroke
grestore
gsave
576 432 0 0 clipbox
242.685 169.611 p0_0
gsave
fill
grestore
stroke
grestore
gsave
576 432 0 0 clipbox
242.573 178.057 p0_0
gsave
fill
grestore
stroke
grestore
gsave
576 432 0 0 clipbox
242.46 186.54 p0_0
gsave
fill
grestore
stroke
grestore
gsave
576 432 0 0 clipbox
242.347 195.058 p0_0
gsave
fill
grestore
stroke
grestore
gsave
576 432 0 0 clipbox
242.233 203.613 p0_0
gsave
fill
grestore
stroke
grestore
gsave
576 432 0 0 clipbox
242.119 212.205 p0_0
gsave
fill
grestore
stroke
grestore
gsave
576 432 0 0 clipbox
242.004 220.833 p0_0
gsave
fill
grestore
stroke
grestore
gsave
576 432 0 0 clipbox
254.258 141.888 p0_0
gsave
fill
grestore
stroke
grestore
gsave
576 432 0 0 clipbox
254.171 150.239 p0_0
gsave
fill
grestore
stroke
grestore
gsave
576 432 0 0 clipbox
254.083 158.624 p0_0
gsave
fill
grestore
stroke
grestore
gsave
576 432 0 0 clipbox
253.995 167.045 p0_0
gsave
fill
grestore
stroke
grestore
gsave
576 432 0 0 clipbox
253.906 175.502 p0_0
gsave
fill
grestore
stroke
grestore
gsave
576 432 0 0 clipbox
253.817 183.995 p0_0
gsave
fill
grestore
stroke
grestore
gsave
576 432 0 0 clipbox
253.728 192.524 p0_0
gsave
fill
grestore
stroke
grestore
gsave
576 432 0 0 clipbox
253.638 201.089 p0_0
gsave
fill
grestore
stroke
grestore
gsave
576 432 0 0 clipbox
253.548 209.691 p0_0
gsave
fill
grestore
stroke
grestore
gsave
576 432 0 0 clipbox
253.457 218.33 p0_0
gsave
fill
grestore
stroke
grestore
gsave
576 432 0 0 clipbox
265.537 139.284 p0_0
gsave
fill
grestore
stroke
grestore
gsave
576 432 0 0 clipbox
265.474 147.644 p0_0
gsave
fill
grestore
stroke
grestore
gsave
576 432 0 0 clipbox
265.41 156.04 p0_0
gsave
fill
grestore
stroke
grestore
gsave
576 432 0 0 clipbox
265.345 164.471 p0_0
gsave
fill
grestore
stroke
grestore
gsave
576 432 0 0 clipbox
265.281 172.938 p0_0
gsave
fill
grestore
stroke
grestore
gsave
576 432 0 0 clipbox
265.216 181.441 p0_0
gsave
fill
grestore
stroke
grestore
gsave
576 432 0 0 clipbox
265.15 189.98 p0_0
gsave
fill
grestore
stroke
grestore
gsave
576 432 0 0 clipbox
265.085 198.555 p0_0
gsave
fill
grestore
stroke
grestore
gsave
576 432 0 0 clipbox
265.019 207.168 p0_0
gsave
fill
grestore
stroke
grestore
gsave
576 432 0 0 clipbox
264.953 215.817 p0_0
gsave
fill
grestore
stroke
grestore
gsave
576 432 0 0 clipbox
276.858 136.67 p0_0
gsave
fill
grestore
stroke
grestore
gsave
576 432 0 0 clipbox
276.818 145.04 p0_0
gsave
fill
grestore
stroke
grestore
gsave
576 432 0 0 clipbox
276.778 153.446 p0_0
gsave
fill
grestore
stroke
grestore
gsave
576 432 0 0 clipbox
276.738 161.887 p0_0
gsave
fill
grestore
stroke
grestore
gsave
576 432 0 0 clipbox
276.697 170.364 p0_0
gsave
fill
grestore
stroke
grestore
gsave
576 432 0 0 clipbox
276.656 178.877 p0_0
gsave
fill
grestore
stroke
grestore
gsave
576 432 0 0 clipbox
276.615 187.426 p0_0
gsave
fill
grestore
stroke
grestore
gsave
576 432 0 0 clipbox
276.574 196.012 p0_0
gsave
fill
grestore
stroke
grestore
gsave
576 432 0 0 clipbox
276.533 204.635 p0_0
gsave
fill
grestore
stroke
grestore
gsave
576 432 0 0 clipbox
276.492 213.295 p0_0
gsave
fill
grestore
stroke
grestore
gsave
576 432 0 0 clipbox
288.22 134.047 p0_0
gsave
fill
grestore
stroke
grestore
gsave
576 432 0 0 clipbox
288.204 142.427 p0_0
gsave
fill
grestore
stroke
grestore
gsave
576 432 0 0 clipbox
288.188 150.842 p0_0
gsave
fill
grestore
stroke
grestore
gsave
576 432 0 0 clipbox
288.172 159.293 p0_0
gsave
fill
grestore
stroke
grestore
gsave
576 432 0 0 clipbox
288.156 167.78 p0_0
gsave
fill
grestore
stroke
grestore
gsave
576 432 0 0 clipbox
288.139 176.304 p0_0
gsave
fill
grestore
stroke
grestore
gsave
576 432 0 0 clipbox
288.123 184.863 p0_0
gsave
fill
grestore
stroke
grestore
gsave
576 432 0 0 clipbox
288.107 193.46 p0_0
gsave
fill
grestore
stroke
grestore
gsave
576 432 0 0 clipbox
288.09 202.093 p0_0
gsave
fill
grestore
stroke
grestore
gsave
576 432 0 0 clipbox
288.073 210.764 p0_0
gsave
fill
grestore
stroke
grestore
gsave
576 432 0 0 clipbox
195.163 162.874 p0_0
gsave
fill
grestore
stroke
grestore
gsave
576 432 0 0 clipbox
194.934 171.942 p0_0
gsave
fill
grestore
stroke
grestore
gsave
576 432 0 0 clipbox
194.705 181.05 p0_0
gsave
fill
grestore
stroke
grestore
gsave
576 432 0 0 clipbox
194.473 190.201 p0_0
gsave
fill
grestore
stroke
grestore
gsave
576 432 0 0 clipbox
194.241 199.393 p0_0
gsave
fill
grestore
stroke
grestore
gsave
576 432 0 0 clipbox
194.008 208.628 p0_0
gsave
fill
grestore
stroke
grestore
gsave
576 432 0 0 clipbox
193.774 217.905 p0_0
gsave
fill
grestore
stroke
grestore
gsave
576 432 0 0 clipbox
193.539 227.225 p0_0
gsave
fill
grestore
stroke
grestore
gsave
576 432 0 0 clipbox
193.302 236.588 p0_0
gsave
fill
grestore
stroke
grestore
gsave
576 432 0 0 clipbox
193.065 245.994 p0_0
gsave
fill
grestore
stroke
grestore
gsave
576 432 0 0 clipbox
207.23 160.103 p0_0
gsave
fill
grestore
stroke
grestore
gsave
576 432 0 0 clipbox
207.028 169.182 p0_0
gsave
fill
grestore
stroke
grestore
gsave
576 432 0 0 clipbox
206.826 178.302 p0_0
gsave
fill
grestore
stroke
grestore
gsave
576 432 0 0 clipbox
206.622 187.464 p0_0
gsave
fill
grestore
stroke
grestore
gsave
576 432 0 0 clipbox
206.417 196.669 p0_0
gsave
fill
grestore
stroke
grestore
gsave
576 432 0 0 clipbox
206.212 205.916 p0_0
gsave
fill
grestore
stroke
grestore
gsave
576 432 0 0 clipbox
206.005 215.205 p0_0
gsave
fill
grestore
stroke
grestore
gsave
576 432 0 0 clipbox
205.798 224.537 p0_0
gsave
fill
grestore
stroke
grestore
gsave
576 432 0 0 clipbox
205.589 233.913 p0_0
gsave
fill
grestore
stroke
grestore
gsave
576 432 0 0 clipbox
205.38 243.332 p0_0
gsave
fill
grestore
stroke
grestore
gsave
576 432 0 0 clipbox
219.345 157.32 p0_0
gsave
fill
grestore
stroke
grestore
gsave
576 432 0 0 clipbox
219.17 166.411 p0_0
gsave
fill
grestore
stroke
grestore
gsave
576 432 0 0 clipbox
218.995 175.543 p0_0
gsave
fill
grestore
stroke
grestore
gsave
576 432 0 0 clipbox
218.819 184.717 p0_0
gsave
fill
grestore
stroke
grestore
gsave
576 432 0 0 clipbox
218.642 193.933 p0_0
gsave
fill
grestore
stroke
grestore
gsave
576 432 0 0 clipbox
218.464 203.192 p0_0
gsave
fill
grestore
stroke
grestore
gsave
576 432 0 0 clipbox
218.285 212.494 p0_0
gsave
fill
grestore
stroke
grestore
gsave
576 432 0 0 clipbox
218.106 221.839 p0_0
gsave
fill
grestore
stroke
grestore
gsave
576 432 0 0 clipbox
217.925 231.227 p0_0
gsave
fill
grestore
stroke
grestore
gsave
576 432 0 0 clipbox
217.744 240.659 p0_0
gsave
fill
grestore
stroke
grestore
gsave
576 432 0 0 clipbox
231.507 154.526 p0_0
gsave
fill
grestore
stroke
grestore
gsave
576 432 0 0 clipbox
231.36 163.629 p0_0
gsave
fill
grestore
stroke
grestore
gsave
576 432 0 0 clipbox
231.212 172.773 p0_0
gsave
fill
grestore
stroke
grestore
gsave
576 432 0 0 clipbox
231.064 181.959 p0_0
gsave
fill
grestore
stroke
grestore
gsave
576 432 0 0 clipbox
230.915 191.187 p0_0
gsave
fill
grestore
stroke
grestore
gsave
576 432 0 0 clipbox
230.765 200.458 p0_0
gsave
fill
grestore
stroke
grestore
gsave
576 432 0 0 clipbox
230.614 209.772 p0_0
gsave
fill
grestore
stroke
grestore
gsave
576 432 0 0 clipbox
230.463 219.129 p0_0
gsave
fill
grestore
stroke
grestore
gsave
576 432 0 0 clipbox
230.311 228.53 p0_0
gsave
fill
grestore
stroke
grestore
gsave
576 432 0 0 clipbox
230.159 237.975 p0_0
gsave
fill
grestore
stroke
grestore
gsave
576 432 0 0 clipbox
243.718 151.722 p0_0
gsave
fill
grestore
stroke
grestore
gsave
576 432 0 0 clipbox
243.598 160.836 p0_0
gsave
fill
grestore
stroke
grestore
gsave
576 432 0 0 clipbox
243.479 169.992 p0_0
gsave
fill
grestore
stroke
grestore
gsave
576 432 0 0 clipbox
243.358 179.19 p0_0
gsave
fill
grestore
stroke
grestore
gsave
576 432 0 0 clipbox
243.237 188.43 p0_0
gsave
fill
grestore
stroke
grestore
gsave
576 432 0 0 clipbox
243.115 197.713 p0_0
gsave
fill
grestore
stroke
grestore
gsave
576 432 0 0 clipbox
242.993 207.04 p0_0
gsave
fill
grestore
stroke
grestore
gsave
576 432 0 0 clipbox
242.87 216.409 p0_0
gsave
fill
grestore
stroke
grestore
gsave
576 432 0 0 clipbox
242.747 225.823 p0_0
gsave
fill
grestore
stroke
grestore
gsave
576 432 0 0 clipbox
242.623 235.28 p0_0
gsave
fill
grestore
stroke
grestore
gsave
576 432 0 0 clipbox
255.977 148.906 p0_0
gsave
fill
grestore
stroke
grestore
gsave
576 432 0 0 clipbox
255.885 158.032 p0_0
gsave
fill
grestore
stroke
grestore
gsave
576 432 0 0 clipbox
255.794 167.199 p0_0
gsave
fill
grestore
stroke
grestore
gsave
576 432 0 0 clipbox
255.701 176.409 p0_0
gsave
fill
grestore
stroke
grestore
gsave
576 432 0 0 clipbox
255.609 185.662 p0_0
gsave
fill
grestore
stroke
grestore
gsave
576 432 0 0 clipbox
255.515 194.957 p0_0
gsave
fill
grestore
stroke
grestore
gsave
576 432 0 0 clipbox
255.422 204.296 p0_0
gsave
fill
grestore
stroke
grestore
gsave
576 432 0 0 clipbox
255.328 213.678 p0_0
gsave
fill
grestore
stroke
grestore
gsave
576 432 0 0 clipbox
255.233 223.104 p0_0
gsave
fill
grestore
stroke
grestore
gsave
576 432 0 0 clipbox
255.138 232.574 p0_0
gsave
fill
grestore
stroke
grestore
gsave
576 432 0 0 clipbox
268.285 146.079 p0_0
gsave
fill
grestore
stroke
grestore
gsave
576 432 0 0 clipbox
268.222 155.216 p0_0
gsave
fill
grestore
stroke
grestore
gsave
576 432 0 0 clipbox
268.158 164.396 p0_0
gsave
fill
grestore
stroke
grestore
gsave
576 432 0 0 clipbox
268.094 173.618 p0_0
gsave
fill
grestore
stroke
grestore
gsave
576 432 0 0 clipbox
268.03 182.882 p0_0
gsave
fill
grestore
stroke
grestore
gsave
576 432 0 0 clipbox
267.965 192.19 p0_0
gsave
fill
grestore
stroke
grestore
gsave
576 432 0 0 clipbox
267.901 201.541 p0_0
gsave
fill
grestore
stroke
grestore
gsave
576 432 0 0 clipbox
267.835 210.936 p0_0
gsave
fill
grestore
stroke
grestore
gsave
576 432 0 0 clipbox
267.77 220.375 p0_0
gsave
fill
grestore
stroke
grestore
gsave
576 432 0 0 clipbox
267.704 229.858 p0_0
gsave
fill
grestore
stroke
grestore
gsave
576 432 0 0 clipbox
280.642 143.241 p0_0
gsave
fill
grestore
stroke
grestore
gsave
576 432 0 0 clipbox
280.607 152.39 p0_0
gsave
fill
grestore
stroke
grestore
gsave
576 432 0 0 clipbox
280.572 161.581 p0_0
gsave
fill
grestore
stroke
grestore
gsave
576 432 0 0 clipbox
280.537 170.815 p0_0
gsave
fill
grestore
stroke
grestore
gsave
576 432 0 0 clipbox
280.501 180.092 p0_0
gsave
fill
grestore
stroke
grestore
gsave
576 432 0 0 clipbox
280.465 189.412 p0_0
gsave
fill
grestore
stroke
grestore
gsave
576 432 0 0 clipbox
280.43 198.775 p0_0
gsave
fill
grestore
stroke
grestore
gsave
576 432 0 0 clipbox
280.394 208.183 p0_0
gsave
fill
grestore
stroke
grestore
gsave
576 432 0 0 clipbox
280.358 217.634 p0_0
gsave
fill
grestore
stroke
grestore
gsave
576 432 0 0 clipbox
280.321 227.13 p0_0
gsave
fill
grestore
stroke
grestore
gsave
576 432 0 0 clipbox
293.048 140.391 p0_0
gsave
fill
grestore
stroke
grestore
gsave
576 432 0 0 clipbox
293.042 149.552 p0_0
gsave
fill
grestore
stroke
grestore
gsave
576 432 0 0 clipbox
293.035 158.755 p0_0
gsave
fill
grestore
stroke
grestore
gsave
576 432 0 0 clipbox
293.029 168.001 p0_0
gsave
fill
grestore
stroke
grestore
gsave
576 432 0 0 clipbox
293.023 177.29 p0_0
gsave
fill
grestore
stroke
grestore
gsave
576 432 0 0 clipbox
293.016 186.622 p0_0
gsave
fill
grestore
stroke
grestore
gsave
576 432 0 0 clipbox
293.01 195.998 p0_0
gsave
fill
grestore
stroke
grestore
gsave
576 432 0 0 clipbox
293.003 205.418 p0_0
gsave
fill
grestore
stroke
grestore
gsave
576 432 0 0 clipbox
292.997 214.882 p0_0
gsave
fill
grestore
stroke
grestore
gsave
576 432 0 0 clipbox
292.99 224.391 p0_0
gsave
fill
grestore
stroke
grestore
gsave
576 432 0 0 clipbox
305.504 137.53 p0_0
gsave
fill
grestore
stroke
grestore
gsave
576 432 0 0 clipbox
305.527 146.703 p0_0
gsave
fill
grestore
stroke
grestore
gsave
576 432 0 0 clipbox
305.549 155.918 p0_0
gsave
fill
grestore
stroke
grestore
gsave
576 432 0 0 clipbox
305.572 165.176 p0_0
gsave
fill
grestore
stroke
grestore
gsave
576 432 0 0 clipbox
305.595 174.477 p0_0
gsave
fill
grestore
stroke
grestore
gsave
576 432 0 0 clipbox
305.618 183.822 p0_0
gsave
fill
grestore
stroke
grestore
gsave
576 432 0 0 clipbox
305.641 193.21 p0_0
gsave
fill
grestore
stroke
grestore
gsave
576 432 0 0 clipbox
305.664 202.642 p0_0
gsave
fill
grestore
stroke
grestore
gsave
576 432 0 0 clipbox
305.687 212.119 p0_0
gsave
fill
grestore
stroke
grestore
gsave
576 432 0 0 clipbox
305.71 221.641 p0_0
gsave
fill
grestore
stroke
grestore
gsave
576 432 0 0 clipbox
203.901 169.075 p0_0
gsave
fill
grestore
stroke
grestore
gsave
576 432 0 0 clipbox
203.675 178.906 p0_0
gsave
fill
grestore
stroke
grestore
gsave
576 432 0 0 clipbox
203.447 188.784 p0_0
gsave
fill
grestore
stroke
grestore
gsave
576 432 0 0 clipbox
203.219 198.712 p0_0
gsave
fill
grestore
stroke
grestore
gsave
576 432 0 0 clipbox
202.989 208.689 p0_0
gsave
fill
grestore
stroke
grestore
gsave
576 432 0 0 clipbox
202.759 218.716 p0_0
gsave
fill
grestore
stroke
grestore
gsave
576 432 0 0 clipbox
202.527 228.793 p0_0
gsave
fill
grestore
stroke
grestore
gsave
576 432 0 0 clipbox
202.293 238.92 p0_0
gsave
fill
grestore
stroke
grestore
gsave
576 432 0 0 clipbox
202.059 249.098 p0_0
gsave
fill
grestore
stroke
grestore
gsave
576 432 0 0 clipbox
201.824 259.327 p0_0
gsave
fill
grestore
stroke
grestore
gsave
576 432 0 0 clipbox
216.981 166.088 p0_0
gsave
fill
grestore
stroke
grestore
gsave
576 432 0 0 clipbox
216.787 175.932 p0_0
gsave
fill
grestore
stroke
grestore
gsave
576 432 0 0 clipbox
216.591 185.825 p0_0
gsave
fill
grestore
stroke
grestore
gsave
576 432 0 0 clipbox
216.395 195.767 p0_0
gsave
fill
grestore
stroke
grestore
gsave
576 432 0 0 clipbox
216.198 205.758 p0_0
gsave
fill
grestore
stroke
grestore
gsave
576 432 0 0 clipbox
215.999 215.799 p0_0
gsave
fill
grestore
stroke
grestore
gsave
576 432 0 0 clipbox
215.8 225.89 p0_0
gsave
fill
grestore
stroke
grestore
gsave
576 432 0 0 clipbox
215.599 236.032 p0_0
gsave
fill
grestore
stroke
grestore
gsave
576 432 0 0 clipbox
215.398 246.225 p0_0
gsave
fill
grestore
stroke
grestore
gsave
576 432 0 0 clipbox
215.196 256.469 p0_0
gsave
fill
grestore
stroke
grestore
gsave
576 432 0 0 clipbox
230.117 163.089 p0_0
gsave
fill
grestore
stroke
grestore
gsave
576 432 0 0 clipbox
229.955 172.946 p0_0
gsave
fill
grestore
stroke
grestore
gsave
576 432 0 0 clipbox
229.792 182.853 p0_0
gsave
fill
grestore
stroke
grestore
gsave
576 432 0 0 clipbox
229.628 192.809 p0_0
gsave
fill
grestore
stroke
grestore
gsave
576 432 0 0 clipbox
229.463 202.814 p0_0
gsave
fill
grestore
stroke
grestore
gsave
576 432 0 0 clipbox
229.297 212.87 p0_0
gsave
fill
grestore
stroke
grestore
gsave
576 432 0 0 clipbox
229.131 222.975 p0_0
gsave
fill
grestore
stroke
grestore
gsave
576 432 0 0 clipbox
228.963 233.132 p0_0
gsave
fill
grestore
stroke
grestore
gsave
576 432 0 0 clipbox
228.795 243.339 p0_0
gsave
fill
grestore
stroke
grestore
gsave
576 432 0 0 clipbox
228.626 253.599 p0_0
gsave
fill
grestore
stroke
grestore
gsave
576 432 0 0 clipbox
243.31 160.076 p0_0
gsave
fill
grestore
stroke
grestore
gsave
576 432 0 0 clipbox
243.18 169.948 p0_0
gsave
fill
grestore
stroke
grestore
gsave
576 432 0 0 clipbox
243.049 179.868 p0_0
gsave
fill
grestore
stroke
grestore
gsave
576 432 0 0 clipbox
242.917 189.838 p0_0
gsave
fill
grestore
stroke
grestore
gsave
576 432 0 0 clipbox
242.785 199.858 p0_0
gsave
fill
grestore
stroke
grestore
gsave
576 432 0 0 clipbox
242.653 209.927 p0_0
gsave
fill
grestore
stroke
grestore
gsave
576 432 0 0 clipbox
242.519 220.048 p0_0
gsave
fill
grestore
stroke
grestore
gsave
576 432 0 0 clipbox
242.385 230.219 p0_0
gsave
fill
grestore
stroke
grestore
gsave
576 432 0 0 clipbox
242.251 240.442 p0_0
gsave
fill
grestore
stroke
grestore
gsave
576 432 0 0 clipbox
242.115 250.716 p0_0
gsave
fill
grestore
stroke
grestore
gsave
576 432 0 0 clipbox
256.558 157.051 p0_0
gsave
fill
grestore
stroke
grestore
gsave
576 432 0 0 clipbox
256.461 166.936 p0_0
gsave
fill
grestore
stroke
grestore
gsave
576 432 0 0 clipbox
256.363 176.87 p0_0
gsave
fill
grestore
stroke
grestore
gsave
576 432 0 0 clipbox
256.265 186.854 p0_0
gsave
fill
grestore
stroke
grestore
gsave
576 432 0 0 clipbox
256.166 196.888 p0_0
gsave
fill
grestore
stroke
grestore
gsave
576 432 0 0 clipbox
256.066 206.972 p0_0
gsave
fill
grestore
stroke
grestore
gsave
576 432 0 0 clipbox
255.967 217.107 p0_0
gsave
fill
grestore
stroke
grestore
gsave
576 432 0 0 clipbox
255.866 227.293 p0_0
gsave
fill
grestore
stroke
grestore
gsave
576 432 0 0 clipbox
255.765 237.531 p0_0
gsave
fill
grestore
stroke
grestore
gsave
576 432 0 0 clipbox
255.664 247.82 p0_0
gsave
fill
grestore
stroke
grestore
gsave
576 432 0 0 clipbox
269.864 154.013 p0_0
gsave
fill
grestore
stroke
grestore
gsave
576 432 0 0 clipbox
269.8 163.911 p0_0
gsave
fill
grestore
stroke
grestore
gsave
576 432 0 0 clipbox
269.735 173.86 p0_0
gsave
fill
grestore
stroke
grestore
gsave
576 432 0 0 clipbox
269.67 183.858 p0_0
gsave
fill
grestore
stroke
grestore
gsave
576 432 0 0 clipbox
269.604 193.906 p0_0
gsave
fill
grestore
stroke
grestore
gsave
576 432 0 0 clipbox
269.539 204.004 p0_0
gsave
fill
grestore
stroke
grestore
gsave
576 432 0 0 clipbox
269.472 214.154 p0_0
gsave
fill
grestore
stroke
grestore
gsave
576 432 0 0 clipbox
269.406 224.355 p0_0
gsave
fill
grestore
stroke
grestore
gsave
576 432 0 0 clipbox
269.339 234.608 p0_0
gsave
fill
grestore
stroke
grestore
gsave
576 432 0 0 clipbox
269.272 244.912 p0_0
gsave
fill
grestore
stroke
grestore
gsave
576 432 0 0 clipbox
283.228 150.961 p0_0
gsave
fill
grestore
stroke
grestore
gsave
576 432 0 0 clipbox
283.196 160.874 p0_0
gsave
fill
grestore
stroke
grestore
gsave
576 432 0 0 clipbox
283.165 170.836 p0_0
gsave
fill
grestore
stroke
grestore
gsave
576 432 0 0 clipbox
283.133 180.848 p0_0
gsave
fill
grestore
stroke
grestore
gsave
576 432 0 0 clipbox
283.101 190.91 p0_0
gsave
fill
grestore
stroke
grestore
gsave
576 432 0 0 clipbox
283.069 201.024 p0_0
gsave
fill
grestore
stroke
grestore
gsave
576 432 0 0 clipbox
283.037 211.188 p0_0
gsave
fill
grestore
stroke
grestore
gsave
576 432 0 0 clipbox
283.005 221.404 p0_0
gsave
fill
grestore
stroke
grestore
gsave
576 432 0 0 clipbox
282.973 231.671 p0_0
gsave
fill
grestore
stroke
grestore
gsave
576 432 0 0 clipbox
282.94 241.991 p0_0
gsave
fill
grestore
stroke
grestore
gsave
576 432 0 0 clipbox
296.649 147.896 p0_0
gsave
fill
grestore
stroke
grestore
gsave
576 432 0 0 clipbox
296.651 157.823 p0_0
gsave
fill
grestore
stroke
grestore
gsave
576 432 0 0 clipbox
296.653 167.799 p0_0
gsave
fill
grestore
stroke
grestore
gsave
576 432 0 0 clipbox
296.655 177.825 p0_0
gsave
fill
grestore
stroke
grestore
gsave
576 432 0 0 clipbox
296.657 187.902 p0_0
gsave
fill
grestore
stroke
grestore
gsave
576 432 0 0 clipbox
296.659 198.03 p0_0
gsave
fill
grestore
stroke
grestore
gsave
576 432 0 0 clipbox
296.662 208.209 p0_0
gsave
fill
grestore
stroke
grestore
gsave
576 432 0 0 clipbox
296.664 218.439 p0_0
gsave
fill
grestore
stroke
grestore
gsave
576 432 0 0 clipbox
296.666 228.722 p0_0
gsave
fill
grestore
stroke
grestore
gsave
576 432 0 0 clipbox
296.668 239.057 p0_0
gsave
fill
grestore
stroke
grestore
gsave
576 432 0 0 clipbox
310.128 144.818 p0_0
gsave
fill
grestore
stroke
grestore
gsave
576 432 0 0 clipbox
310.164 154.759 p0_0
gsave
fill
grestore
stroke
grestore
gsave
576 432 0 0 clipbox
310.2 164.749 p0_0
gsave
fill
grestore
stroke
grestore
gsave
576 432 0 0 clipbox
310.236 174.789 p0_0
gsave
fill
grestore
stroke
grestore
gsave
576 432 0 0 clipbox
310.272 184.881 p0_0
gsave
fill
grestore
stroke
grestore
gsave
576 432 0 0 clipbox
310.309 195.023 p0_0
gsave
fill
grestore
stroke
grestore
gsave
576 432 0 0 clipbox
310.346 205.216 p0_0
gsave
fill
grestore
stroke
grestore
gsave
576 432 0 0 clipbox
310.383 215.462 p0_0
gsave
fill
grestore
stroke
grestore
gsave
576 432 0 0 clipbox
310.42 225.76 p0_0
gsave
fill
grestore
stroke
grestore
gsave
576 432 0 0 clipbox
310.458 236.11 p0_0
gsave
fill
grestore
stroke
grestore
gsave
576 432 0 0 clipbox
323.665 141.727 p0_0
gsave
fill
grestore
stroke
grestore
gsave
576 432 0 0 clipbox
323.735 151.681 p0_0
gsave
fill
grestore
stroke
grestore
gsave
576 432 0 0 clipbox
323.805 161.685 p0_0
gsave
fill
grestore
stroke
grestore
gsave
576 432 0 0 clipbox
323.876 171.74 p0_0
gsave
fill
grestore
stroke
grestore
gsave
576 432 0 0 clipbox
323.947 181.846 p0_0
gsave
fill
grestore
stroke
grestore
gsave
576 432 0 0 clipbox
324.019 192.003 p0_0
gsave
fill
grestore
stroke
grestore
gsave
576 432 0 0 clipbox
324.09 202.211 p0_0
gsave
fill
grestore
stroke
grestore
gsave
576 432 0 0 clipbox
324.163 212.472 p0_0
gsave
fill
grestore
stroke
grestore
gsave
576 432 0 0 clipbox
324.235 222.785 p0_0
gsave
fill
grestore
stroke
grestore
gsave
576 432 0 0 clipbox
324.308 233.15 p0_0
gsave
fill
grestore
stroke
grestore
gsave
576 432 0 0 clipbox
213.611 175.895 p0_0
gsave
fill
grestore
stroke
grestore
gsave
576 432 0 0 clipbox
213.393 186.476 p0_0
gsave
fill
grestore
stroke
grestore
gsave
576 432 0 0 clipbox
213.175 197.112 p0_0
gsave
fill
grestore
stroke
grestore
gsave
576 432 0 0 clipbox
212.955 207.805 p0_0
gsave
fill
grestore
stroke
grestore
gsave
576 432 0 0 clipbox
212.734 218.555 p0_0
gsave
fill
grestore
stroke
grestore
gsave
576 432 0 0 clipbox
212.512 229.362 p0_0
gsave
fill
grestore
stroke
grestore
gsave
576 432 0 0 clipbox
212.289 240.228 p0_0
gsave
fill
grestore
stroke
grestore
gsave
576 432 0 0 clipbox
212.064 251.152 p0_0
gsave
fill
grestore
stroke
grestore
gsave
576 432 0 0 clipbox
211.838 262.135 p0_0
gsave
fill
grestore
stroke
grestore
gsave
576 432 0 0 clipbox
211.611 273.177 p0_0
gsave
fill
grestore
stroke
grestore
gsave
576 432 0 0 clipbox
227.686 172.702 p0_0
gsave
fill
grestore
stroke
grestore
gsave
576 432 0 0 clipbox
227.506 183.298 p0_0
gsave
fill
grestore
stroke
grestore
gsave
576 432 0 0 clipbox
227.324 193.95 p0_0
gsave
fill
grestore
stroke
grestore
gsave
576 432 0 0 clipbox
227.142 204.66 p0_0
gsave
fill
grestore
stroke
grestore
gsave
576 432 0 0 clipbox
226.958 215.426 p0_0
gsave
fill
grestore
stroke
grestore
gsave
576 432 0 0 clipbox
226.774 226.25 p0_0
gsave
fill
grestore
stroke
grestore
gsave
576 432 0 0 clipbox
226.588 237.133 p0_0
gsave
fill
grestore
stroke
grestore
gsave
576 432 0 0 clipbox
226.402 248.074 p0_0
gsave
fill
grestore
stroke
grestore
gsave
576 432 0 0 clipbox
226.214 259.074 p0_0
gsave
fill
grestore
stroke
grestore
gsave
576 432 0 0 clipbox
226.026 270.134 p0_0
gsave
fill
grestore
stroke
grestore
gsave
576 432 0 0 clipbox
241.827 169.494 p0_0
gsave
fill
grestore
stroke
grestore
gsave
576 432 0 0 clipbox
241.683 180.106 p0_0
gsave
fill
grestore
stroke
grestore
gsave
576 432 0 0 clipbox
241.539 190.774 p0_0
gsave
fill
grestore
stroke
grestore
gsave
576 432 0 0 clipbox
241.394 201.5 p0_0
gsave
fill
grestore
stroke
grestore
gsave
576 432 0 0 clipbox
241.249 212.283 p0_0
gsave
fill
grestore
stroke
grestore
gsave
576 432 0 0 clipbox
241.102 223.124 p0_0
gsave
fill
grestore
stroke
grestore
gsave
576 432 0 0 clipbox
240.955 234.023 p0_0
gsave
fill
grestore
stroke
grestore
gsave
576 432 0 0 clipbox
240.807 244.981 p0_0
gsave
fill
grestore
stroke
grestore
gsave
576 432 0 0 clipbox
240.658 255.999 p0_0
gsave
fill
grestore
stroke
grestore
gsave
576 432 0 0 clipbox
240.508 267.076 p0_0
gsave
fill
grestore
stroke
grestore
gsave
576 432 0 0 clipbox
256.032 166.271 p0_0
gsave
fill
grestore
stroke
grestore
gsave
576 432 0 0 clipbox
255.927 176.899 p0_0
gsave
fill
grestore
stroke
grestore
gsave
576 432 0 0 clipbox
255.82 187.583 p0_0
gsave
fill
grestore
stroke
grestore
gsave
576 432 0 0 clipbox
255.713 198.325 p0_0
gsave
fill
grestore
stroke
grestore
gsave
576 432 0 0 clipbox
255.605 209.125 p0_0
gsave
fill
grestore
stroke
grestore
gsave
576 432 0 0 clipbox
255.497 219.982 p0_0
gsave
fill
grestore
stroke
grestore
gsave
576 432 0 0 clipbox
255.388 230.899 p0_0
gsave
fill
grestore
stroke
grestore
gsave
576 432 0 0 clipbox
255.279 241.874 p0_0
gsave
fill
grestore
stroke
grestore
gsave
576 432 0 0 clipbox
255.169 252.909 p0_0
gsave
fill
grestore
stroke
grestore
gsave
576 432 0 0 clipbox
255.058 264.004 p0_0
gsave
fill
grestore
stroke
grestore
gsave
576 432 0 0 clipbox
270.303 163.033 p0_0
gsave
fill
grestore
stroke
grestore
gsave
576 432 0 0 clipbox
270.235 173.677 p0_0
gsave
fill
grestore
stroke
grestore
gsave
576 432 0 0 clipbox
270.167 184.377 p0_0
gsave
fill
grestore
stroke
grestore
gsave
576 432 0 0 clipbox
270.098 195.136 p0_0
gsave
fill
grestore
stroke
grestore
gsave
576 432 0 0 clipbox
270.029 205.952 p0_0
gsave
fill
grestore
stroke
grestore
gsave
576 432 0 0 clipbox
269.96 216.826 p0_0
gsave
fill
grestore
stroke
grestore
gsave
576 432 0 0 clipbox
269.89 227.76 p0_0
gsave
fill
grestore
stroke
grestore
gsave
576 432 0 0 clipbox
269.819 238.753 p0_0
gsave
fill
grestore
stroke
grestore
gsave
576 432 0 0 clipbox
269.749 249.805 p0_0
gsave
fill
grestore
stroke
grestore
gsave
576 432 0 0 clipbox
269.678 260.918 p0_0
gsave
fill
grestore
stroke
grestore
gsave
576 432 0 0 clipbox
284.641 159.78 p0_0
gsave
fill
grestore
stroke
grestore
gsave
576 432 0 0 clipbox
284.611 170.44 p0_0
gsave
fill
grestore
stroke
grestore
gsave
576 432 0 0 clipbox
284.581 181.157 p0_0
gsave
fill
grestore
stroke
grestore
gsave
576 432 0 0 clipbox
284.551 191.932 p0_0
gsave
fill
grestore
stroke
grestore
gsave
576 432 0 0 clipbox
284.52 202.764 p0_0
gsave
fill
grestore
stroke
grestore
gsave
576 432 0 0 clipbox
284.49 213.656 p0_0
gsave
fill
grestore
stroke
grestore
gsave
576 432 0 0 clipbox
284.459 224.606 p0_0
gsave
fill
grestore
stroke
grestore
gsave
576 432 0 0 clipbox
284.428 235.616 p0_0
gsave
fill
grestore
stroke
grestore
gsave
576 432 0 0 clipbox
284.397 246.686 p0_0
gsave
fill
grestore
stroke
grestore
gsave
576 432 0 0 clipbox
284.366 257.817 p0_0
gsave
fill
grestore
stroke
grestore
gsave
576 432 0 0 clipbox
299.044 156.512 p0_0
gsave
fill
grestore
stroke
grestore
gsave
576 432 0 0 clipbox
299.053 167.188 p0_0
gsave
fill
grestore
stroke
grestore
gsave
576 432 0 0 clipbox
299.062 177.921 p0_0
gsave
fill
grestore
stroke
grestore
gsave
576 432 0 0 clipbox
299.07 188.712 p0_0
gsave
fill
grestore
stroke
grestore
gsave
576 432 0 0 clipbox
299.079 199.562 p0_0
gsave
fill
grestore
stroke
grestore
gsave
576 432 0 0 clipbox
299.088 210.47 p0_0
gsave
fill
grestore
stroke
grestore
gsave
576 432 0 0 clipbox
299.097 221.438 p0_0
gsave
fill
grestore
stroke
grestore
gsave
576 432 0 0 clipbox
299.106 232.465 p0_0
gsave
fill
grestore
stroke
grestore
gsave
576 432 0 0 clipbox
299.115 243.553 p0_0
gsave
fill
grestore
stroke
grestore
gsave
576 432 0 0 clipbox
299.124 254.701 p0_0
gsave
fill
grestore
stroke
grestore
gsave
576 432 0 0 clipbox
313.514 153.229 p0_0
gsave
fill
grestore
stroke
grestore
gsave
576 432 0 0 clipbox
313.562 163.921 p0_0
gsave
fill
grestore
stroke
grestore
gsave
576 432 0 0 clipbox
313.61 174.671 p0_0
gsave
fill
grestore
stroke
grestore
gsave
576 432 0 0 clipbox
313.658 185.478 p0_0
gsave
fill
grestore
stroke
grestore
gsave
576 432 0 0 clipbox
313.707 196.344 p0_0
gsave
fill
grestore
stroke
grestore
gsave
576 432 0 0 clipbox
313.755 207.269 p0_0
gsave
fill
grestore
stroke
grestore
gsave
576 432 0 0 clipbox
313.804 218.254 p0_0
gsave
fill
grestore
stroke
grestore
gsave
576 432 0 0 clipbox
313.854 229.299 p0_0
gsave
fill
grestore
stroke
grestore
gsave
576 432 0 0 clipbox
313.903 240.405 p0_0
gsave
fill
grestore
stroke
grestore
gsave
576 432 0 0 clipbox
313.953 251.571 p0_0
gsave
fill
grestore
stroke
grestore
gsave
576 432 0 0 clipbox
328.052 149.931 p0_0
gsave
fill
grestore
stroke
grestore
gsave
576 432 0 0 clipbox
328.139 160.639 p0_0
gsave
fill
grestore
stroke
grestore
gsave
576 432 0 0 clipbox
328.227 171.405 p0_0
gsave
fill
grestore
stroke
grestore
gsave
576 432 0 0 clipbox
328.314 182.229 p0_0
gsave
fill
grestore
stroke
grestore
gsave
576 432 0 0 clipbox
328.403 193.112 p0_0
gsave
fill
grestore
stroke
grestore
gsave
576 432 0 0 clipbox
328.492 204.054 p0_0
gsave
fill
grestore
stroke
grestore
gsave
576 432 0 0 clipbox
328.581 215.056 p0_0
gsave
fill
grestore
stroke
grestore
gsave
576 432 0 0 clipbox
328.671 226.118 p0_0
gsave
fill
grestore
stroke
grestore
gsave
576 432 0 0 clipbox
328.761 237.241 p0_0
gsave
fill
grestore
stroke
grestore
gsave
576 432 0 0 clipbox
328.852 248.425 p0_0
gsave
fill
grestore
stroke
grestore
gsave
576 432 0 0 clipbox
342.658 146.617 p0_0
gsave
fill
grestore
stroke
grestore
gsave
576 432 0 0 clipbox
342.784 157.341 p0_0
gsave
fill
grestore
stroke
grestore
gsave
576 432 0 0 clipbox
342.912 168.123 p0_0
gsave
fill
grestore
stroke
grestore
gsave
576 432 0 0 clipbox
343.04 178.964 p0_0
gsave
fill
grestore
stroke
grestore
gsave
576 432 0 0 clipbox
343.168 189.864 p0_0
gsave
fill
grestore
stroke
grestore
gsave
576 432 0 0 clipbox
343.298 200.823 p0_0
gsave
fill
grestore
stroke
grestore
gsave
576 432 0 0 clipbox
343.428 211.842 p0_0
gsave
fill
grestore
stroke
grestore
gsave
576 432 0 0 clipbox
343.559 222.922 p0_0
gsave
fill
grestore
stroke
grestore
gsave
576 432 0 0 clipbox
343.69 234.063 p0_0
gsave
fill
grestore
stroke
grestore
gsave
576 432 0 0 clipbox
343.823 245.265 p0_0
gsave
fill
grestore
stroke
grestore
gsave
576 432 0 0 clipbox
224.253 183.309 p0_0
gsave
fill
grestore
stroke
grestore
gsave
576 432 0 0 clipbox
224.051 194.625 p0_0
gsave
fill
grestore
stroke
grestore
gsave
576 432 0 0 clipbox
223.848 206.006 p0_0
gsave
fill
grestore
stroke
grestore
gsave
576 432 0 0 clipbox
223.643 217.451 p0_0
gsave
fill
grestore
stroke
grestore
gsave
576 432 0 0 clipbox
223.438 228.962 p0_0
gsave
fill
grestore
stroke
grestore
gsave
576 432 0 0 clipbox
223.231 240.538 p0_0
gsave
fill
grestore
stroke
grestore
gsave
576 432 0 0 clipbox
223.023 252.181 p0_0
gsave
fill
grestore
stroke
grestore
gsave
576 432 0 0 clipbox
222.814 263.89 p0_0
gsave
fill
grestore
stroke
grestore
gsave
576 432 0 0 clipbox
222.604 275.668 p0_0
gsave
fill
grestore
stroke
grestore
gsave
576 432 0 0 clipbox
222.392 287.513 p0_0
gsave
fill
grestore
stroke
grestore
gsave
576 432 0 0 clipbox
239.306 179.917 p0_0
gsave
fill
grestore
stroke
grestore
gsave
576 432 0 0 clipbox
239.146 191.252 p0_0
gsave
fill
grestore
stroke
grestore
gsave
576 432 0 0 clipbox
238.985 202.651 p0_0
gsave
fill
grestore
stroke
grestore
gsave
576 432 0 0 clipbox
238.824 214.115 p0_0
gsave
fill
grestore
stroke
grestore
gsave
576 432 0 0 clipbox
238.661 225.645 p0_0
gsave
fill
grestore
stroke
grestore
gsave
576 432 0 0 clipbox
238.497 237.24 p0_0
gsave
fill
grestore
stroke
grestore
gsave
576 432 0 0 clipbox
238.333 248.903 p0_0
gsave
fill
grestore
stroke
grestore
gsave
576 432 0 0 clipbox
238.167 260.632 p0_0
gsave
fill
grestore
stroke
grestore
gsave
576 432 0 0 clipbox
238.001 272.429 p0_0
gsave
fill
grestore
stroke
grestore
gsave
576 432 0 0 clipbox
237.833 284.295 p0_0
gsave
fill
grestore
stroke
grestore
gsave
576 432 0 0 clipbox
254.433 176.51 p0_0
gsave
fill
grestore
stroke
grestore
gsave
576 432 0 0 clipbox
254.316 187.862 p0_0
gsave
fill
grestore
stroke
grestore
gsave
576 432 0 0 clipbox
254.198 199.28 p0_0
gsave
fill
grestore
stroke
grestore
gsave
576 432 0 0 clipbox
254.079 210.763 p0_0
gsave
fill
grestore
stroke
grestore
gsave
576 432 0 0 clipbox
253.96 222.311 p0_0
gsave
fill
grestore
stroke
grestore
gsave
576 432 0 0 clipbox
253.839 233.926 p0_0
gsave
fill
grestore
stroke
grestore
gsave
576 432 0 0 clipbox
253.719 245.608 p0_0
gsave
fill
grestore
stroke
grestore
gsave
576 432 0 0 clipbox
253.597 257.357 p0_0
gsave
fill
grestore
stroke
grestore
gsave
576 432 0 0 clipbox
253.475 269.174 p0_0
gsave
fill
grestore
stroke
grestore
gsave
576 432 0 0 clipbox
253.352 281.06 p0_0
gsave
fill
grestore
stroke
grestore
gsave
576 432 0 0 clipbox
269.634 173.085 p0_0
gsave
fill
grestore
stroke
grestore
gsave
576 432 0 0 clipbox
269.56 184.456 p0_0
gsave
fill
grestore
stroke
grestore
gsave
576 432 0 0 clipbox
269.485 195.892 p0_0
gsave
fill
grestore
stroke
grestore
gsave
576 432 0 0 clipbox
269.41 207.394 p0_0
gsave
fill
grestore
stroke
grestore
gsave
576 432 0 0 clipbox
269.334 218.961 p0_0
gsave
fill
grestore
stroke
grestore
gsave
576 432 0 0 clipbox
269.258 230.595 p0_0
gsave
fill
grestore
stroke
grestore
gsave
576 432 0 0 clipbox
269.182 242.297 p0_0
gsave
fill
grestore
stroke
grestore
gsave
576 432 0 0 clipbox
269.104 254.066 p0_0
gsave
fill
grestore
stroke
grestore
gsave
576 432 0 0 clipbox
269.027 265.903 p0_0
gsave
fill
grestore
stroke
grestore
gsave
576 432 0 0 clipbox
268.949 277.81 p0_0
gsave
fill
grestore
stroke
grestore
gsave
576 432 0 0 clipbox
284.911 169.643 p0_0
gsave
fill
grestore
stroke
grestore
gsave
576 432 0 0 clipbox
284.88 181.033 p0_0
gsave
fill
grestore
stroke
grestore
gsave
576 432 0 0 clipbox
284.848 192.488 p0_0
gsave
fill
grestore
stroke
grestore
gsave
576 432 0 0 clipbox
284.817 204.008 p0_0
gsave
fill
grestore
stroke
grestore
gsave
576 432 0 0 clipbox
284.786 215.594 p0_0
gsave
fill
grestore
stroke
grestore
gsave
576 432 0 0 clipbox
284.754 227.248 p0_0
gsave
fill
grestore
stroke
grestore
gsave
576 432 0 0 clipbox
284.722 238.969 p0_0
gsave
fill
grestore
stroke
grestore
gsave
576 432 0 0 clipbox
284.69 250.758 p0_0
gsave
fill
grestore
stroke
grestore
gsave
576 432 0 0 clipbox
284.658 262.616 p0_0
gsave
fill
grestore
stroke
grestore
gsave
576 432 0 0 clipbox
284.625 274.542 p0_0
gsave
fill
grestore
stroke
grestore
gsave
576 432 0 0 clipbox
300.262 166.185 p0_0
gsave
fill
grestore
stroke
grestore
gsave
576 432 0 0 clipbox
300.275 177.593 p0_0
gsave
fill
grestore
stroke
grestore
gsave
576 432 0 0 clipbox
300.288 189.066 p0_0
gsave
fill
grestore
stroke
grestore
gsave
576 432 0 0 clipbox
300.301 200.605 p0_0
gsave
fill
grestore
stroke
grestore
gsave
576 432 0 0 clipbox
300.314 212.211 p0_0
gsave
fill
grestore
stroke
grestore
gsave
576 432 0 0 clipbox
300.327 223.884 p0_0
gsave
fill
grestore
stroke
grestore
gsave
576 432 0 0 clipbox
300.34 235.624 p0_0
gsave
fill
grestore
stroke
grestore
gsave
576 432 0 0 clipbox
300.354 247.433 p0_0
gsave
fill
grestore
stroke
grestore
gsave
576 432 0 0 clipbox
300.367 259.311 p0_0
gsave
fill
grestore
stroke
grestore
gsave
576 432 0 0 clipbox
300.38 271.259 p0_0
gsave
fill
grestore
stroke
grestore
gsave
576 432 0 0 clipbox
315.69 162.709 p0_0
gsave
fill
grestore
stroke
grestore
gsave
576 432 0 0 clipbox
315.747 174.136 p0_0
gsave
fill
grestore
stroke
grestore
gsave
576 432 0 0 clipbox
315.805 185.627 p0_0
gsave
fill
grestore
stroke
grestore
gsave
576 432 0 0 clipbox
315.862 197.185 p0_0
gsave
fill
grestore
stroke
grestore
gsave
576 432 0 0 clipbox
315.92 208.81 p0_0
gsave
fill
grestore
stroke
grestore
gsave
576 432 0 0 clipbox
315.979 220.503 p0_0
gsave
fill
grestore
stroke
grestore
gsave
576 432 0 0 clipbox
316.038 232.263 p0_0
gsave
fill
grestore
stroke
grestore
gsave
576 432 0 0 clipbox
316.097 244.092 p0_0
gsave
fill
grestore
stroke
grestore
gsave
576 432 0 0 clipbox
316.156 255.99 p0_0
gsave
fill
grestore
stroke
grestore
gsave
576 432 0 0 clipbox
316.216 267.958 p0_0
gsave
fill
grestore
stroke
grestore
gsave
576 432 0 0 clipbox
331.194 159.217 p0_0
gsave
fill
grestore
stroke
grestore
gsave
576 432 0 0 clipbox
331.296 170.661 p0_0
gsave
fill
grestore
stroke
grestore
gsave
576 432 0 0 clipbox
331.399 182.172 p0_0
gsave
fill
grestore
stroke
grestore
gsave
576 432 0 0 clipbox
331.502 193.749 p0_0
gsave
fill
grestore
stroke
grestore
gsave
576 432 0 0 clipbox
331.605 205.393 p0_0
gsave
fill
grestore
stroke
grestore
gsave
576 432 0 0 clipbox
331.709 217.105 p0_0
gsave
fill
grestore
stroke
grestore
gsave
576 432 0 0 clipbox
331.814 228.885 p0_0
gsave
fill
grestore
stroke
grestore
gsave
576 432 0 0 clipbox
331.919 240.734 p0_0
gsave
fill
grestore
stroke
grestore
gsave
576 432 0 0 clipbox
332.025 252.653 p0_0
gsave
fill
grestore
stroke
grestore
gsave
576 432 0 0 clipbox
332.132 264.641 p0_0
gsave
fill
grestore
stroke
grestore
gsave
576 432 0 0 clipbox
346.776 155.706 p0_0
gsave
fill
grestore
stroke
grestore
gsave
576 432 0 0 clipbox
346.923 167.169 p0_0
gsave
fill
grestore
stroke
grestore
gsave
576 432 0 0 clipbox
347.071 178.699 p0_0
gsave
fill
grestore
stroke
grestore
gsave
576 432 0 0 clipbox
347.219 190.295 p0_0
gsave
fill
grestore
stroke
grestore
gsave
576 432 0 0 clipbox
347.369 201.958 p0_0
gsave
fill
grestore
stroke
grestore
gsave
576 432 0 0 clipbox
347.519 213.689 p0_0
gsave
fill
grestore
stroke
grestore
gsave
576 432 0 0 clipbox
347.67 225.489 p0_0
gsave
fill
grestore
stroke
grestore
gsave
576 432 0 0 clipbox
347.822 237.359 p0_0
gsave
fill
grestore
stroke
grestore
gsave
576 432 0 0 clipbox
347.976 249.298 p0_0
gsave
fill
grestore
stroke
grestore
gsave
576 432 0 0 clipbox
348.129 261.307 p0_0
gsave
fill
grestore
stroke
grestore
gsave
576 432 0 0 clipbox
362.435 152.179 p0_0
gsave
fill
grestore
stroke
grestore
gsave
576 432 0 0 clipbox
362.628 163.66 p0_0
gsave
fill
grestore
stroke
grestore
gsave
576 432 0 0 clipbox
362.821 175.208 p0_0
gsave
fill
grestore
stroke
grestore
gsave
576 432 0 0 clipbox
363.016 186.823 p0_0
gsave
fill
grestore
stroke
grestore
gsave
576 432 0 0 clipbox
363.212 198.506 p0_0
gsave
fill
grestore
stroke
grestore
gsave
576 432 0 0 clipbox
363.409 210.257 p0_0
gsave
fill
grestore
stroke
grestore
gsave
576 432 0 0 clipbox
363.607 222.077 p0_0
gsave
fill
grestore
stroke
grestore
gsave
576 432 0 0 clipbox
363.807 233.966 p0_0
gsave
fill
grestore
stroke
grestore
gsave
576 432 0 0 clipbox
364.007 245.926 p0_0
gsave
fill
grestore
stroke
grestore
gsave
576 432 0 0 clipbox
364.209 257.956 p0_0
gsave
fill
grestore
stroke
grestore
gsave
576 432 0 0 clipbox
235.787 191.288 p0_0
gsave
fill
grestore
stroke
grestore
gsave
576 432 0 0 clipbox
235.607 203.327 p0_0
gsave
fill
grestore
stroke
grestore
gsave
576 432 0 0 clipbox
235.426 215.438 p0_0
gsave
fill
grestore
stroke
grestore
gsave
576 432 0 0 clipbox
235.244 227.623 p0_0
gsave
fill
grestore
stroke
grestore
gsave
576 432 0 0 clipbox
235.061 239.881 p0_0
gsave
fill
grestore
stroke
grestore
gsave
576 432 0 0 clipbox
234.877 252.214 p0_0
gsave
fill
grestore
stroke
grestore
gsave
576 432 0 0 clipbox
234.691 264.621 p0_0
gsave
fill
grestore
stroke
grestore
gsave
576 432 0 0 clipbox
234.504 277.105 p0_0
gsave
fill
grestore
stroke
grestore
gsave
576 432 0 0 clipbox
234.317 289.665 p0_0
gsave
fill
grestore
stroke
grestore
gsave
576 432 0 0 clipbox
234.128 302.302 p0_0
gsave
fill
grestore
stroke
grestore
gsave
576 432 0 0 clipbox
251.799 187.709 p0_0
gsave
fill
grestore
stroke
grestore
gsave
576 432 0 0 clipbox
251.667 199.768 p0_0
gsave
fill
grestore
stroke
grestore
gsave
576 432 0 0 clipbox
251.534 211.9 p0_0
gsave
fill
grestore
stroke
grestore
gsave
576 432 0 0 clipbox
251.4 224.106 p0_0
gsave
fill
grestore
stroke
grestore
gsave
576 432 0 0 clipbox
251.265 236.386 p0_0
gsave
fill
grestore
stroke
grestore
gsave
576 432 0 0 clipbox
251.13 248.74 p0_0
gsave
fill
grestore
stroke
grestore
gsave
576 432 0 0 clipbox
250.993 261.17 p0_0
gsave
fill
grestore
stroke
grestore
gsave
576 432 0 0 clipbox
250.856 273.676 p0_0
gsave
fill
grestore
stroke
grestore
gsave
576 432 0 0 clipbox
250.718 286.259 p0_0
gsave
fill
grestore
stroke
grestore
gsave
576 432 0 0 clipbox
250.579 298.919 p0_0
gsave
fill
grestore
stroke
grestore
gsave
576 432 0 0 clipbox
267.894 184.11 p0_0
gsave
fill
grestore
stroke
grestore
gsave
576 432 0 0 clipbox
267.81 196.19 p0_0
gsave
fill
grestore
stroke
grestore
gsave
576 432 0 0 clipbox
267.725 208.344 p0_0
gsave
fill
grestore
stroke
grestore
gsave
576 432 0 0 clipbox
267.64 220.57 p0_0
gsave
fill
grestore
stroke
grestore
gsave
576 432 0 0 clipbox
267.555 232.872 p0_0
gsave
fill
grestore
stroke
grestore
gsave
576 432 0 0 clipbox
267.468 245.248 p0_0
gsave
fill
grestore
stroke
grestore
gsave
576 432 0 0 clipbox
267.382 257.7 p0_0
gsave
fill
grestore
stroke
grestore
gsave
576 432 0 0 clipbox
267.295 270.229 p0_0
gsave
fill
grestore
stroke
grestore
gsave
576 432 0 0 clipbox
267.207 282.834 p0_0
gsave
fill
grestore
stroke
grestore
gsave
576 432 0 0 clipbox
267.119 295.518 p0_0
gsave
fill
grestore
stroke
grestore
gsave
576 432 0 0 clipbox
284.073 180.493 p0_0
gsave
fill
grestore
stroke
grestore
gsave
576 432 0 0 clipbox
284.038 192.594 p0_0
gsave
fill
grestore
stroke
grestore
gsave
576 432 0 0 clipbox
284.002 204.768 p0_0
gsave
fill
grestore
stroke
grestore
gsave
576 432 0 0 clipbox
283.966 217.016 p0_0
gsave
fill
grestore
stroke
grestore
gsave
576 432 0 0 clipbox
283.93 229.339 p0_0
gsave
fill
grestore
stroke
grestore
gsave
576 432 0 0 clipbox
283.894 241.738 p0_0
gsave
fill
grestore
stroke
grestore
gsave
576 432 0 0 clipbox
283.857 254.212 p0_0
gsave
fill
grestore
stroke
grestore
gsave
576 432 0 0 clipbox
283.821 266.763 p0_0
gsave
fill
grestore
stroke
grestore
gsave
576 432 0 0 clipbox
283.784 279.392 p0_0
gsave
fill
grestore
stroke
grestore
gsave
576 432 0 0 clipbox
283.747 292.099 p0_0
gsave
fill
grestore
stroke
grestore
gsave
576 432 0 0 clipbox
300.337 176.857 p0_0
gsave
fill
grestore
stroke
grestore
gsave
576 432 0 0 clipbox
300.351 188.979 p0_0
gsave
fill
grestore
stroke
grestore
gsave
576 432 0 0 clipbox
300.364 201.174 p0_0
gsave
fill
grestore
stroke
grestore
gsave
576 432 0 0 clipbox
300.378 213.444 p0_0
gsave
fill
grestore
stroke
grestore
gsave
576 432 0 0 clipbox
300.393 225.788 p0_0
gsave
fill
grestore
stroke
grestore
gsave
576 432 0 0 clipbox
300.407 238.209 p0_0
gsave
fill
grestore
stroke
grestore
gsave
576 432 0 0 clipbox
300.421 250.705 p0_0
gsave
fill
grestore
stroke
grestore
gsave
576 432 0 0 clipbox
300.435 263.279 p0_0
gsave
fill
grestore
stroke
grestore
gsave
576 432 0 0 clipbox
300.45 275.931 p0_0
gsave
fill
grestore
stroke
grestore
gsave
576 432 0 0 clipbox
300.464 288.662 p0_0
gsave
fill
grestore
stroke
grestore
gsave
576 432 0 0 clipbox
316.686 173.202 p0_0
gsave
fill
grestore
stroke
grestore
gsave
576 432 0 0 clipbox
316.749 185.344 p0_0
gsave
fill
grestore
stroke
grestore
gsave
576 432 0 0 clipbox
316.813 197.561 p0_0
gsave
fill
grestore
stroke
grestore
gsave
576 432 0 0 clipbox
316.878 209.852 p0_0
gsave
fill
grestore
stroke
grestore
gsave
576 432 0 0 clipbox
316.942 222.218 p0_0
gsave
fill
grestore
stroke
grestore
gsave
576 432 0 0 clipbox
317.007 234.661 p0_0
gsave
fill
grestore
stroke
grestore
gsave
576 432 0 0 clipbox
317.073 247.18 p0_0
gsave
fill
grestore
stroke
grestore
gsave
576 432 0 0 clipbox
317.139 259.777 p0_0
gsave
fill
grestore
stroke
grestore
gsave
576 432 0 0 clipbox
317.205 272.452 p0_0
gsave
fill
grestore
stroke
grestore
gsave
576 432 0 0 clipbox
317.272 285.206 p0_0
gsave
fill
grestore
stroke
grestore
gsave
576 432 0 0 clipbox
333.121 169.528 p0_0
gsave
fill
grestore
stroke
grestore
gsave
576 432 0 0 clipbox
333.235 181.691 p0_0
gsave
fill
grestore
stroke
grestore
gsave
576 432 0 0 clipbox
333.349 193.928 p0_0
gsave
fill
grestore
stroke
grestore
gsave
576 432 0 0 clipbox
333.464 206.241 p0_0
gsave
fill
grestore
stroke
grestore
gsave
576 432 0 0 clipbox
333.58 218.629 p0_0
gsave
fill
grestore
stroke
grestore
gsave
576 432 0 0 clipbox
333.697 231.094 p0_0
gsave
fill
grestore
stroke
grestore
gsave
576 432 0 0 clipbox
333.814 243.636 p0_0
gsave
fill
grestore
stroke
grestore
gsave
576 432 0 0 clipbox
333.932 256.255 p0_0
gsave
fill
grestore
stroke
grestore
gsave
576 432 0 0 clipbox
334.051 268.953 p0_0
gsave
fill
grestore
stroke
grestore
gsave
576 432 0 0 clipbox
334.17 281.731 p0_0
gsave
fill
grestore
stroke
grestore
gsave
576 432 0 0 clipbox
349.643 165.834 p0_0
gsave
fill
grestore
stroke
grestore
gsave
576 432 0 0 clipbox
349.807 178.018 p0_0
gsave
fill
grestore
stroke
grestore
gsave
576 432 0 0 clipbox
349.973 190.277 p0_0
gsave
fill
grestore
stroke
grestore
gsave
576 432 0 0 clipbox
350.139 202.611 p0_0
gsave
fill
grestore
stroke
grestore
gsave
576 432 0 0 clipbox
350.307 215.021 p0_0
gsave
fill
grestore
stroke
grestore
gsave
576 432 0 0 clipbox
350.476 227.508 p0_0
gsave
fill
grestore
stroke
grestore
gsave
576 432 0 0 clipbox
350.645 240.072 p0_0
gsave
fill
grestore
stroke
grestore
gsave
576 432 0 0 clipbox
350.816 252.715 p0_0
gsave
fill
grestore
stroke
grestore
gsave
576 432 0 0 clipbox
350.988 265.436 p0_0
gsave
fill
grestore
stroke
grestore
gsave
576 432 0 0 clipbox
351.161 278.237 p0_0
gsave
fill
grestore
stroke
grestore
gsave
576 432 0 0 clipbox
366.252 162.121 p0_0
gsave
fill
grestore
stroke
grestore
gsave
576 432 0 0 clipbox
366.468 174.326 p0_0
gsave
fill
grestore
stroke
grestore
gsave
576 432 0 0 clipbox
366.685 186.606 p0_0
gsave
fill
grestore
stroke
grestore
gsave
576 432 0 0 clipbox
366.904 198.961 p0_0
gsave
fill
grestore
stroke
grestore
gsave
576 432 0 0 clipbox
367.123 211.393 p0_0
gsave
fill
grestore
stroke
grestore
gsave
576 432 0 0 clipbox
367.345 223.903 p0_0
gsave
fill
grestore
stroke
grestore
gsave
576 432 0 0 clipbox
367.567 236.49 p0_0
gsave
fill
grestore
stroke
grestore
gsave
576 432 0 0 clipbox
367.791 249.155 p0_0
gsave
fill
grestore
stroke
grestore
gsave
576 432 0 0 clipbox
368.017 261.9 p0_0
gsave
fill
grestore
stroke
grestore
gsave
576 432 0 0 clipbox
368.243 274.725 p0_0
gsave
fill
grestore
stroke
grestore
gsave
576 432 0 0 clipbox
382.949 158.388 p0_0
gsave
fill
grestore
stroke
grestore
gsave
576 432 0 0 clipbox
383.217 170.614 p0_0
gsave
fill
grestore
stroke
grestore
gsave
576 432 0 0 clipbox
383.486 182.915 p0_0
gsave
fill
grestore
stroke
grestore
gsave
576 432 0 0 clipbox
383.757 195.292 p0_0
gsave
fill
grestore
stroke
grestore
gsave
576 432 0 0 clipbox
384.03 207.747 p0_0
gsave
fill
grestore
stroke
grestore
gsave
576 432 0 0 clipbox
384.304 220.278 p0_0
gsave
fill
grestore
stroke
grestore
gsave
576 432 0 0 clipbox
384.58 232.888 p0_0
gsave
fill
grestore
stroke
grestore
gsave
576 432 0 0 clipbox
384.858 245.576 p0_0
gsave
fill
grestore
stroke
grestore
gsave
576 432 0 0 clipbox
385.138 258.344 p0_0
gsave
fill
grestore
stroke
grestore
gsave
576 432 0 0 clipbox
385.419 271.193 p0_0
gsave
fill
grestore
stroke
grestore
gsave
576 432 0 0 clipbox
248.172 199.807 p0_0
gsave
fill
grestore
stroke
grestore
gsave
576 432 0 0 clipbox
248.021 212.554 p0_0
gsave
fill
grestore
stroke
grestore
gsave
576 432 0 0 clipbox
247.869 225.381 p0_0
gsave
fill
grestore
stroke
grestore
gsave
576 432 0 0 clipbox
247.716 238.291 p0_0
gsave
fill
grestore
stroke
grestore
gsave
576 432 0 0 clipbox
247.563 251.283 p0_0
gsave
fill
grestore
stroke
grestore
gsave
576 432 0 0 clipbox
247.408 264.358 p0_0
gsave
fill
grestore
stroke
grestore
gsave
576 432 0 0 clipbox
247.252 277.518 p0_0
gsave
fill
grestore
stroke
grestore
gsave
576 432 0 0 clipbox
247.095 290.763 p0_0
gsave
fill
grestore
stroke
grestore
gsave
576 432 0 0 clipbox
246.937 304.093 p0_0
gsave
fill
grestore
stroke
grestore
gsave
576 432 0 0 clipbox
246.779 317.511 p0_0
gsave
fill
grestore
stroke
grestore
gsave
576 432 0 0 clipbox
265.123 196.048 p0_0
gsave
fill
grestore
stroke
grestore
gsave
576 432 0 0 clipbox
265.025 208.818 p0_0
gsave
fill
grestore
stroke
grestore
gsave
576 432 0 0 clipbox
264.927 221.669 p0_0
gsave
fill
grestore
stroke
grestore
gsave
576 432 0 0 clipbox
264.828 234.603 p0_0
gsave
fill
grestore
stroke
grestore
gsave
576 432 0 0 clipbox
264.729 247.619 p0_0
gsave
fill
grestore
stroke
grestore
gsave
576 432 0 0 clipbox
264.629 260.719 p0_0
gsave
fill
grestore
stroke
grestore
gsave
576 432 0 0 clipbox
264.529 273.904 p0_0
gsave
fill
grestore
stroke
grestore
gsave
576 432 0 0 clipbox
264.427 287.174 p0_0
gsave
fill
grestore
stroke
grestore
gsave
576 432 0 0 clipbox
264.325 300.53 p0_0
gsave
fill
grestore
stroke
grestore
gsave
576 432 0 0 clipbox
264.223 313.974 p0_0
gsave
fill
grestore
stroke
grestore
gsave
576 432 0 0 clipbox
282.167 192.269 p0_0
gsave
fill
grestore
stroke
grestore
gsave
576 432 0 0 clipbox
282.123 205.062 p0_0
gsave
fill
grestore
stroke
grestore
gsave
576 432 0 0 clipbox
282.079 217.937 p0_0
gsave
fill
grestore
stroke
grestore
gsave
576 432 0 0 clipbox
282.036 230.894 p0_0
gsave
fill
grestore
stroke
grestore
gsave
576 432 0 0 clipbox
281.991 243.935 p0_0
gsave
fill
grestore
stroke
grestore
gsave
576 432 0 0 clipbox
281.947 257.06 p0_0
gsave
fill
grestore
stroke
grestore
gsave
576 432 0 0 clipbox
281.902 270.269 p0_0
gsave
fill
grestore
stroke
grestore
gsave
576 432 0 0 clipbox
281.857 283.565 p0_0
gsave
fill
grestore
stroke
grestore
gsave
576 432 0 0 clipbox
281.812 296.947 p0_0
gsave
fill
grestore
stroke
grestore
gsave
576 432 0 0 clipbox
281.766 310.417 p0_0
gsave
fill
grestore
stroke
grestore
gsave
576 432 0 0 clipbox
299.305 188.469 p0_0
gsave
fill
grestore
stroke
grestore
gsave
576 432 0 0 clipbox
299.316 201.285 p0_0
gsave
fill
grestore
stroke
grestore
gsave
576 432 0 0 clipbox
299.327 214.183 p0_0
gsave
fill
grestore
stroke
grestore
gsave
576 432 0 0 clipbox
299.339 227.165 p0_0
gsave
fill
grestore
stroke
grestore
gsave
576 432 0 0 clipbox
299.35 240.23 p0_0
gsave
fill
grestore
stroke
grestore
gsave
576 432 0 0 clipbox
299.362 253.379 p0_0
gsave
fill
grestore
stroke
grestore
gsave
576 432 0 0 clipbox
299.373 266.615 p0_0
gsave
fill
grestore
stroke
grestore
gsave
576 432 0 0 clipbox
299.385 279.936 p0_0
gsave
fill
grestore
stroke
grestore
gsave
576 432 0 0 clipbox
299.397 293.344 p0_0
gsave
fill
grestore
stroke
grestore
gsave
576 432 0 0 clipbox
299.408 306.84 p0_0
gsave
fill
grestore
stroke
grestore
gsave
576 432 0 0 clipbox
316.537 184.648 p0_0
gsave
fill
grestore
stroke
grestore
gsave
576 432 0 0 clipbox
316.604 197.487 p0_0
gsave
fill
grestore
stroke
grestore
gsave
576 432 0 0 clipbox
316.671 210.409 p0_0
gsave
fill
grestore
stroke
grestore
gsave
576 432 0 0 clipbox
316.738 223.415 p0_0
gsave
fill
grestore
stroke
grestore
gsave
576 432 0 0 clipbox
316.806 236.504 p0_0
gsave
fill
grestore
stroke
grestore
gsave
576 432 0 0 clipbox
316.874 249.679 p0_0
gsave
fill
grestore
stroke
grestore
gsave
576 432 0 0 clipbox
316.943 262.939 p0_0
gsave
fill
grestore
stroke
grestore
gsave
576 432 0 0 clipbox
317.012 276.286 p0_0
gsave
fill
grestore
stroke
grestore
gsave
576 432 0 0 clipbox
317.082 289.72 p0_0
gsave
fill
grestore
stroke
grestore
gsave
576 432 0 0 clipbox
317.152 303.243 p0_0
gsave
fill
grestore
stroke
grestore
gsave
576 432 0 0 clipbox
333.866 180.805 p0_0
gsave
fill
grestore
stroke
grestore
gsave
576 432 0 0 clipbox
333.988 193.668 p0_0
gsave
fill
grestore
stroke
grestore
gsave
576 432 0 0 clipbox
334.111 206.614 p0_0
gsave
fill
grestore
stroke
grestore
gsave
576 432 0 0 clipbox
334.235 219.644 p0_0
gsave
fill
grestore
stroke
grestore
gsave
576 432 0 0 clipbox
334.36 232.758 p0_0
gsave
fill
grestore
stroke
grestore
gsave
576 432 0 0 clipbox
334.486 245.957 p0_0
gsave
fill
grestore
stroke
grestore
gsave
576 432 0 0 clipbox
334.612 259.243 p0_0
gsave
fill
grestore
stroke
grestore
gsave
576 432 0 0 clipbox
334.739 272.615 p0_0
gsave
fill
grestore
stroke
grestore
gsave
576 432 0 0 clipbox
334.867 286.076 p0_0
gsave
fill
grestore
stroke
grestore
gsave
576 432 0 0 clipbox
334.996 299.626 p0_0
gsave
fill
grestore
stroke
grestore
gsave
576 432 0 0 clipbox
351.291 176.941 p0_0
gsave
fill
grestore
stroke
grestore
gsave
576 432 0 0 clipbox
351.469 189.828 p0_0
gsave
fill
grestore
stroke
grestore
gsave
576 432 0 0 clipbox
351.649 202.797 p0_0
gsave
fill
grestore
stroke
grestore
gsave
576 432 0 0 clipbox
351.831 215.851 p0_0
gsave
fill
grestore
stroke
grestore
gsave
576 432 0 0 clipbox
352.013 228.99 p0_0
gsave
fill
grestore
stroke
grestore
gsave
576 432 0 0 clipbox
352.196 242.214 p0_0
gsave
fill
grestore
stroke
grestore
gsave
576 432 0 0 clipbox
352.381 255.526 p0_0
gsave
fill
grestore
stroke
grestore
gsave
576 432 0 0 clipbox
352.567 268.924 p0_0
gsave
fill
grestore
stroke
grestore
gsave
576 432 0 0 clipbox
352.754 282.411 p0_0
gsave
fill
grestore
stroke
grestore
gsave
576 432 0 0 clipbox
352.943 295.987 p0_0
gsave
fill
grestore
stroke
grestore
gsave
576 432 0 0 clipbox
368.813 173.056 p0_0
gsave
fill
grestore
stroke
grestore
gsave
576 432 0 0 clipbox
369.049 185.966 p0_0
gsave
fill
grestore
stroke
grestore
gsave
576 432 0 0 clipbox
369.286 198.96 p0_0
gsave
fill
grestore
stroke
grestore
gsave
576 432 0 0 clipbox
369.525 212.038 p0_0
gsave
fill
grestore
stroke
grestore
gsave
576 432 0 0 clipbox
369.766 225.201 p0_0
gsave
fill
grestore
stroke
grestore
gsave
576 432 0 0 clipbox
370.008 238.451 p0_0
gsave
fill
grestore
stroke
grestore
gsave
576 432 0 0 clipbox
370.251 251.787 p0_0
gsave
fill
grestore
stroke
grestore
gsave
576 432 0 0 clipbox
370.497 265.212 p0_0
gsave
fill
grestore
stroke
grestore
gsave
576 432 0 0 clipbox
370.744 278.725 p0_0
gsave
fill
grestore
stroke
grestore
gsave
576 432 0 0 clipbox
370.992 292.328 p0_0
gsave
fill
grestore
stroke
grestore
gsave
576 432 0 0 clipbox
386.433 169.149 p0_0
gsave
fill
grestore
stroke
grestore
gsave
576 432 0 0 clipbox
386.726 182.083 p0_0
gsave
fill
grestore
stroke
grestore
gsave
576 432 0 0 clipbox
387.022 195.1 p0_0
gsave
fill
grestore
stroke
grestore
gsave
576 432 0 0 clipbox
387.319 208.202 p0_0
gsave
fill
grestore
stroke
grestore
gsave
576 432 0 0 clipbox
387.619 221.391 p0_0
gsave
fill
grestore
stroke
grestore
gsave
576 432 0 0 clipbox
387.92 234.665 p0_0
gsave
fill
grestore
stroke
grestore
gsave
576 432 0 0 clipbox
388.224 248.027 p0_0
gsave
fill
grestore
stroke
grestore
gsave
576 432 0 0 clipbox
388.529 261.478 p0_0
gsave
fill
grestore
stroke
grestore
gsave
576 432 0 0 clipbox
388.837 275.018 p0_0
gsave
fill
grestore
stroke
grestore
gsave
576 432 0 0 clipbox
389.146 288.647 p0_0
gsave
fill
grestore
stroke
grestore
gsave
576 432 0 0 clipbox
404.151 165.22 p0_0
gsave
fill
grestore
stroke
grestore
gsave
576 432 0 0 clipbox
404.503 178.177 p0_0
gsave
fill
grestore
stroke
grestore
gsave
576 432 0 0 clipbox
404.858 191.219 p0_0
gsave
fill
grestore
stroke
grestore
gsave
576 432 0 0 clipbox
405.215 204.346 p0_0
gsave
fill
grestore
stroke
grestore
gsave
576 432 0 0 clipbox
405.574 217.558 p0_0
gsave
fill
grestore
stroke
grestore
gsave
576 432 0 0 clipbox
405.935 230.858 p0_0
gsave
fill
grestore
stroke
grestore
gsave
576 432 0 0 clipbox
406.299 244.246 p0_0
gsave
fill
grestore
stroke
grestore
gsave
576 432 0 0 clipbox
406.665 257.723 p0_0
gsave
fill
grestore
stroke
grestore
gsave
576 432 0 0 clipbox
407.034 271.289 p0_0
gsave
fill
grestore
stroke
grestore
gsave
576 432 0 0 clipbox
407.405 284.946 p0_0
gsave
fill
grestore
stroke
grestore
gsave
576 432 0 0 clipbox
261.364 208.836 p0_0
gsave
fill
grestore
stroke
grestore
gsave
576 432 0 0 clipbox
261.249 222.276 p0_0
gsave
fill
grestore
stroke
grestore
gsave
576 432 0 0 clipbox
261.134 235.805 p0_0
gsave
fill
grestore
stroke
grestore
gsave
576 432 0 0 clipbox
261.018 249.426 p0_0
gsave
fill
grestore
stroke
grestore
gsave
576 432 0 0 clipbox
260.9 263.137 p0_0
gsave
fill
grestore
stroke
grestore
gsave
576 432 0 0 clipbox
260.783 276.942 p0_0
gsave
fill
grestore
stroke
grestore
gsave
576 432 0 0 clipbox
260.664 290.84 p0_0
gsave
fill
grestore
stroke
grestore
gsave
576 432 0 0 clipbox
260.544 304.833 p0_0
gsave
fill
grestore
stroke
grestore
gsave
576 432 0 0 clipbox
260.424 318.921 p0_0
gsave
fill
grestore
stroke
grestore
gsave
576 432 0 0 clipbox
260.303 333.106 p0_0
gsave
fill
grestore
stroke
grestore
gsave
576 432 0 0 clipbox
279.234 204.909 p0_0
gsave
fill
grestore
stroke
grestore
gsave
576 432 0 0 clipbox
279.178 218.374 p0_0
gsave
fill
grestore
stroke
grestore
gsave
576 432 0 0 clipbox
279.123 231.929 p0_0
gsave
fill
grestore
stroke
grestore
gsave
576 432 0 0 clipbox
279.067 245.576 p0_0
gsave
fill
grestore
stroke
grestore
gsave
576 432 0 0 clipbox
279.01 259.315 p0_0
gsave
fill
grestore
stroke
grestore
gsave
576 432 0 0 clipbox
278.953 273.147 p0_0
gsave
fill
grestore
stroke
grestore
gsave
576 432 0 0 clipbox
278.896 287.074 p0_0
gsave
fill
grestore
stroke
grestore
gsave
576 432 0 0 clipbox
278.839 301.095 p0_0
gsave
fill
grestore
stroke
grestore
gsave
576 432 0 0 clipbox
278.781 315.212 p0_0
gsave
fill
grestore
stroke
grestore
gsave
576 432 0 0 clipbox
278.722 329.426 p0_0
gsave
fill
grestore
stroke
grestore
gsave
576 432 0 0 clipbox
297.207 200.958 p0_0
gsave
fill
grestore
stroke
grestore
gsave
576 432 0 0 clipbox
297.212 214.449 p0_0
gsave
fill
grestore
stroke
grestore
gsave
576 432 0 0 clipbox
297.217 228.031 p0_0
gsave
fill
grestore
stroke
grestore
gsave
576 432 0 0 clipbox
297.221 241.704 p0_0
gsave
fill
grestore
stroke
grestore
gsave
576 432 0 0 clipbox
297.226 255.471 p0_0
gsave
fill
grestore
stroke
grestore
gsave
576 432 0 0 clipbox
297.231 269.33 p0_0
gsave
fill
grestore
stroke
grestore
gsave
576 432 0 0 clipbox
297.236 283.285 p0_0
gsave
fill
grestore
stroke
grestore
gsave
576 432 0 0 clipbox
297.241 297.334 p0_0
gsave
fill
grestore
stroke
grestore
gsave
576 432 0 0 clipbox
297.246 311.481 p0_0
gsave
fill
grestore
stroke
grestore
gsave
576 432 0 0 clipbox
297.251 325.724 p0_0
gsave
fill
grestore
stroke
grestore
gsave
576 432 0 0 clipbox
315.284 196.984 p0_0
gsave
fill
grestore
stroke
grestore
gsave
576 432 0 0 clipbox
315.35 210.501 p0_0
gsave
fill
grestore
stroke
grestore
gsave
576 432 0 0 clipbox
315.416 224.11 p0_0
gsave
fill
grestore
stroke
grestore
gsave
576 432 0 0 clipbox
315.483 237.81 p0_0
gsave
fill
grestore
stroke
grestore
gsave
576 432 0 0 clipbox
315.549 251.603 p0_0
gsave
fill
grestore
stroke
grestore
gsave
576 432 0 0 clipbox
315.617 265.491 p0_0
gsave
fill
grestore
stroke
grestore
gsave
576 432 0 0 clipbox
315.685 279.473 p0_0
gsave
fill
grestore
stroke
grestore
gsave
576 432 0 0 clipbox
315.753 293.552 p0_0
gsave
fill
grestore
stroke
grestore
gsave
576 432 0 0 clipbox
315.822 307.727 p0_0
gsave
fill
grestore
stroke
grestore
gsave
576 432 0 0 clipbox
315.891 322.001 p0_0
gsave
fill
grestore
stroke
grestore
gsave
576 432 0 0 clipbox
333.467 192.988 p0_0
gsave
fill
grestore
stroke
grestore
gsave
576 432 0 0 clipbox
333.594 206.531 p0_0
gsave
fill
grestore
stroke
grestore
gsave
576 432 0 0 clipbox
333.722 220.165 p0_0
gsave
fill
grestore
stroke
grestore
gsave
576 432 0 0 clipbox
333.851 233.893 p0_0
gsave
fill
grestore
stroke
grestore
gsave
576 432 0 0 clipbox
333.981 247.713 p0_0
gsave
fill
grestore
stroke
grestore
gsave
576 432 0 0 clipbox
334.111 261.629 p0_0
gsave
fill
grestore
stroke
grestore
gsave
576 432 0 0 clipbox
334.243 275.639 p0_0
gsave
fill
grestore
stroke
grestore
gsave
576 432 0 0 clipbox
334.375 289.747 p0_0
gsave
fill
grestore
stroke
grestore
gsave
576 432 0 0 clipbox
334.508 303.951 p0_0
gsave
fill
grestore
stroke
grestore
gsave
576 432 0 0 clipbox
334.643 318.255 p0_0
gsave
fill
grestore
stroke
grestore
gsave
576 432 0 0 clipbox
351.756 188.967 p0_0
gsave
fill
grestore
stroke
grestore
gsave
576 432 0 0 clipbox
351.945 202.537 p0_0
gsave
fill
grestore
stroke
grestore
gsave
576 432 0 0 clipbox
352.136 216.198 p0_0
gsave
fill
grestore
stroke
grestore
gsave
576 432 0 0 clipbox
352.328 229.952 p0_0
gsave
fill
grestore
stroke
grestore
gsave
576 432 0 0 clipbox
352.521 243.8 p0_0
gsave
fill
grestore
stroke
grestore
gsave
576 432 0 0 clipbox
352.716 257.744 p0_0
gsave
fill
grestore
stroke
grestore
gsave
576 432 0 0 clipbox
352.912 271.783 p0_0
gsave
fill
grestore
stroke
grestore
gsave
576 432 0 0 clipbox
353.109 285.919 p0_0
gsave
fill
grestore
stroke
grestore
gsave
576 432 0 0 clipbox
353.307 300.153 p0_0
gsave
fill
grestore
stroke
grestore
gsave
576 432 0 0 clipbox
353.507 314.486 p0_0
gsave
fill
grestore
stroke
grestore
gsave
576 432 0 0 clipbox
370.152 184.924 p0_0
gsave
fill
grestore
stroke
grestore
gsave
576 432 0 0 clipbox
370.404 198.519 p0_0
gsave
fill
grestore
stroke
grestore
gsave
576 432 0 0 clipbox
370.658 212.207 p0_0
gsave
fill
grestore
stroke
grestore
gsave
576 432 0 0 clipbox
370.914 225.988 p0_0
gsave
fill
grestore
stroke
grestore
gsave
576 432 0 0 clipbox
371.172 239.864 p0_0
gsave
fill
grestore
stroke
grestore
gsave
576 432 0 0 clipbox
371.431 253.835 p0_0
gsave
fill
grestore
stroke
grestore
gsave
576 432 0 0 clipbox
371.692 267.903 p0_0
gsave
fill
grestore
stroke
grestore
gsave
576 432 0 0 clipbox
371.955 282.068 p0_0
gsave
fill
grestore
stroke
grestore
gsave
576 432 0 0 clipbox
372.219 296.331 p0_0
gsave
fill
grestore
stroke
grestore
gsave
576 432 0 0 clipbox
372.486 310.694 p0_0
gsave
fill
grestore
stroke
grestore
gsave
576 432 0 0 clipbox
388.656 180.856 p0_0
gsave
fill
grestore
stroke
grestore
gsave
576 432 0 0 clipbox
388.972 194.478 p0_0
gsave
fill
grestore
stroke
grestore
gsave
576 432 0 0 clipbox
389.29 208.192 p0_0
gsave
fill
grestore
stroke
grestore
gsave
576 432 0 0 clipbox
389.611 222.001 p0_0
gsave
fill
grestore
stroke
grestore
gsave
576 432 0 0 clipbox
389.933 235.904 p0_0
gsave
fill
grestore
stroke
grestore
gsave
576 432 0 0 clipbox
390.258 249.904 p0_0
gsave
fill
grestore
stroke
grestore
gsave
576 432 0 0 clipbox
390.585 264 p0_0
gsave
fill
grestore
stroke
grestore
gsave
576 432 0 0 clipbox
390.914 278.194 p0_0
gsave
fill
grestore
stroke
grestore
gsave
576 432 0 0 clipbox
391.246 292.487 p0_0
gsave
fill
grestore
stroke
grestore
gsave
576 432 0 0 clipbox
391.58 306.88 p0_0
gsave
fill
grestore
stroke
grestore
gsave
576 432 0 0 clipbox
407.269 176.765 p0_0
gsave
fill
grestore
stroke
grestore
gsave
576 432 0 0 clipbox
407.65 190.413 p0_0
gsave
fill
grestore
stroke
grestore
gsave
576 432 0 0 clipbox
408.033 204.154 p0_0
gsave
fill
grestore
stroke
grestore
gsave
576 432 0 0 clipbox
408.418 217.99 p0_0
gsave
fill
grestore
stroke
grestore
gsave
576 432 0 0 clipbox
408.807 231.921 p0_0
gsave
fill
grestore
stroke
grestore
gsave
576 432 0 0 clipbox
409.198 245.948 p0_0
gsave
fill
grestore
stroke
grestore
gsave
576 432 0 0 clipbox
409.591 260.073 p0_0
gsave
fill
grestore
stroke
grestore
gsave
576 432 0 0 clipbox
409.988 274.296 p0_0
gsave
fill
grestore
stroke
grestore
gsave
576 432 0 0 clipbox
410.387 288.619 p0_0
gsave
fill
grestore
stroke
grestore
gsave
576 432 0 0 clipbox
410.789 303.042 p0_0
gsave
fill
grestore
stroke
grestore
gsave
576 432 0 0 clipbox
425.992 172.65 p0_0
gsave
fill
grestore
stroke
grestore
gsave
576 432 0 0 clipbox
426.438 186.324 p0_0
gsave
fill
grestore
stroke
grestore
gsave
576 432 0 0 clipbox
426.887 200.092 p0_0
gsave
fill
grestore
stroke
grestore
gsave
576 432 0 0 clipbox
427.338 213.955 p0_0
gsave
fill
grestore
stroke
grestore
gsave
576 432 0 0 clipbox
427.793 227.914 p0_0
gsave
fill
grestore
stroke
grestore
gsave
576 432 0 0 clipbox
428.251 241.969 p0_0
gsave
fill
grestore
stroke
grestore
gsave
576 432 0 0 clipbox
428.713 256.123 p0_0
gsave
fill
grestore
stroke
grestore
gsave
576 432 0 0 clipbox
429.177 270.375 p0_0
gsave
fill
grestore
stroke
grestore
gsave
576 432 0 0 clipbox
429.645 284.728 p0_0
gsave
fill
grestore
stroke
grestore
gsave
576 432 0 0 clipbox
430.116 299.181 p0_0
gsave
fill
grestore
stroke
grestore
gsave
576 432 0 0 clipbox
275.32 218.348 p0_0
gsave
fill
grestore
stroke
grestore
gsave
576 432 0 0 clipbox
275.249 232.465 p0_0
gsave
fill
grestore
stroke
grestore
gsave
576 432 0 0 clipbox
275.177 246.681 p0_0
gsave
fill
grestore
stroke
grestore
gsave
576 432 0 0 clipbox
275.104 260.997 p0_0
gsave
fill
grestore
stroke
grestore
gsave
576 432 0 0 clipbox
275.031 275.414 p0_0
gsave
fill
grestore
stroke
grestore
gsave
576 432 0 0 clipbox
274.958 289.934 p0_0
gsave
fill
grestore
stroke
grestore
gsave
576 432 0 0 clipbox
274.884 304.556 p0_0
gsave
fill
grestore
stroke
grestore
gsave
576 432 0 0 clipbox
274.809 319.283 p0_0
gsave
fill
grestore
stroke
grestore
gsave
576 432 0 0 clipbox
274.734 334.115 p0_0
gsave
fill
grestore
stroke
grestore
gsave
576 432 0 0 clipbox
274.659 349.054 p0_0
gsave
fill
grestore
stroke
grestore
gsave
576 432 0 0 clipbox
294.089 214.261 p0_0
gsave
fill
grestore
stroke
grestore
gsave
576 432 0 0 clipbox
294.083 228.406 p0_0
gsave
fill
grestore
stroke
grestore
gsave
576 432 0 0 clipbox
294.077 242.651 p0_0
gsave
fill
grestore
stroke
grestore
gsave
576 432 0 0 clipbox
294.071 256.997 p0_0
gsave
fill
grestore
stroke
grestore
gsave
576 432 0 0 clipbox
294.065 271.444 p0_0
gsave
fill
grestore
stroke
grestore
gsave
576 432 0 0 clipbox
294.058 285.994 p0_0
gsave
fill
grestore
stroke
grestore
gsave
576 432 0 0 clipbox
294.052 300.647 p0_0
gsave
fill
grestore
stroke
grestore
gsave
576 432 0 0 clipbox
294.046 315.406 p0_0
gsave
fill
grestore
stroke
grestore
gsave
576 432 0 0 clipbox
294.04 330.271 p0_0
gsave
fill
grestore
stroke
grestore
gsave
576 432 0 0 clipbox
294.034 345.242 p0_0
gsave
fill
grestore
stroke
grestore
gsave
576 432 0 0 clipbox
312.971 210.149 p0_0
gsave
fill
grestore
stroke
grestore
gsave
576 432 0 0 clipbox
313.031 224.323 p0_0
gsave
fill
grestore
stroke
grestore
gsave
576 432 0 0 clipbox
313.092 238.597 p0_0
gsave
fill
grestore
stroke
grestore
gsave
576 432 0 0 clipbox
313.153 252.972 p0_0
gsave
fill
grestore
stroke
grestore
gsave
576 432 0 0 clipbox
313.215 267.449 p0_0
gsave
fill
grestore
stroke
grestore
gsave
576 432 0 0 clipbox
313.277 282.03 p0_0
gsave
fill
grestore
stroke
grestore
gsave
576 432 0 0 clipbox
313.34 296.715 p0_0
gsave
fill
grestore
stroke
grestore
gsave
576 432 0 0 clipbox
313.403 311.505 p0_0
gsave
fill
grestore
stroke
grestore
gsave
576 432 0 0 clipbox
313.466 326.402 p0_0
gsave
fill
grestore
stroke
grestore
gsave
576 432 0 0 clipbox
313.53 341.406 p0_0
gsave
fill
grestore
stroke
grestore
gsave
576 432 0 0 clipbox
331.968 206.012 p0_0
gsave
fill
grestore
stroke
grestore
gsave
576 432 0 0 clipbox
332.095 220.214 p0_0
gsave
fill
grestore
stroke
grestore
gsave
576 432 0 0 clipbox
332.224 234.518 p0_0
gsave
fill
grestore
stroke
grestore
gsave
576 432 0 0 clipbox
332.353 248.922 p0_0
gsave
fill
grestore
stroke
grestore
gsave
576 432 0 0 clipbox
332.483 263.43 p0_0
gsave
fill
grestore
stroke
grestore
gsave
576 432 0 0 clipbox
332.615 278.041 p0_0
gsave
fill
grestore
stroke
grestore
gsave
576 432 0 0 clipbox
332.747 292.757 p0_0
gsave
fill
grestore
stroke
grestore
gsave
576 432 0 0 clipbox
332.88 307.58 p0_0
gsave
fill
grestore
stroke
grestore
gsave
576 432 0 0 clipbox
333.014 322.509 p0_0
gsave
fill
grestore
stroke
grestore
gsave
576 432 0 0 clipbox
333.149 337.546 p0_0
gsave
fill
grestore
stroke
grestore
gsave
576 432 0 0 clipbox
351.081 201.849 p0_0
gsave
fill
grestore
stroke
grestore
gsave
576 432 0 0 clipbox
351.276 216.081 p0_0
gsave
fill
grestore
stroke
grestore
gsave
576 432 0 0 clipbox
351.473 230.413 p0_0
gsave
fill
grestore
stroke
grestore
gsave
576 432 0 0 clipbox
351.671 244.848 p0_0
gsave
fill
grestore
stroke
grestore
gsave
576 432 0 0 clipbox
351.871 259.386 p0_0
gsave
fill
grestore
stroke
grestore
gsave
576 432 0 0 clipbox
352.072 274.028 p0_0
gsave
fill
grestore
stroke
grestore
gsave
576 432 0 0 clipbox
352.275 288.775 p0_0
gsave
fill
grestore
stroke
grestore
gsave
576 432 0 0 clipbox
352.479 303.63 p0_0
gsave
fill
grestore
stroke
grestore
gsave
576 432 0 0 clipbox
352.685 318.591 p0_0
gsave
fill
grestore
stroke
grestore
gsave
576 432 0 0 clipbox
352.892 333.662 p0_0
gsave
fill
grestore
stroke
grestore
gsave
576 432 0 0 clipbox
370.31 197.661 p0_0
gsave
fill
grestore
stroke
grestore
gsave
576 432 0 0 clipbox
370.575 211.922 p0_0
gsave
fill
grestore
stroke
grestore
gsave
576 432 0 0 clipbox
370.841 226.284 p0_0
gsave
fill
grestore
stroke
grestore
gsave
576 432 0 0 clipbox
371.109 240.748 p0_0
gsave
fill
grestore
stroke
grestore
gsave
576 432 0 0 clipbox
371.379 255.316 p0_0
gsave
fill
grestore
stroke
grestore
gsave
576 432 0 0 clipbox
371.651 269.99 p0_0
gsave
fill
grestore
stroke
grestore
gsave
576 432 0 0 clipbox
371.925 284.769 p0_0
gsave
fill
grestore
stroke
grestore
gsave
576 432 0 0 clipbox
372.201 299.655 p0_0
gsave
fill
grestore
stroke
grestore
gsave
576 432 0 0 clipbox
372.479 314.649 p0_0
gsave
fill
grestore
stroke
grestore
gsave
576 432 0 0 clipbox
372.759 329.753 p0_0
gsave
fill
grestore
stroke
grestore
gsave
576 432 0 0 clipbox
389.659 193.447 p0_0
gsave
fill
grestore
stroke
grestore
gsave
576 432 0 0 clipbox
389.993 207.737 p0_0
gsave
fill
grestore
stroke
grestore
gsave
576 432 0 0 clipbox
390.329 222.128 p0_0
gsave
fill
grestore
stroke
grestore
gsave
576 432 0 0 clipbox
390.668 236.623 p0_0
gsave
fill
grestore
stroke
grestore
gsave
576 432 0 0 clipbox
391.009 251.222 p0_0
gsave
fill
grestore
stroke
grestore
gsave
576 432 0 0 clipbox
391.353 265.926 p0_0
gsave
fill
grestore
stroke
grestore
gsave
576 432 0 0 clipbox
391.699 280.737 p0_0
gsave
fill
grestore
stroke
grestore
gsave
576 432 0 0 clipbox
392.048 295.655 p0_0
gsave
fill
grestore
stroke
grestore
gsave
576 432 0 0 clipbox
392.399 310.682 p0_0
gsave
fill
grestore
stroke
grestore
gsave
576 432 0 0 clipbox
392.753 325.82 p0_0
gsave
fill
grestore
stroke
grestore
gsave
576 432 0 0 clipbox
409.126 189.208 p0_0
gsave
fill
grestore
stroke
grestore
gsave
576 432 0 0 clipbox
409.53 203.526 p0_0
gsave
fill
grestore
stroke
grestore
gsave
576 432 0 0 clipbox
409.938 217.947 p0_0
gsave
fill
grestore
stroke
grestore
gsave
576 432 0 0 clipbox
410.348 232.472 p0_0
gsave
fill
grestore
stroke
grestore
gsave
576 432 0 0 clipbox
410.761 247.101 p0_0
gsave
fill
grestore
stroke
grestore
gsave
576 432 0 0 clipbox
411.178 261.837 p0_0
gsave
fill
grestore
stroke
grestore
gsave
576 432 0 0 clipbox
411.597 276.679 p0_0
gsave
fill
grestore
stroke
grestore
gsave
576 432 0 0 clipbox
412.019 291.63 p0_0
gsave
fill
grestore
stroke
grestore
gsave
576 432 0 0 clipbox
412.445 306.69 p0_0
gsave
fill
grestore
stroke
grestore
gsave
576 432 0 0 clipbox
412.873 321.861 p0_0
gsave
fill
grestore
stroke
grestore
gsave
576 432 0 0 clipbox
428.713 184.942 p0_0
gsave
fill
grestore
stroke
grestore
gsave
576 432 0 0 clipbox
429.189 199.29 p0_0
gsave
fill
grestore
stroke
grestore
gsave
576 432 0 0 clipbox
429.668 213.74 p0_0
gsave
fill
grestore
stroke
grestore
gsave
576 432 0 0 clipbox
430.151 228.295 p0_0
gsave
fill
grestore
stroke
grestore
gsave
576 432 0 0 clipbox
430.637 242.955 p0_0
gsave
fill
grestore
stroke
grestore
gsave
576 432 0 0 clipbox
431.127 257.722 p0_0
gsave
fill
grestore
stroke
grestore
gsave
576 432 0 0 clipbox
431.621 272.596 p0_0
gsave
fill
grestore
stroke
grestore
gsave
576 432 0 0 clipbox
432.118 287.58 p0_0
gsave
fill
grestore
stroke
grestore
gsave
576 432 0 0 clipbox
432.618 302.673 p0_0
gsave
fill
grestore
stroke
grestore
gsave
576 432 0 0 clipbox
433.122 317.877 p0_0
gsave
fill
grestore
stroke
grestore
gsave
576 432 0 0 clipbox
448.422 180.65 p0_0
gsave
fill
grestore
stroke
grestore
gsave
576 432 0 0 clipbox
448.97 195.027 p0_0
gsave
fill
grestore
stroke
grestore
gsave
576 432 0 0 clipbox
449.522 209.507 p0_0
gsave
fill
grestore
stroke
grestore
gsave
576 432 0 0 clipbox
450.078 224.092 p0_0
gsave
fill
grestore
stroke
grestore
gsave
576 432 0 0 clipbox
450.638 238.783 p0_0
gsave
fill
grestore
stroke
grestore
gsave
576 432 0 0 clipbox
451.203 253.581 p0_0
gsave
fill
grestore
stroke
grestore
gsave
576 432 0 0 clipbox
451.771 268.488 p0_0
gsave
fill
grestore
stroke
grestore
gsave
576 432 0 0 clipbox
452.344 283.503 p0_0
gsave
fill
grestore
stroke
grestore
gsave
576 432 0 0 clipbox
452.92 298.63 p0_0
gsave
fill
grestore
stroke
grestore
gsave
576 432 0 0 clipbox
453.501 313.868 p0_0
gsave
fill
grestore
stroke
grestore

end
showpage
